<?xml version="1.0" encoding="UTF-8"?>
<svg xmlns="http://www.w3.org/2000/svg" xmlns:xlink="http://www.w3.org/1999/xlink" width="292pt" height="90pt" viewBox="0 0 292 90" version="1.1">
<defs>
<g>
<symbol overflow="visible" id="glyph0-0">
<path style="stroke:none;" d="M 0.78125 2.75 L 0.78125 -11 L 8.578125 -11 L 8.578125 2.75 Z M 1.65625 1.890625 L 7.703125 1.890625 L 7.703125 -10.125 L 1.65625 -10.125 Z "/>
</symbol>
<symbol overflow="visible" id="glyph0-1">
<path style="stroke:none;" d="M 1.53125 -11.375 L 3.59375 -11.375 L 8.640625 -1.859375 L 8.640625 -11.375 L 10.140625 -11.375 L 10.140625 0 L 8.0625 0 L 3.015625 -9.515625 L 3.015625 0 L 1.53125 0 Z "/>
</symbol>
<symbol overflow="visible" id="glyph1-0">
<path style="stroke:none;" d="M 0.78125 2.75 L 0.78125 -11 L 8.578125 -11 L 8.578125 2.75 Z M 1.65625 1.890625 L 7.703125 1.890625 L 7.703125 -10.125 L 1.65625 -10.125 Z "/>
</symbol>
<symbol overflow="visible" id="glyph1-1">
<path style="stroke:none;" d="M 1.4375 -11.375 L 4.703125 -11.375 L 8.84375 -3.578125 L 8.84375 -11.375 L 11.625 -11.375 L 11.625 0 L 8.34375 0 L 4.203125 -7.796875 L 4.203125 0 L 1.4375 0 Z "/>
</symbol>
<symbol overflow="visible" id="glyph1-2">
<path style="stroke:none;" d="M 10.453125 -0.625 C 9.910156 -0.34375 9.347656 -0.132812 8.765625 0 C 8.179688 0.144531 7.570312 0.21875 6.9375 0.21875 C 5.039062 0.21875 3.539062 -0.304688 2.4375 -1.359375 C 1.332031 -2.421875 0.78125 -3.859375 0.78125 -5.671875 C 0.78125 -7.484375 1.332031 -8.921875 2.4375 -9.984375 C 3.539062 -11.046875 5.039062 -11.578125 6.9375 -11.578125 C 7.570312 -11.578125 8.179688 -11.503906 8.765625 -11.359375 C 9.347656 -11.210938 9.910156 -11.003906 10.453125 -10.734375 L 10.453125 -8.375 C 9.898438 -8.75 9.359375 -9.019531 8.828125 -9.1875 C 8.304688 -9.363281 7.753906 -9.453125 7.171875 -9.453125 C 6.128906 -9.453125 5.304688 -9.113281 4.703125 -8.4375 C 4.109375 -7.769531 3.8125 -6.847656 3.8125 -5.671875 C 3.8125 -4.492188 4.109375 -3.570312 4.703125 -2.90625 C 5.304688 -2.238281 6.128906 -1.90625 7.171875 -1.90625 C 7.753906 -1.90625 8.304688 -1.988281 8.828125 -2.15625 C 9.359375 -2.332031 9.898438 -2.609375 10.453125 -2.984375 Z "/>
</symbol>
<symbol overflow="visible" id="glyph1-3">
<path style="stroke:none;" d="M 1.4375 -11.375 L 4.359375 -11.375 L 4.359375 -7.03125 L 8.6875 -7.03125 L 8.6875 -11.375 L 11.625 -11.375 L 11.625 0 L 8.6875 0 L 8.6875 -4.8125 L 4.359375 -4.8125 L 4.359375 0 L 1.4375 0 Z "/>
</symbol>
<symbol overflow="visible" id="glyph2-0">
<path style="stroke:none;" d="M 0.515625 1.84375 L 0.515625 -7.34375 L 5.71875 -7.34375 L 5.71875 1.84375 Z M 1.109375 1.265625 L 5.140625 1.265625 L 5.140625 -6.75 L 1.109375 -6.75 Z "/>
</symbol>
<symbol overflow="visible" id="glyph2-1">
<path style="stroke:none;" d="M 3 -1.4375 L 6.34375 -1.4375 L 6.34375 0 L 0.828125 0 L 0.828125 -1.4375 L 3.59375 -3.875 C 3.84375 -4.101562 4.023438 -4.320312 4.140625 -4.53125 C 4.253906 -4.75 4.3125 -4.972656 4.3125 -5.203125 C 4.3125 -5.554688 4.191406 -5.84375 3.953125 -6.0625 C 3.722656 -6.28125 3.410156 -6.390625 3.015625 -6.390625 C 2.703125 -6.390625 2.363281 -6.320312 2 -6.1875 C 1.644531 -6.0625 1.257812 -5.867188 0.84375 -5.609375 L 0.84375 -7.28125 C 1.28125 -7.425781 1.710938 -7.535156 2.140625 -7.609375 C 2.578125 -7.679688 3.003906 -7.71875 3.421875 -7.71875 C 4.328125 -7.71875 5.03125 -7.519531 5.53125 -7.125 C 6.03125 -6.726562 6.28125 -6.171875 6.28125 -5.453125 C 6.28125 -5.035156 6.171875 -4.648438 5.953125 -4.296875 C 5.742188 -3.941406 5.300781 -3.460938 4.625 -2.859375 Z "/>
</symbol>
<symbol overflow="visible" id="glyph3-0">
<path style="stroke:none;" d="M 0.703125 2.46875 L 0.703125 -9.875 L 7.703125 -9.875 L 7.703125 2.46875 Z M 1.484375 1.703125 L 6.921875 1.703125 L 6.921875 -9.078125 L 1.484375 -9.078125 Z "/>
</symbol>
<symbol overflow="visible" id="glyph3-1">
<path style="stroke:none;" d="M 5.75 -6.484375 C 5.613281 -6.566406 5.460938 -6.625 5.296875 -6.65625 C 5.128906 -6.695312 4.945312 -6.71875 4.75 -6.71875 C 4.03125 -6.71875 3.476562 -6.484375 3.09375 -6.015625 C 2.71875 -5.554688 2.53125 -4.894531 2.53125 -4.03125 L 2.53125 0 L 1.265625 0 L 1.265625 -7.65625 L 2.53125 -7.65625 L 2.53125 -6.46875 C 2.800781 -6.9375 3.144531 -7.28125 3.5625 -7.5 C 3.988281 -7.726562 4.503906 -7.84375 5.109375 -7.84375 C 5.203125 -7.84375 5.300781 -7.835938 5.40625 -7.828125 C 5.507812 -7.816406 5.625 -7.796875 5.75 -7.765625 Z "/>
</symbol>
<symbol overflow="visible" id="glyph3-2">
<path style="stroke:none;" d="M 7.875 -4.140625 L 7.875 -3.53125 L 2.078125 -3.53125 C 2.140625 -2.664062 2.398438 -2.003906 2.859375 -1.546875 C 3.328125 -1.097656 3.976562 -0.875 4.8125 -0.875 C 5.300781 -0.875 5.769531 -0.929688 6.21875 -1.046875 C 6.675781 -1.160156 7.128906 -1.335938 7.578125 -1.578125 L 7.578125 -0.390625 C 7.117188 -0.203125 6.648438 -0.0546875 6.171875 0.046875 C 5.703125 0.148438 5.226562 0.203125 4.75 0.203125 C 3.519531 0.203125 2.546875 -0.148438 1.828125 -0.859375 C 1.117188 -1.578125 0.765625 -2.539062 0.765625 -3.75 C 0.765625 -5.007812 1.101562 -6.003906 1.78125 -6.734375 C 2.457031 -7.472656 3.375 -7.84375 4.53125 -7.84375 C 5.5625 -7.84375 6.375 -7.507812 6.96875 -6.84375 C 7.570312 -6.1875 7.875 -5.285156 7.875 -4.140625 Z M 6.609375 -4.515625 C 6.597656 -5.203125 6.40625 -5.75 6.03125 -6.15625 C 5.65625 -6.570312 5.160156 -6.78125 4.546875 -6.78125 C 3.835938 -6.78125 3.269531 -6.578125 2.84375 -6.171875 C 2.425781 -5.773438 2.1875 -5.21875 2.125 -4.5 Z "/>
</symbol>
<symbol overflow="visible" id="glyph3-3">
<path style="stroke:none;" d="M 7.6875 -4.625 L 7.6875 0 L 6.421875 0 L 6.421875 -4.578125 C 6.421875 -5.304688 6.28125 -5.847656 6 -6.203125 C 5.71875 -6.566406 5.296875 -6.75 4.734375 -6.75 C 4.054688 -6.75 3.519531 -6.53125 3.125 -6.09375 C 2.726562 -5.664062 2.53125 -5.078125 2.53125 -4.328125 L 2.53125 0 L 1.265625 0 L 1.265625 -7.65625 L 2.53125 -7.65625 L 2.53125 -6.46875 C 2.832031 -6.925781 3.1875 -7.269531 3.59375 -7.5 C 4.007812 -7.726562 4.484375 -7.84375 5.015625 -7.84375 C 5.890625 -7.84375 6.550781 -7.566406 7 -7.015625 C 7.457031 -6.472656 7.6875 -5.675781 7.6875 -4.625 Z "/>
</symbol>
<symbol overflow="visible" id="glyph3-4">
<path style="stroke:none;" d="M 6.359375 -6.5 L 6.359375 -10.640625 L 7.609375 -10.640625 L 7.609375 0 L 6.359375 0 L 6.359375 -1.15625 C 6.097656 -0.695312 5.765625 -0.351562 5.359375 -0.125 C 4.953125 0.09375 4.46875 0.203125 3.90625 0.203125 C 2.976562 0.203125 2.222656 -0.164062 1.640625 -0.90625 C 1.054688 -1.644531 0.765625 -2.617188 0.765625 -3.828125 C 0.765625 -5.023438 1.054688 -5.992188 1.640625 -6.734375 C 2.222656 -7.472656 2.976562 -7.84375 3.90625 -7.84375 C 4.46875 -7.84375 4.953125 -7.726562 5.359375 -7.5 C 5.765625 -7.28125 6.097656 -6.945312 6.359375 -6.5 Z M 2.078125 -3.828125 C 2.078125 -2.898438 2.265625 -2.171875 2.640625 -1.640625 C 3.023438 -1.117188 3.550781 -0.859375 4.21875 -0.859375 C 4.875 -0.859375 5.394531 -1.117188 5.78125 -1.640625 C 6.164062 -2.171875 6.359375 -2.898438 6.359375 -3.828125 C 6.359375 -4.742188 6.164062 -5.460938 5.78125 -5.984375 C 5.394531 -6.515625 4.875 -6.78125 4.21875 -6.78125 C 3.550781 -6.78125 3.023438 -6.515625 2.640625 -5.984375 C 2.265625 -5.460938 2.078125 -4.742188 2.078125 -3.828125 Z "/>
</symbol>
<symbol overflow="visible" id="glyph3-5">
<path style="stroke:none;" d="M 0.6875 -4.390625 L 4.375 -4.390625 L 4.375 -3.28125 L 0.6875 -3.28125 Z "/>
</symbol>
<symbol overflow="visible" id="glyph3-6">
<path style="stroke:none;" d="M 7.6875 -4.625 L 7.6875 0 L 6.421875 0 L 6.421875 -4.578125 C 6.421875 -5.304688 6.28125 -5.847656 6 -6.203125 C 5.71875 -6.566406 5.296875 -6.75 4.734375 -6.75 C 4.054688 -6.75 3.519531 -6.53125 3.125 -6.09375 C 2.726562 -5.664062 2.53125 -5.078125 2.53125 -4.328125 L 2.53125 0 L 1.265625 0 L 1.265625 -10.640625 L 2.53125 -10.640625 L 2.53125 -6.46875 C 2.832031 -6.925781 3.1875 -7.269531 3.59375 -7.5 C 4.007812 -7.726562 4.484375 -7.84375 5.015625 -7.84375 C 5.890625 -7.84375 6.550781 -7.566406 7 -7.015625 C 7.457031 -6.472656 7.6875 -5.675781 7.6875 -4.625 Z "/>
</symbol>
<symbol overflow="visible" id="glyph3-7">
<path style="stroke:none;" d="M 1.3125 -7.65625 L 2.578125 -7.65625 L 2.578125 0 L 1.3125 0 Z M 1.3125 -10.640625 L 2.578125 -10.640625 L 2.578125 -9.046875 L 1.3125 -9.046875 Z "/>
</symbol>
<symbol overflow="visible" id="glyph3-8">
<path style="stroke:none;" d="M 6.359375 -3.921875 C 6.359375 -4.828125 6.171875 -5.53125 5.796875 -6.03125 C 5.421875 -6.53125 4.894531 -6.78125 4.21875 -6.78125 C 3.539062 -6.78125 3.015625 -6.53125 2.640625 -6.03125 C 2.265625 -5.53125 2.078125 -4.828125 2.078125 -3.921875 C 2.078125 -3.015625 2.265625 -2.304688 2.640625 -1.796875 C 3.015625 -1.296875 3.539062 -1.046875 4.21875 -1.046875 C 4.894531 -1.046875 5.421875 -1.296875 5.796875 -1.796875 C 6.171875 -2.304688 6.359375 -3.015625 6.359375 -3.921875 Z M 7.609375 -0.953125 C 7.609375 0.347656 7.316406 1.316406 6.734375 1.953125 C 6.160156 2.585938 5.28125 2.90625 4.09375 2.90625 C 3.644531 2.90625 3.222656 2.875 2.828125 2.8125 C 2.441406 2.75 2.066406 2.648438 1.703125 2.515625 L 1.703125 1.28125 C 2.066406 1.488281 2.425781 1.640625 2.78125 1.734375 C 3.144531 1.828125 3.515625 1.875 3.890625 1.875 C 4.710938 1.875 5.328125 1.65625 5.734375 1.21875 C 6.148438 0.789062 6.359375 0.144531 6.359375 -0.71875 L 6.359375 -1.34375 C 6.097656 -0.894531 5.765625 -0.554688 5.359375 -0.328125 C 4.953125 -0.109375 4.46875 0 3.90625 0 C 2.96875 0 2.207031 -0.351562 1.625 -1.0625 C 1.050781 -1.78125 0.765625 -2.734375 0.765625 -3.921875 C 0.765625 -5.097656 1.050781 -6.046875 1.625 -6.765625 C 2.207031 -7.484375 2.96875 -7.84375 3.90625 -7.84375 C 4.46875 -7.84375 4.953125 -7.726562 5.359375 -7.5 C 5.765625 -7.28125 6.097656 -6.945312 6.359375 -6.5 L 6.359375 -7.65625 L 7.609375 -7.65625 Z "/>
</symbol>
<symbol overflow="visible" id="glyph3-9">
<path style="stroke:none;" d="M 1.3125 -10.640625 L 2.578125 -10.640625 L 2.578125 0 L 1.3125 0 Z "/>
</symbol>
<symbol overflow="visible" id="glyph3-10">
<path style="stroke:none;" d="M 2.5625 -9.828125 L 2.5625 -7.65625 L 5.15625 -7.65625 L 5.15625 -6.671875 L 2.5625 -6.671875 L 2.5625 -2.515625 C 2.5625 -1.898438 2.644531 -1.5 2.8125 -1.3125 C 2.988281 -1.132812 3.335938 -1.046875 3.859375 -1.046875 L 5.15625 -1.046875 L 5.15625 0 L 3.859375 0 C 2.890625 0 2.21875 -0.179688 1.84375 -0.546875 C 1.476562 -0.910156 1.296875 -1.566406 1.296875 -2.515625 L 1.296875 -6.671875 L 0.375 -6.671875 L 0.375 -7.65625 L 1.296875 -7.65625 L 1.296875 -9.828125 Z "/>
</symbol>
<symbol overflow="visible" id="glyph3-11">
<path style="stroke:none;" d="M 6.828125 -7.359375 L 6.828125 -6.1875 C 6.472656 -6.382812 6.113281 -6.53125 5.75 -6.625 C 5.394531 -6.726562 5.035156 -6.78125 4.671875 -6.78125 C 3.859375 -6.78125 3.222656 -6.519531 2.765625 -6 C 2.316406 -5.476562 2.09375 -4.753906 2.09375 -3.828125 C 2.09375 -2.890625 2.316406 -2.160156 2.765625 -1.640625 C 3.222656 -1.128906 3.859375 -0.875 4.671875 -0.875 C 5.035156 -0.875 5.394531 -0.921875 5.75 -1.015625 C 6.113281 -1.109375 6.472656 -1.253906 6.828125 -1.453125 L 6.828125 -0.296875 C 6.472656 -0.128906 6.109375 -0.00390625 5.734375 0.078125 C 5.359375 0.160156 4.960938 0.203125 4.546875 0.203125 C 3.390625 0.203125 2.46875 -0.15625 1.78125 -0.875 C 1.101562 -1.601562 0.765625 -2.585938 0.765625 -3.828125 C 0.765625 -5.066406 1.109375 -6.046875 1.796875 -6.765625 C 2.484375 -7.484375 3.425781 -7.84375 4.625 -7.84375 C 5.007812 -7.84375 5.382812 -7.800781 5.75 -7.71875 C 6.125 -7.644531 6.484375 -7.523438 6.828125 -7.359375 Z "/>
</symbol>
<symbol overflow="visible" id="glyph3-12">
<path style="stroke:none;" d="M 1.265625 -10.640625 L 2.53125 -10.640625 L 2.53125 -4.359375 L 6.296875 -7.65625 L 7.890625 -7.65625 L 3.828125 -4.078125 L 8.0625 0 L 6.421875 0 L 2.53125 -3.734375 L 2.53125 0 L 1.265625 0 Z "/>
</symbol>
<symbol overflow="visible" id="glyph3-13">
<path style="stroke:none;" d="M 6.203125 -7.4375 L 6.203125 -6.234375 C 5.847656 -6.421875 5.476562 -6.554688 5.09375 -6.640625 C 4.707031 -6.734375 4.3125 -6.78125 3.90625 -6.78125 C 3.28125 -6.78125 2.8125 -6.6875 2.5 -6.5 C 2.1875 -6.3125 2.03125 -6.023438 2.03125 -5.640625 C 2.03125 -5.347656 2.140625 -5.117188 2.359375 -4.953125 C 2.585938 -4.785156 3.039062 -4.628906 3.71875 -4.484375 L 4.140625 -4.375 C 5.035156 -4.1875 5.671875 -3.914062 6.046875 -3.5625 C 6.421875 -3.21875 6.609375 -2.734375 6.609375 -2.109375 C 6.609375 -1.398438 6.328125 -0.835938 5.765625 -0.421875 C 5.203125 -0.00390625 4.429688 0.203125 3.453125 0.203125 C 3.035156 0.203125 2.601562 0.160156 2.15625 0.078125 C 1.71875 -0.00390625 1.253906 -0.125 0.765625 -0.28125 L 0.765625 -1.578125 C 1.222656 -1.335938 1.675781 -1.15625 2.125 -1.03125 C 2.582031 -0.914062 3.03125 -0.859375 3.46875 -0.859375 C 4.0625 -0.859375 4.515625 -0.957031 4.828125 -1.15625 C 5.148438 -1.363281 5.3125 -1.648438 5.3125 -2.015625 C 5.3125 -2.359375 5.195312 -2.617188 4.96875 -2.796875 C 4.738281 -2.984375 4.234375 -3.160156 3.453125 -3.328125 L 3.015625 -3.4375 C 2.242188 -3.59375 1.679688 -3.84375 1.328125 -4.1875 C 0.984375 -4.53125 0.8125 -4.992188 0.8125 -5.578125 C 0.8125 -6.304688 1.066406 -6.863281 1.578125 -7.25 C 2.085938 -7.644531 2.8125 -7.84375 3.75 -7.84375 C 4.21875 -7.84375 4.65625 -7.804688 5.0625 -7.734375 C 5.476562 -7.671875 5.859375 -7.570312 6.203125 -7.4375 Z "/>
</symbol>
<symbol overflow="visible" id="glyph3-14">
<path style="stroke:none;" d="M 4.796875 -3.84375 C 3.785156 -3.84375 3.082031 -3.726562 2.6875 -3.5 C 2.289062 -3.269531 2.09375 -2.875 2.09375 -2.3125 C 2.09375 -1.863281 2.238281 -1.507812 2.53125 -1.25 C 2.832031 -0.988281 3.234375 -0.859375 3.734375 -0.859375 C 4.429688 -0.859375 4.988281 -1.101562 5.40625 -1.59375 C 5.832031 -2.09375 6.046875 -2.75 6.046875 -3.5625 L 6.046875 -3.84375 Z M 7.3125 -4.375 L 7.3125 0 L 6.046875 0 L 6.046875 -1.15625 C 5.765625 -0.695312 5.40625 -0.351562 4.96875 -0.125 C 4.539062 0.09375 4.019531 0.203125 3.40625 0.203125 C 2.625 0.203125 2 -0.015625 1.53125 -0.453125 C 1.070312 -0.898438 0.84375 -1.492188 0.84375 -2.234375 C 0.84375 -3.085938 1.128906 -3.734375 1.703125 -4.171875 C 2.285156 -4.609375 3.144531 -4.828125 4.28125 -4.828125 L 6.046875 -4.828125 L 6.046875 -4.953125 C 6.046875 -5.535156 5.851562 -5.984375 5.46875 -6.296875 C 5.09375 -6.617188 4.5625 -6.78125 3.875 -6.78125 C 3.4375 -6.78125 3.007812 -6.722656 2.59375 -6.609375 C 2.175781 -6.503906 1.78125 -6.347656 1.40625 -6.140625 L 1.40625 -7.3125 C 1.863281 -7.488281 2.304688 -7.617188 2.734375 -7.703125 C 3.171875 -7.796875 3.59375 -7.84375 4 -7.84375 C 5.113281 -7.84375 5.941406 -7.554688 6.484375 -6.984375 C 7.035156 -6.410156 7.3125 -5.539062 7.3125 -4.375 Z "/>
</symbol>
<symbol overflow="visible" id="glyph3-15">
<path style="stroke:none;" d="M 6.8125 -3.828125 C 6.8125 -4.742188 6.617188 -5.460938 6.234375 -5.984375 C 5.859375 -6.515625 5.335938 -6.78125 4.671875 -6.78125 C 4.003906 -6.78125 3.476562 -6.515625 3.09375 -5.984375 C 2.71875 -5.460938 2.53125 -4.742188 2.53125 -3.828125 C 2.53125 -2.898438 2.71875 -2.171875 3.09375 -1.640625 C 3.476562 -1.117188 4.003906 -0.859375 4.671875 -0.859375 C 5.335938 -0.859375 5.859375 -1.117188 6.234375 -1.640625 C 6.617188 -2.171875 6.8125 -2.898438 6.8125 -3.828125 Z M 2.53125 -6.5 C 2.800781 -6.945312 3.132812 -7.28125 3.53125 -7.5 C 3.9375 -7.726562 4.421875 -7.84375 4.984375 -7.84375 C 5.910156 -7.84375 6.664062 -7.472656 7.25 -6.734375 C 7.832031 -5.992188 8.125 -5.023438 8.125 -3.828125 C 8.125 -2.617188 7.832031 -1.644531 7.25 -0.90625 C 6.664062 -0.164062 5.910156 0.203125 4.984375 0.203125 C 4.421875 0.203125 3.9375 0.09375 3.53125 -0.125 C 3.132812 -0.351562 2.800781 -0.695312 2.53125 -1.15625 L 2.53125 0 L 1.265625 0 L 1.265625 -10.640625 L 2.53125 -10.640625 Z "/>
</symbol>
<symbol overflow="visible" id="glyph3-16">
<path style="stroke:none;" d="M 1.484375 -6.359375 L 10.25 -6.359375 L 10.25 -5.203125 L 1.484375 -5.203125 Z M 1.484375 -3.5625 L 10.25 -3.5625 L 10.25 -2.40625 L 1.484375 -2.40625 Z "/>
</symbol>
<symbol overflow="visible" id="glyph3-17">
<path style="stroke:none;" d="M -0.046875 -10.203125 L 8.59375 -10.203125 L 8.59375 -9.046875 L 4.96875 -9.046875 L 4.96875 0 L 3.578125 0 L 3.578125 -9.046875 L -0.046875 -9.046875 Z "/>
</symbol>
<symbol overflow="visible" id="glyph3-18">
<path style="stroke:none;" d="M 1.1875 -3.015625 L 1.1875 -7.65625 L 2.453125 -7.65625 L 2.453125 -3.0625 C 2.453125 -2.34375 2.59375 -1.800781 2.875 -1.4375 C 3.15625 -1.070312 3.578125 -0.890625 4.140625 -0.890625 C 4.816406 -0.890625 5.351562 -1.101562 5.75 -1.53125 C 6.144531 -1.96875 6.34375 -2.5625 6.34375 -3.3125 L 6.34375 -7.65625 L 7.609375 -7.65625 L 7.609375 0 L 6.34375 0 L 6.34375 -1.171875 C 6.039062 -0.710938 5.6875 -0.367188 5.28125 -0.140625 C 4.875 0.0859375 4.40625 0.203125 3.875 0.203125 C 3 0.203125 2.332031 -0.0664062 1.875 -0.609375 C 1.414062 -1.160156 1.1875 -1.960938 1.1875 -3.015625 Z M 4.359375 -7.84375 Z "/>
</symbol>
</g>
</defs>
<g id="surface3013">
<g style="fill:rgb(0%,0%,0%);fill-opacity:1;">
  <use xlink:href="#glyph0-1" x="201.542969" y="53.914062"/>
</g>
<g style="fill:rgb(100%,0%,0%);fill-opacity:1;">
  <use xlink:href="#glyph1-1" x="148.886719" y="23.914062"/>
</g>
<g style="fill:rgb(100%,0%,0%);fill-opacity:1;">
  <use xlink:href="#glyph1-2" x="97.839844" y="53.90625"/>
</g>
<g style="fill:rgb(100%,0%,0%);fill-opacity:1;">
  <use xlink:href="#glyph1-3" x="78.878906" y="53.703125"/>
</g>
<g style="fill:rgb(100%,0%,0%);fill-opacity:1;">
  <use xlink:href="#glyph2-1" x="90.976562" y="54.597656"/>
</g>
<path style="fill:none;stroke-width:0.0433333;stroke-linecap:butt;stroke-linejoin:miter;stroke:rgb(0%,0%,0%);stroke-opacity:1;stroke-miterlimit:10;" d="M 2.587305 -0.00621529 L 3.474935 0.506285 " transform="matrix(30,0,0,30,103.455078,3.225521)"/>
<path style="fill:none;stroke-width:0.0433333;stroke-linecap:butt;stroke-linejoin:miter;stroke:rgb(0%,0%,0%);stroke-opacity:1;stroke-miterlimit:10;" d="M 3.464128 0.487535 L 3.464128 1.167483 " transform="matrix(30,0,0,30,103.455078,3.225521)"/>
<path style="fill:none;stroke-width:0.0433333;stroke-linecap:butt;stroke-linejoin:miter;stroke:rgb(0%,0%,0%);stroke-opacity:1;stroke-miterlimit:10;" d="M 3.132617 1.691311 L 2.587305 2.006285 " transform="matrix(30,0,0,30,103.455078,3.225521)"/>
<path style="fill:none;stroke-width:0.0433333;stroke-linecap:butt;stroke-linejoin:miter;stroke:rgb(0%,0%,0%);stroke-opacity:1;stroke-miterlimit:10;" d="M 2.608919 2.006285 L 1.721159 1.493785 " transform="matrix(30,0,0,30,103.455078,3.225521)"/>
<path style="fill:none;stroke-width:0.078;stroke-linecap:butt;stroke-linejoin:miter;stroke:rgb(100%,0%,0%);stroke-opacity:1;stroke-miterlimit:10;" d="M 1.732096 1.500035 L 1.732096 0.832587 " transform="matrix(30,0,0,30,103.455078,3.225521)"/>
<path style="fill:none;stroke-width:0.078;stroke-linecap:butt;stroke-linejoin:miter;stroke:rgb(100%,0%,0%);stroke-opacity:1;stroke-miterlimit:10;" d="M 2.083138 0.2973 L 2.608919 -0.00621529 " transform="matrix(30,0,0,30,103.455078,3.225521)"/>
<path style="fill:none;stroke-width:0.0433333;stroke-linecap:butt;stroke-linejoin:miter;stroke:rgb(0%,0%,0%);stroke-opacity:1;stroke-miterlimit:10;" d="M 1.742904 1.493785 L 0.855143 2.006285 " transform="matrix(30,0,0,30,103.455078,3.225521)"/>
<path style="fill:none;stroke-width:0.078;stroke-linecap:butt;stroke-linejoin:miter;stroke:rgb(100%,0%,0%);stroke-opacity:1;stroke-miterlimit:10;" d="M 0.876758 2.006285 L 0.347721 1.700816 " transform="matrix(30,0,0,30,103.455078,3.225521)"/>
<path style="fill:none;stroke-width:0.078;stroke-linecap:butt;stroke-linejoin:miter;stroke:rgb(100%,0%,0%);stroke-opacity:1;stroke-miterlimit:10;" d="M 0.876758 1.756155 L 0.456055 1.513186 " transform="matrix(30,0,0,30,103.455078,3.225521)"/>
<path style="fill:none;stroke-width:0.0433333;stroke-linecap:butt;stroke-linejoin:miter;stroke:rgb(0%,0%,0%);stroke-opacity:1;stroke-miterlimit:10;" d="M 2.598112 0.350556 C 2.830143 0.350556 3.044466 0.474253 3.160482 0.675295 " transform="matrix(30,0,0,30,103.455078,3.225521)"/>
<path style="fill:none;stroke-width:0.078;stroke-linecap:butt;stroke-linejoin:miter;stroke:rgb(100%,0%,0%);stroke-opacity:1;stroke-miterlimit:10;" d="M 2.035612 0.675295 C 2.151628 0.474253 2.366081 0.350556 2.598112 0.350556 " transform="matrix(30,0,0,30,103.455078,3.225521)"/>
<path style="fill:none;stroke-width:0.078;stroke-linecap:butt;stroke-linejoin:miter;stroke:rgb(100%,0%,0%);stroke-opacity:1;stroke-miterlimit:10;" d="M 2.035612 1.324774 C 1.919596 1.123863 1.919596 0.876207 2.035612 0.675295 " transform="matrix(30,0,0,30,103.455078,3.225521)"/>
<path style="fill:none;stroke-width:0.0433333;stroke-linecap:butt;stroke-linejoin:miter;stroke:rgb(0%,0%,0%);stroke-opacity:1;stroke-miterlimit:10;" d="M 2.598112 1.649514 C 2.366081 1.649514 2.151628 1.525686 2.035612 1.324774 " transform="matrix(30,0,0,30,103.455078,3.225521)"/>
<path style="fill:none;stroke-width:0.0433333;stroke-linecap:butt;stroke-linejoin:miter;stroke:rgb(0%,0%,0%);stroke-opacity:1;stroke-miterlimit:10;" d="M 3.160482 1.324774 C 3.044466 1.525686 2.830143 1.649514 2.598112 1.649514 " transform="matrix(30,0,0,30,103.455078,3.225521)"/>
<path style="fill:none;stroke-width:0.0433333;stroke-linecap:butt;stroke-linejoin:miter;stroke:rgb(0%,0%,0%);stroke-opacity:1;stroke-miterlimit:10;" d="M 3.160482 0.675295 C 3.276628 0.876207 3.276628 1.123863 3.160482 1.324774 " transform="matrix(30,0,0,30,103.455078,3.225521)"/>
<g style="fill:rgb(0%,0%,0%);fill-opacity:1;">
  <use xlink:href="#glyph3-1" x="1.140625" y="85.089844"/>
  <use xlink:href="#glyph3-2" x="6.896484" y="85.089844"/>
  <use xlink:href="#glyph3-3" x="15.509766" y="85.089844"/>
  <use xlink:href="#glyph3-4" x="24.382812" y="85.089844"/>
  <use xlink:href="#glyph3-2" x="33.269531" y="85.089844"/>
  <use xlink:href="#glyph3-1" x="41.882812" y="85.089844"/>
  <use xlink:href="#glyph3-5" x="47.638672" y="85.089844"/>
  <use xlink:href="#glyph3-6" x="52.69043" y="85.089844"/>
  <use xlink:href="#glyph3-7" x="61.563477" y="85.089844"/>
  <use xlink:href="#glyph3-8" x="65.453125" y="85.089844"/>
  <use xlink:href="#glyph3-6" x="74.339844" y="85.089844"/>
  <use xlink:href="#glyph3-9" x="83.212891" y="85.089844"/>
  <use xlink:href="#glyph3-7" x="87.102539" y="85.089844"/>
  <use xlink:href="#glyph3-8" x="90.992188" y="85.089844"/>
  <use xlink:href="#glyph3-6" x="99.878906" y="85.089844"/>
  <use xlink:href="#glyph3-10" x="108.751953" y="85.089844"/>
  <use xlink:href="#glyph3-5" x="114.241211" y="85.089844"/>
  <use xlink:href="#glyph3-10" x="119.292969" y="85.089844"/>
  <use xlink:href="#glyph3-6" x="124.782227" y="85.089844"/>
  <use xlink:href="#glyph3-7" x="133.655273" y="85.089844"/>
  <use xlink:href="#glyph3-11" x="137.544922" y="85.089844"/>
  <use xlink:href="#glyph3-12" x="145.242188" y="85.089844"/>
  <use xlink:href="#glyph3-3" x="153.349609" y="85.089844"/>
  <use xlink:href="#glyph3-2" x="162.222656" y="85.089844"/>
  <use xlink:href="#glyph3-13" x="170.835938" y="85.089844"/>
  <use xlink:href="#glyph3-13" x="178.129883" y="85.089844"/>
  <use xlink:href="#glyph3-5" x="185.423828" y="85.089844"/>
  <use xlink:href="#glyph3-2" x="190.475586" y="85.089844"/>
  <use xlink:href="#glyph3-3" x="199.088867" y="85.089844"/>
  <use xlink:href="#glyph3-14" x="207.961914" y="85.089844"/>
  <use xlink:href="#glyph3-15" x="216.541016" y="85.089844"/>
  <use xlink:href="#glyph3-9" x="225.427734" y="85.089844"/>
  <use xlink:href="#glyph3-2" x="229.317383" y="85.089844"/>
  <use xlink:href="#glyph3-4" x="237.930664" y="85.089844"/>
  <use xlink:href="#glyph3-16" x="246.817383" y="85.089844"/>
  <use xlink:href="#glyph3-17" x="258.547852" y="85.089844"/>
  <use xlink:href="#glyph3-1" x="267.099609" y="85.089844"/>
  <use xlink:href="#glyph3-18" x="272.855469" y="85.089844"/>
  <use xlink:href="#glyph3-2" x="281.728516" y="85.089844"/>
</g>
</g>
</svg>
