<?xml version="1.0" encoding="UTF-8"?>
<svg xmlns="http://www.w3.org/2000/svg" xmlns:xlink="http://www.w3.org/1999/xlink" width="214pt" height="79pt" viewBox="0 0 214 79" version="1.1">
<defs>
<g>
<symbol overflow="visible" id="glyph0-0">
<path style="stroke:none;" d="M 0.78125 2.75 L 0.78125 -11 L 8.578125 -11 L 8.578125 2.75 Z M 1.65625 1.890625 L 7.703125 1.890625 L 7.703125 -10.125 L 1.65625 -10.125 Z "/>
</symbol>
<symbol overflow="visible" id="glyph0-1">
<path style="stroke:none;" d="M 1.53125 -11.375 L 3.0625 -11.375 L 3.0625 -6.703125 L 8.65625 -6.703125 L 8.65625 -11.375 L 10.203125 -11.375 L 10.203125 0 L 8.65625 0 L 8.65625 -5.40625 L 3.0625 -5.40625 L 3.0625 0 L 1.53125 0 Z "/>
</symbol>
<symbol overflow="visible" id="glyph0-2">
<path style="stroke:none;" d="M 3.0625 -5.421875 L 3.0625 -1.265625 L 5.53125 -1.265625 C 6.363281 -1.265625 6.976562 -1.4375 7.375 -1.78125 C 7.769531 -2.125 7.96875 -2.644531 7.96875 -3.34375 C 7.96875 -4.0625 7.769531 -4.585938 7.375 -4.921875 C 6.976562 -5.253906 6.363281 -5.421875 5.53125 -5.421875 Z M 3.0625 -10.109375 L 3.0625 -6.671875 L 5.34375 -6.671875 C 6.09375 -6.671875 6.648438 -6.8125 7.015625 -7.09375 C 7.390625 -7.375 7.578125 -7.804688 7.578125 -8.390625 C 7.578125 -8.960938 7.390625 -9.390625 7.015625 -9.671875 C 6.648438 -9.960938 6.09375 -10.109375 5.34375 -10.109375 Z M 1.53125 -11.375 L 5.453125 -11.375 C 6.628906 -11.375 7.535156 -11.128906 8.171875 -10.640625 C 8.804688 -10.148438 9.125 -9.457031 9.125 -8.5625 C 9.125 -7.863281 8.957031 -7.304688 8.625 -6.890625 C 8.300781 -6.484375 7.828125 -6.226562 7.203125 -6.125 C 7.960938 -5.96875 8.550781 -5.628906 8.96875 -5.109375 C 9.382812 -4.597656 9.59375 -3.957031 9.59375 -3.1875 C 9.59375 -2.164062 9.242188 -1.378906 8.546875 -0.828125 C 7.859375 -0.273438 6.878906 0 5.609375 0 L 1.53125 0 Z "/>
</symbol>
<symbol overflow="visible" id="glyph1-0">
<path style="stroke:none;" d="M 0.703125 2.46875 L 0.703125 -9.875 L 7.703125 -9.875 L 7.703125 2.46875 Z M 1.484375 1.703125 L 6.921875 1.703125 L 6.921875 -9.078125 L 1.484375 -9.078125 Z "/>
</symbol>
<symbol overflow="visible" id="glyph1-1">
<path style="stroke:none;" d="M 5.75 -6.484375 C 5.613281 -6.566406 5.460938 -6.625 5.296875 -6.65625 C 5.128906 -6.695312 4.945312 -6.71875 4.75 -6.71875 C 4.03125 -6.71875 3.476562 -6.484375 3.09375 -6.015625 C 2.71875 -5.554688 2.53125 -4.894531 2.53125 -4.03125 L 2.53125 0 L 1.265625 0 L 1.265625 -7.65625 L 2.53125 -7.65625 L 2.53125 -6.46875 C 2.800781 -6.9375 3.144531 -7.28125 3.5625 -7.5 C 3.988281 -7.726562 4.503906 -7.84375 5.109375 -7.84375 C 5.203125 -7.84375 5.300781 -7.835938 5.40625 -7.828125 C 5.507812 -7.816406 5.625 -7.796875 5.75 -7.765625 Z "/>
</symbol>
<symbol overflow="visible" id="glyph1-2">
<path style="stroke:none;" d="M 7.875 -4.140625 L 7.875 -3.53125 L 2.078125 -3.53125 C 2.140625 -2.664062 2.398438 -2.003906 2.859375 -1.546875 C 3.328125 -1.097656 3.976562 -0.875 4.8125 -0.875 C 5.300781 -0.875 5.769531 -0.929688 6.21875 -1.046875 C 6.675781 -1.160156 7.128906 -1.335938 7.578125 -1.578125 L 7.578125 -0.390625 C 7.117188 -0.203125 6.648438 -0.0546875 6.171875 0.046875 C 5.703125 0.148438 5.226562 0.203125 4.75 0.203125 C 3.519531 0.203125 2.546875 -0.148438 1.828125 -0.859375 C 1.117188 -1.578125 0.765625 -2.539062 0.765625 -3.75 C 0.765625 -5.007812 1.101562 -6.003906 1.78125 -6.734375 C 2.457031 -7.472656 3.375 -7.84375 4.53125 -7.84375 C 5.5625 -7.84375 6.375 -7.507812 6.96875 -6.84375 C 7.570312 -6.1875 7.875 -5.285156 7.875 -4.140625 Z M 6.609375 -4.515625 C 6.597656 -5.203125 6.40625 -5.75 6.03125 -6.15625 C 5.65625 -6.570312 5.160156 -6.78125 4.546875 -6.78125 C 3.835938 -6.78125 3.269531 -6.578125 2.84375 -6.171875 C 2.425781 -5.773438 2.1875 -5.21875 2.125 -4.5 Z "/>
</symbol>
<symbol overflow="visible" id="glyph1-3">
<path style="stroke:none;" d="M 7.6875 -4.625 L 7.6875 0 L 6.421875 0 L 6.421875 -4.578125 C 6.421875 -5.304688 6.28125 -5.847656 6 -6.203125 C 5.71875 -6.566406 5.296875 -6.75 4.734375 -6.75 C 4.054688 -6.75 3.519531 -6.53125 3.125 -6.09375 C 2.726562 -5.664062 2.53125 -5.078125 2.53125 -4.328125 L 2.53125 0 L 1.265625 0 L 1.265625 -7.65625 L 2.53125 -7.65625 L 2.53125 -6.46875 C 2.832031 -6.925781 3.1875 -7.269531 3.59375 -7.5 C 4.007812 -7.726562 4.484375 -7.84375 5.015625 -7.84375 C 5.890625 -7.84375 6.550781 -7.566406 7 -7.015625 C 7.457031 -6.472656 7.6875 -5.675781 7.6875 -4.625 Z "/>
</symbol>
<symbol overflow="visible" id="glyph1-4">
<path style="stroke:none;" d="M 6.359375 -6.5 L 6.359375 -10.640625 L 7.609375 -10.640625 L 7.609375 0 L 6.359375 0 L 6.359375 -1.15625 C 6.097656 -0.695312 5.765625 -0.351562 5.359375 -0.125 C 4.953125 0.09375 4.46875 0.203125 3.90625 0.203125 C 2.976562 0.203125 2.222656 -0.164062 1.640625 -0.90625 C 1.054688 -1.644531 0.765625 -2.617188 0.765625 -3.828125 C 0.765625 -5.023438 1.054688 -5.992188 1.640625 -6.734375 C 2.222656 -7.472656 2.976562 -7.84375 3.90625 -7.84375 C 4.46875 -7.84375 4.953125 -7.726562 5.359375 -7.5 C 5.765625 -7.28125 6.097656 -6.945312 6.359375 -6.5 Z M 2.078125 -3.828125 C 2.078125 -2.898438 2.265625 -2.171875 2.640625 -1.640625 C 3.023438 -1.117188 3.550781 -0.859375 4.21875 -0.859375 C 4.875 -0.859375 5.394531 -1.117188 5.78125 -1.640625 C 6.164062 -2.171875 6.359375 -2.898438 6.359375 -3.828125 C 6.359375 -4.742188 6.164062 -5.460938 5.78125 -5.984375 C 5.394531 -6.515625 4.875 -6.78125 4.21875 -6.78125 C 3.550781 -6.78125 3.023438 -6.515625 2.640625 -5.984375 C 2.265625 -5.460938 2.078125 -4.742188 2.078125 -3.828125 Z "/>
</symbol>
<symbol overflow="visible" id="glyph1-5">
<path style="stroke:none;" d="M 0.6875 -4.390625 L 4.375 -4.390625 L 4.375 -3.28125 L 0.6875 -3.28125 Z "/>
</symbol>
<symbol overflow="visible" id="glyph1-6">
<path style="stroke:none;" d="M 0.421875 -7.65625 L 1.75 -7.65625 L 4.140625 -1.234375 L 6.53125 -7.65625 L 7.875 -7.65625 L 5 0 L 3.28125 0 Z "/>
</symbol>
<symbol overflow="visible" id="glyph1-7">
<path style="stroke:none;" d="M 4.796875 -3.84375 C 3.785156 -3.84375 3.082031 -3.726562 2.6875 -3.5 C 2.289062 -3.269531 2.09375 -2.875 2.09375 -2.3125 C 2.09375 -1.863281 2.238281 -1.507812 2.53125 -1.25 C 2.832031 -0.988281 3.234375 -0.859375 3.734375 -0.859375 C 4.429688 -0.859375 4.988281 -1.101562 5.40625 -1.59375 C 5.832031 -2.09375 6.046875 -2.75 6.046875 -3.5625 L 6.046875 -3.84375 Z M 7.3125 -4.375 L 7.3125 0 L 6.046875 0 L 6.046875 -1.15625 C 5.765625 -0.695312 5.40625 -0.351562 4.96875 -0.125 C 4.539062 0.09375 4.019531 0.203125 3.40625 0.203125 C 2.625 0.203125 2 -0.015625 1.53125 -0.453125 C 1.070312 -0.898438 0.84375 -1.492188 0.84375 -2.234375 C 0.84375 -3.085938 1.128906 -3.734375 1.703125 -4.171875 C 2.285156 -4.609375 3.144531 -4.828125 4.28125 -4.828125 L 6.046875 -4.828125 L 6.046875 -4.953125 C 6.046875 -5.535156 5.851562 -5.984375 5.46875 -6.296875 C 5.09375 -6.617188 4.5625 -6.78125 3.875 -6.78125 C 3.4375 -6.78125 3.007812 -6.722656 2.59375 -6.609375 C 2.175781 -6.503906 1.78125 -6.347656 1.40625 -6.140625 L 1.40625 -7.3125 C 1.863281 -7.488281 2.304688 -7.617188 2.734375 -7.703125 C 3.171875 -7.796875 3.59375 -7.84375 4 -7.84375 C 5.113281 -7.84375 5.941406 -7.554688 6.484375 -6.984375 C 7.035156 -6.410156 7.3125 -5.539062 7.3125 -4.375 Z "/>
</symbol>
<symbol overflow="visible" id="glyph1-8">
<path style="stroke:none;" d="M 1.3125 -10.640625 L 2.578125 -10.640625 L 2.578125 0 L 1.3125 0 Z "/>
</symbol>
<symbol overflow="visible" id="glyph1-9">
<path style="stroke:none;" d="M 6.828125 -7.359375 L 6.828125 -6.1875 C 6.472656 -6.382812 6.113281 -6.53125 5.75 -6.625 C 5.394531 -6.726562 5.035156 -6.78125 4.671875 -6.78125 C 3.859375 -6.78125 3.222656 -6.519531 2.765625 -6 C 2.316406 -5.476562 2.09375 -4.753906 2.09375 -3.828125 C 2.09375 -2.890625 2.316406 -2.160156 2.765625 -1.640625 C 3.222656 -1.128906 3.859375 -0.875 4.671875 -0.875 C 5.035156 -0.875 5.394531 -0.921875 5.75 -1.015625 C 6.113281 -1.109375 6.472656 -1.253906 6.828125 -1.453125 L 6.828125 -0.296875 C 6.472656 -0.128906 6.109375 -0.00390625 5.734375 0.078125 C 5.359375 0.160156 4.960938 0.203125 4.546875 0.203125 C 3.390625 0.203125 2.46875 -0.15625 1.78125 -0.875 C 1.101562 -1.601562 0.765625 -2.585938 0.765625 -3.828125 C 0.765625 -5.066406 1.109375 -6.046875 1.796875 -6.765625 C 2.484375 -7.484375 3.425781 -7.84375 4.625 -7.84375 C 5.007812 -7.84375 5.382812 -7.800781 5.75 -7.71875 C 6.125 -7.644531 6.484375 -7.523438 6.828125 -7.359375 Z "/>
</symbol>
<symbol overflow="visible" id="glyph1-10">
<path style="stroke:none;" d="M 6.203125 -7.4375 L 6.203125 -6.234375 C 5.847656 -6.421875 5.476562 -6.554688 5.09375 -6.640625 C 4.707031 -6.734375 4.3125 -6.78125 3.90625 -6.78125 C 3.28125 -6.78125 2.8125 -6.6875 2.5 -6.5 C 2.1875 -6.3125 2.03125 -6.023438 2.03125 -5.640625 C 2.03125 -5.347656 2.140625 -5.117188 2.359375 -4.953125 C 2.585938 -4.785156 3.039062 -4.628906 3.71875 -4.484375 L 4.140625 -4.375 C 5.035156 -4.1875 5.671875 -3.914062 6.046875 -3.5625 C 6.421875 -3.21875 6.609375 -2.734375 6.609375 -2.109375 C 6.609375 -1.398438 6.328125 -0.835938 5.765625 -0.421875 C 5.203125 -0.00390625 4.429688 0.203125 3.453125 0.203125 C 3.035156 0.203125 2.601562 0.160156 2.15625 0.078125 C 1.71875 -0.00390625 1.253906 -0.125 0.765625 -0.28125 L 0.765625 -1.578125 C 1.222656 -1.335938 1.675781 -1.15625 2.125 -1.03125 C 2.582031 -0.914062 3.03125 -0.859375 3.46875 -0.859375 C 4.0625 -0.859375 4.515625 -0.957031 4.828125 -1.15625 C 5.148438 -1.363281 5.3125 -1.648438 5.3125 -2.015625 C 5.3125 -2.359375 5.195312 -2.617188 4.96875 -2.796875 C 4.738281 -2.984375 4.234375 -3.160156 3.453125 -3.328125 L 3.015625 -3.4375 C 2.242188 -3.59375 1.679688 -3.84375 1.328125 -4.1875 C 0.984375 -4.53125 0.8125 -4.992188 0.8125 -5.578125 C 0.8125 -6.304688 1.066406 -6.863281 1.578125 -7.25 C 2.085938 -7.644531 2.8125 -7.84375 3.75 -7.84375 C 4.21875 -7.84375 4.65625 -7.804688 5.0625 -7.734375 C 5.476562 -7.671875 5.859375 -7.570312 6.203125 -7.4375 Z "/>
</symbol>
<symbol overflow="visible" id="glyph1-11">
<path style="stroke:none;" d="M 1.3125 -7.65625 L 2.578125 -7.65625 L 2.578125 0 L 1.3125 0 Z M 1.3125 -10.640625 L 2.578125 -10.640625 L 2.578125 -9.046875 L 1.3125 -9.046875 Z "/>
</symbol>
<symbol overflow="visible" id="glyph1-12">
<path style="stroke:none;" d="M 6.8125 -3.828125 C 6.8125 -4.742188 6.617188 -5.460938 6.234375 -5.984375 C 5.859375 -6.515625 5.335938 -6.78125 4.671875 -6.78125 C 4.003906 -6.78125 3.476562 -6.515625 3.09375 -5.984375 C 2.71875 -5.460938 2.53125 -4.742188 2.53125 -3.828125 C 2.53125 -2.898438 2.71875 -2.171875 3.09375 -1.640625 C 3.476562 -1.117188 4.003906 -0.859375 4.671875 -0.859375 C 5.335938 -0.859375 5.859375 -1.117188 6.234375 -1.640625 C 6.617188 -2.171875 6.8125 -2.898438 6.8125 -3.828125 Z M 2.53125 -6.5 C 2.800781 -6.945312 3.132812 -7.28125 3.53125 -7.5 C 3.9375 -7.726562 4.421875 -7.84375 4.984375 -7.84375 C 5.910156 -7.84375 6.664062 -7.472656 7.25 -6.734375 C 7.832031 -5.992188 8.125 -5.023438 8.125 -3.828125 C 8.125 -2.617188 7.832031 -1.644531 7.25 -0.90625 C 6.664062 -0.164062 5.910156 0.203125 4.984375 0.203125 C 4.421875 0.203125 3.9375 0.09375 3.53125 -0.125 C 3.132812 -0.351562 2.800781 -0.695312 2.53125 -1.15625 L 2.53125 0 L 1.265625 0 L 1.265625 -10.640625 L 2.53125 -10.640625 Z "/>
</symbol>
<symbol overflow="visible" id="glyph1-13">
<path style="stroke:none;" d="M 1.484375 -6.359375 L 10.25 -6.359375 L 10.25 -5.203125 L 1.484375 -5.203125 Z M 1.484375 -3.5625 L 10.25 -3.5625 L 10.25 -2.40625 L 1.484375 -2.40625 Z "/>
</symbol>
<symbol overflow="visible" id="glyph1-14">
<path style="stroke:none;" d="M 1.375 -10.203125 L 7.234375 -10.203125 L 7.234375 -9.046875 L 2.75 -9.046875 L 2.75 -6.03125 L 6.796875 -6.03125 L 6.796875 -4.875 L 2.75 -4.875 L 2.75 0 L 1.375 0 Z "/>
</symbol>
</g>
</defs>
<g id="surface2953">
<g style="fill:rgb(0%,0%,0%);fill-opacity:1;">
  <use xlink:href="#glyph0-1" x="101.128906" y="13.667969"/>
</g>
<g style="fill:rgb(0%,0%,0%);fill-opacity:1;">
  <use xlink:href="#glyph0-2" x="122.984375" y="34.769531"/>
</g>
<g style="fill:rgb(0%,0%,0%);fill-opacity:1;">
  <use xlink:href="#glyph0-1" x="101.128906" y="55.875"/>
</g>
<g style="fill:rgb(0%,0%,0%);fill-opacity:1;">
  <use xlink:href="#glyph0-2" x="79.898438" y="34.777344"/>
</g>
<g style="fill:rgb(0%,0%,0%);fill-opacity:1;">
  <use xlink:href="#glyph0-1" x="148.085938" y="19.117188"/>
</g>
<g style="fill:rgb(0%,0%,0%);fill-opacity:1;">
  <use xlink:href="#glyph0-1" x="148.085938" y="50.425781"/>
</g>
<g style="fill:rgb(0%,0%,0%);fill-opacity:1;">
  <use xlink:href="#glyph0-1" x="54.1875" y="50.4375"/>
</g>
<g style="fill:rgb(0%,0%,0%);fill-opacity:1;">
  <use xlink:href="#glyph0-1" x="54.179688" y="19.128906"/>
</g>
<path style="fill:none;stroke-width:0.0433333;stroke-linecap:butt;stroke-linejoin:miter;stroke:rgb(0%,0%,0%);stroke-opacity:1;stroke-miterlimit:10;" d="M 1.849219 0.278442 L 2.004036 0.430004 " transform="matrix(30,0,0,30,60.046875,7.978775)"/>
<path style="fill:none;stroke-width:0.0433333;stroke-linecap:butt;stroke-linejoin:miter;stroke:rgb(0%,0%,0%);stroke-opacity:1;stroke-miterlimit:10;" d="M 2.004036 0.976879 L 1.849219 1.128442 " transform="matrix(30,0,0,30,60.046875,7.978775)"/>
<path style="fill:none;stroke-width:0.0433333;stroke-linecap:butt;stroke-linejoin:miter;stroke:rgb(0%,0%,0%);stroke-opacity:1;stroke-miterlimit:10;" d="M 1.280859 1.128572 L 1.126042 0.97701 " transform="matrix(30,0,0,30,60.046875,7.978775)"/>
<path style="fill:none;stroke-width:0.0433333;stroke-linecap:butt;stroke-linejoin:miter;stroke:rgb(0%,0%,0%);stroke-opacity:1;stroke-miterlimit:10;" d="M 1.280859 0.278572 L 1.126042 0.430135 " transform="matrix(30,0,0,30,60.046875,7.978775)"/>
<path style="fill:none;stroke-width:0.0433333;stroke-linecap:butt;stroke-linejoin:miter;stroke:rgb(0%,0%,0%);stroke-opacity:1;stroke-miterlimit:10;" d="M 2.605078 0.505135 L 2.800911 0.384431 " transform="matrix(30,0,0,30,60.046875,7.978775)"/>
<path style="fill:none;stroke-width:0.0433333;stroke-linecap:butt;stroke-linejoin:miter;stroke:rgb(0%,0%,0%);stroke-opacity:1;stroke-miterlimit:10;" d="M 2.605078 0.901749 L 2.800911 1.022452 " transform="matrix(30,0,0,30,60.046875,7.978775)"/>
<path style="fill:none;stroke-width:0.0433333;stroke-linecap:butt;stroke-linejoin:miter;stroke:rgb(0%,0%,0%);stroke-opacity:1;stroke-miterlimit:10;" d="M 0.52526 0.90201 L 0.329427 1.022713 " transform="matrix(30,0,0,30,60.046875,7.978775)"/>
<path style="fill:none;stroke-width:0.0433333;stroke-linecap:butt;stroke-linejoin:miter;stroke:rgb(0%,0%,0%);stroke-opacity:1;stroke-miterlimit:10;" d="M 0.52513 0.505525 L 0.329297 0.384822 " transform="matrix(30,0,0,30,60.046875,7.978775)"/>
<g style="fill:rgb(0%,0%,0%);fill-opacity:1;">
  <use xlink:href="#glyph1-1" x="1.066406" y="76.804688"/>
  <use xlink:href="#glyph1-2" x="6.822266" y="76.804688"/>
  <use xlink:href="#glyph1-3" x="15.435547" y="76.804688"/>
  <use xlink:href="#glyph1-4" x="24.308594" y="76.804688"/>
  <use xlink:href="#glyph1-2" x="33.195312" y="76.804688"/>
  <use xlink:href="#glyph1-1" x="41.808594" y="76.804688"/>
  <use xlink:href="#glyph1-5" x="47.564453" y="76.804688"/>
  <use xlink:href="#glyph1-6" x="52.616211" y="76.804688"/>
  <use xlink:href="#glyph1-7" x="60.901367" y="76.804688"/>
  <use xlink:href="#glyph1-8" x="69.480469" y="76.804688"/>
  <use xlink:href="#glyph1-2" x="73.370117" y="76.804688"/>
  <use xlink:href="#glyph1-3" x="81.983398" y="76.804688"/>
  <use xlink:href="#glyph1-9" x="90.856445" y="76.804688"/>
  <use xlink:href="#glyph1-2" x="98.553711" y="76.804688"/>
  <use xlink:href="#glyph1-10" x="107.166992" y="76.804688"/>
  <use xlink:href="#glyph1-5" x="114.460938" y="76.804688"/>
  <use xlink:href="#glyph1-6" x="119.512695" y="76.804688"/>
  <use xlink:href="#glyph1-11" x="127.797852" y="76.804688"/>
  <use xlink:href="#glyph1-10" x="131.6875" y="76.804688"/>
  <use xlink:href="#glyph1-11" x="138.981445" y="76.804688"/>
  <use xlink:href="#glyph1-12" x="142.871094" y="76.804688"/>
  <use xlink:href="#glyph1-8" x="151.757812" y="76.804688"/>
  <use xlink:href="#glyph1-2" x="155.647461" y="76.804688"/>
  <use xlink:href="#glyph1-13" x="164.260742" y="76.804688"/>
  <use xlink:href="#glyph1-14" x="175.991211" y="76.804688"/>
  <use xlink:href="#glyph1-7" x="184.043945" y="76.804688"/>
  <use xlink:href="#glyph1-8" x="192.623047" y="76.804688"/>
  <use xlink:href="#glyph1-10" x="196.512695" y="76.804688"/>
  <use xlink:href="#glyph1-2" x="203.806641" y="76.804688"/>
</g>
</g>
</svg>
