<?xml version="1.0" encoding="UTF-8"?>
<svg xmlns="http://www.w3.org/2000/svg" xmlns:xlink="http://www.w3.org/1999/xlink" width="136pt" height="95pt" viewBox="0 0 136 95" version="1.1">
<defs>
<g>
<symbol overflow="visible" id="glyph0-0">
<path style="stroke:none;" d="M 0.78125 2.75 L 0.78125 -11 L 8.578125 -11 L 8.578125 2.75 Z M 1.65625 1.890625 L 7.703125 1.890625 L 7.703125 -10.125 L 1.65625 -10.125 Z "/>
</symbol>
<symbol overflow="visible" id="glyph0-1">
<path style="stroke:none;" d="M 10.046875 -10.5 L 10.046875 -8.875 C 9.523438 -9.351562 8.96875 -9.710938 8.375 -9.953125 C 7.789062 -10.191406 7.171875 -10.3125 6.515625 -10.3125 C 5.210938 -10.3125 4.21875 -9.910156 3.53125 -9.109375 C 2.84375 -8.316406 2.5 -7.171875 2.5 -5.671875 C 2.5 -4.171875 2.84375 -3.023438 3.53125 -2.234375 C 4.21875 -1.441406 5.210938 -1.046875 6.515625 -1.046875 C 7.171875 -1.046875 7.789062 -1.164062 8.375 -1.40625 C 8.96875 -1.644531 9.523438 -2.003906 10.046875 -2.484375 L 10.046875 -0.875 C 9.503906 -0.507812 8.929688 -0.234375 8.328125 -0.046875 C 7.734375 0.128906 7.097656 0.21875 6.421875 0.21875 C 4.703125 0.21875 3.347656 -0.304688 2.359375 -1.359375 C 1.367188 -2.410156 0.875 -3.847656 0.875 -5.671875 C 0.875 -7.492188 1.367188 -8.929688 2.359375 -9.984375 C 3.347656 -11.046875 4.703125 -11.578125 6.421875 -11.578125 C 7.109375 -11.578125 7.75 -11.484375 8.34375 -11.296875 C 8.945312 -11.117188 9.515625 -10.851562 10.046875 -10.5 Z "/>
</symbol>
<symbol overflow="visible" id="glyph0-2">
<path style="stroke:none;" d="M 1.53125 -11.375 L 3.0625 -11.375 L 3.0625 -6.703125 L 8.65625 -6.703125 L 8.65625 -11.375 L 10.203125 -11.375 L 10.203125 0 L 8.65625 0 L 8.65625 -5.40625 L 3.0625 -5.40625 L 3.0625 0 L 1.53125 0 Z "/>
</symbol>
<symbol overflow="visible" id="glyph1-0">
<path style="stroke:none;" d="M 0.515625 1.84375 L 0.515625 -7.34375 L 5.71875 -7.34375 L 5.71875 1.84375 Z M 1.109375 1.265625 L 5.140625 1.265625 L 5.140625 -6.75 L 1.109375 -6.75 Z "/>
</symbol>
<symbol overflow="visible" id="glyph1-1">
<path style="stroke:none;" d="M 4.21875 -4.09375 C 4.707031 -3.988281 5.085938 -3.769531 5.359375 -3.4375 C 5.640625 -3.101562 5.78125 -2.691406 5.78125 -2.203125 C 5.78125 -1.453125 5.523438 -0.875 5.015625 -0.46875 C 4.503906 -0.0625 3.769531 0.140625 2.8125 0.140625 C 2.5 0.140625 2.171875 0.109375 1.828125 0.046875 C 1.492188 -0.015625 1.148438 -0.109375 0.796875 -0.234375 L 0.796875 -1.21875 C 1.078125 -1.050781 1.382812 -0.925781 1.71875 -0.84375 C 2.0625 -0.757812 2.421875 -0.71875 2.796875 -0.71875 C 3.429688 -0.71875 3.914062 -0.84375 4.25 -1.09375 C 4.59375 -1.351562 4.765625 -1.722656 4.765625 -2.203125 C 4.765625 -2.648438 4.609375 -3 4.296875 -3.25 C 3.984375 -3.507812 3.546875 -3.640625 2.984375 -3.640625 L 2.109375 -3.640625 L 2.109375 -4.46875 L 3.03125 -4.46875 C 3.53125 -4.46875 3.914062 -4.566406 4.1875 -4.765625 C 4.457031 -4.972656 4.59375 -5.269531 4.59375 -5.65625 C 4.59375 -6.039062 4.453125 -6.335938 4.171875 -6.546875 C 3.898438 -6.753906 3.503906 -6.859375 2.984375 -6.859375 C 2.703125 -6.859375 2.398438 -6.828125 2.078125 -6.765625 C 1.753906 -6.703125 1.398438 -6.609375 1.015625 -6.484375 L 1.015625 -7.390625 C 1.410156 -7.503906 1.773438 -7.585938 2.109375 -7.640625 C 2.453125 -7.691406 2.773438 -7.71875 3.078125 -7.71875 C 3.859375 -7.71875 4.472656 -7.539062 4.921875 -7.1875 C 5.378906 -6.832031 5.609375 -6.351562 5.609375 -5.75 C 5.609375 -5.332031 5.488281 -4.976562 5.25 -4.6875 C 5.007812 -4.40625 4.664062 -4.207031 4.21875 -4.09375 Z "/>
</symbol>
</g>
</defs>
<g id="surface1497">
<g style="fill:rgb(0%,0%,0%);fill-opacity:1;">
  <use xlink:href="#glyph0-1" x="107.539062" y="13.902344"/>
</g>
<g style="fill:rgb(0%,0%,0%);fill-opacity:1;">
  <use xlink:href="#glyph0-2" x="117.355469" y="13.699219"/>
</g>
<g style="fill:rgb(0%,0%,0%);fill-opacity:1;">
  <use xlink:href="#glyph1-1" x="128.0625" y="14.59375"/>
</g>
<g style="fill:rgb(0%,0%,0%);fill-opacity:1;">
  <use xlink:href="#glyph0-1" x="62.539062" y="91.847656"/>
</g>
<g style="fill:rgb(0%,0%,0%);fill-opacity:1;">
  <use xlink:href="#glyph0-2" x="72.355469" y="91.644531"/>
</g>
<g style="fill:rgb(0%,0%,0%);fill-opacity:1;">
  <use xlink:href="#glyph1-1" x="83.058594" y="92.535156"/>
</g>
<g style="fill:rgb(0%,0%,0%);fill-opacity:1;">
  <use xlink:href="#glyph0-1" x="17.539062" y="65.867188"/>
</g>
<g style="fill:rgb(0%,0%,0%);fill-opacity:1;">
  <use xlink:href="#glyph0-2" x="0.625" y="65.664062"/>
</g>
<g style="fill:rgb(0%,0%,0%);fill-opacity:1;">
  <use xlink:href="#glyph1-1" x="11.332031" y="66.558594"/>
</g>
<path style="fill:none;stroke-width:0.0433333;stroke-linecap:butt;stroke-linejoin:miter;stroke:rgb(0%,0%,0%);stroke-opacity:1;stroke-miterlimit:10;" d="M 2.512565 0.866016 L 1.487435 0.866016 " transform="matrix(30,0,0,30,22.998046,8.222656)"/>
<path style="fill:none;stroke-width:0.0433333;stroke-linecap:butt;stroke-linejoin:miter;stroke:rgb(0%,0%,0%);stroke-opacity:1;stroke-miterlimit:10;" d="M 2.387435 0.649349 L 1.612565 0.649349 " transform="matrix(30,0,0,30,22.998046,8.222656)"/>
<path style="fill:none;stroke-width:0.0433333;stroke-linecap:butt;stroke-linejoin:miter;stroke:rgb(0%,0%,0%);stroke-opacity:1;stroke-miterlimit:10;" d="M 1.506315 0.855208 L 1.000065 1.732161 " transform="matrix(30,0,0,30,22.998046,8.222656)"/>
<path style="fill:none;stroke-width:0.0433333;stroke-linecap:butt;stroke-linejoin:miter;stroke:rgb(0%,0%,0%);stroke-opacity:1;stroke-miterlimit:10;" d="M 2.493815 0.876953 L 2.794857 0.355339 " transform="matrix(30,0,0,30,22.998046,8.222656)"/>
<path style="fill:none;stroke-width:0.0433333;stroke-linecap:butt;stroke-linejoin:miter;stroke:rgb(0%,0%,0%);stroke-opacity:1;stroke-miterlimit:10;" d="M 1.000065 1.732161 L 1.294857 2.242708 " transform="matrix(30,0,0,30,22.998046,8.222656)"/>
<path style="fill:none;stroke-width:0.0433333;stroke-linecap:butt;stroke-linejoin:miter;stroke:rgb(0%,0%,0%);stroke-opacity:1;stroke-miterlimit:10;" d="M 1.000065 1.732161 L 0.295898 1.732161 " transform="matrix(30,0,0,30,22.998046,8.222656)"/>
</g>
</svg>
