<?xml version="1.0" encoding="UTF-8"?>
<svg xmlns="http://www.w3.org/2000/svg" xmlns:xlink="http://www.w3.org/1999/xlink" width="203pt" height="118pt" viewBox="0 0 203 118" version="1.1">
<defs>
<g>
<symbol overflow="visible" id="glyph0-0">
<path style="stroke:none;" d="M 0.78125 2.75 L 0.78125 -11 L 8.578125 -11 L 8.578125 2.75 Z M 1.65625 1.890625 L 7.703125 1.890625 L 7.703125 -10.125 L 1.65625 -10.125 Z "/>
</symbol>
<symbol overflow="visible" id="glyph0-1">
<path style="stroke:none;" d="M 1.53125 -11.375 L 3.59375 -11.375 L 8.640625 -1.859375 L 8.640625 -11.375 L 10.140625 -11.375 L 10.140625 0 L 8.0625 0 L 3.015625 -9.515625 L 3.015625 0 L 1.53125 0 Z "/>
</symbol>
<symbol overflow="visible" id="glyph0-2">
<path style="stroke:none;" d="M 6.140625 -10.328125 C 5.023438 -10.328125 4.140625 -9.910156 3.484375 -9.078125 C 2.828125 -8.242188 2.5 -7.109375 2.5 -5.671875 C 2.5 -4.242188 2.828125 -3.113281 3.484375 -2.28125 C 4.140625 -1.445312 5.023438 -1.03125 6.140625 -1.03125 C 7.253906 -1.03125 8.140625 -1.445312 8.796875 -2.28125 C 9.453125 -3.113281 9.78125 -4.242188 9.78125 -5.671875 C 9.78125 -7.109375 9.453125 -8.242188 8.796875 -9.078125 C 8.140625 -9.910156 7.253906 -10.328125 6.140625 -10.328125 Z M 6.140625 -11.578125 C 7.734375 -11.578125 9.003906 -11.039062 9.953125 -9.96875 C 10.910156 -8.90625 11.390625 -7.472656 11.390625 -5.671875 C 11.390625 -3.878906 10.910156 -2.445312 9.953125 -1.375 C 9.003906 -0.3125 7.734375 0.21875 6.140625 0.21875 C 4.546875 0.21875 3.269531 -0.3125 2.3125 -1.375 C 1.351562 -2.445312 0.875 -3.878906 0.875 -5.671875 C 0.875 -7.472656 1.351562 -8.90625 2.3125 -9.96875 C 3.269531 -11.039062 4.546875 -11.578125 6.140625 -11.578125 Z "/>
</symbol>
<symbol overflow="visible" id="glyph0-3">
<path style="stroke:none;" d="M 10.046875 -10.5 L 10.046875 -8.875 C 9.523438 -9.351562 8.96875 -9.710938 8.375 -9.953125 C 7.789062 -10.191406 7.171875 -10.3125 6.515625 -10.3125 C 5.210938 -10.3125 4.21875 -9.910156 3.53125 -9.109375 C 2.84375 -8.316406 2.5 -7.171875 2.5 -5.671875 C 2.5 -4.171875 2.84375 -3.023438 3.53125 -2.234375 C 4.21875 -1.441406 5.210938 -1.046875 6.515625 -1.046875 C 7.171875 -1.046875 7.789062 -1.164062 8.375 -1.40625 C 8.96875 -1.644531 9.523438 -2.003906 10.046875 -2.484375 L 10.046875 -0.875 C 9.503906 -0.507812 8.929688 -0.234375 8.328125 -0.046875 C 7.734375 0.128906 7.097656 0.21875 6.421875 0.21875 C 4.703125 0.21875 3.347656 -0.304688 2.359375 -1.359375 C 1.367188 -2.410156 0.875 -3.847656 0.875 -5.671875 C 0.875 -7.492188 1.367188 -8.929688 2.359375 -9.984375 C 3.347656 -11.046875 4.703125 -11.578125 6.421875 -11.578125 C 7.109375 -11.578125 7.75 -11.484375 8.34375 -11.296875 C 8.945312 -11.117188 9.515625 -10.851562 10.046875 -10.5 Z "/>
</symbol>
<symbol overflow="visible" id="glyph0-4">
<path style="stroke:none;" d="M 1.53125 -11.375 L 3.0625 -11.375 L 3.0625 -6.703125 L 8.65625 -6.703125 L 8.65625 -11.375 L 10.203125 -11.375 L 10.203125 0 L 8.65625 0 L 8.65625 -5.40625 L 3.0625 -5.40625 L 3.0625 0 L 1.53125 0 Z "/>
</symbol>
<symbol overflow="visible" id="glyph1-0">
<path style="stroke:none;" d="M 0.515625 1.84375 L 0.515625 -7.34375 L 5.71875 -7.34375 L 5.71875 1.84375 Z M 1.109375 1.265625 L 5.140625 1.265625 L 5.140625 -6.75 L 1.109375 -6.75 Z "/>
</symbol>
<symbol overflow="visible" id="glyph1-1">
<path style="stroke:none;" d="M 4.21875 -4.09375 C 4.707031 -3.988281 5.085938 -3.769531 5.359375 -3.4375 C 5.640625 -3.101562 5.78125 -2.691406 5.78125 -2.203125 C 5.78125 -1.453125 5.523438 -0.875 5.015625 -0.46875 C 4.503906 -0.0625 3.769531 0.140625 2.8125 0.140625 C 2.5 0.140625 2.171875 0.109375 1.828125 0.046875 C 1.492188 -0.015625 1.148438 -0.109375 0.796875 -0.234375 L 0.796875 -1.21875 C 1.078125 -1.050781 1.382812 -0.925781 1.71875 -0.84375 C 2.0625 -0.757812 2.421875 -0.71875 2.796875 -0.71875 C 3.429688 -0.71875 3.914062 -0.84375 4.25 -1.09375 C 4.59375 -1.351562 4.765625 -1.722656 4.765625 -2.203125 C 4.765625 -2.648438 4.609375 -3 4.296875 -3.25 C 3.984375 -3.507812 3.546875 -3.640625 2.984375 -3.640625 L 2.109375 -3.640625 L 2.109375 -4.46875 L 3.03125 -4.46875 C 3.53125 -4.46875 3.914062 -4.566406 4.1875 -4.765625 C 4.457031 -4.972656 4.59375 -5.269531 4.59375 -5.65625 C 4.59375 -6.039062 4.453125 -6.335938 4.171875 -6.546875 C 3.898438 -6.753906 3.503906 -6.859375 2.984375 -6.859375 C 2.703125 -6.859375 2.398438 -6.828125 2.078125 -6.765625 C 1.753906 -6.703125 1.398438 -6.609375 1.015625 -6.484375 L 1.015625 -7.390625 C 1.410156 -7.503906 1.773438 -7.585938 2.109375 -7.640625 C 2.453125 -7.691406 2.773438 -7.71875 3.078125 -7.71875 C 3.859375 -7.71875 4.472656 -7.539062 4.921875 -7.1875 C 5.378906 -6.832031 5.609375 -6.351562 5.609375 -5.75 C 5.609375 -5.332031 5.488281 -4.976562 5.25 -4.6875 C 5.007812 -4.40625 4.664062 -4.207031 4.21875 -4.09375 Z "/>
</symbol>
<symbol overflow="visible" id="glyph2-0">
<path style="stroke:none;" d="M 0.703125 2.46875 L 0.703125 -9.875 L 7.703125 -9.875 L 7.703125 2.46875 Z M 1.484375 1.703125 L 6.921875 1.703125 L 6.921875 -9.078125 L 1.484375 -9.078125 Z "/>
</symbol>
<symbol overflow="visible" id="glyph2-1">
<path style="stroke:none;" d="M 5.75 -6.484375 C 5.613281 -6.566406 5.460938 -6.625 5.296875 -6.65625 C 5.128906 -6.695312 4.945312 -6.71875 4.75 -6.71875 C 4.03125 -6.71875 3.476562 -6.484375 3.09375 -6.015625 C 2.71875 -5.554688 2.53125 -4.894531 2.53125 -4.03125 L 2.53125 0 L 1.265625 0 L 1.265625 -7.65625 L 2.53125 -7.65625 L 2.53125 -6.46875 C 2.800781 -6.9375 3.144531 -7.28125 3.5625 -7.5 C 3.988281 -7.726562 4.503906 -7.84375 5.109375 -7.84375 C 5.203125 -7.84375 5.300781 -7.835938 5.40625 -7.828125 C 5.507812 -7.816406 5.625 -7.796875 5.75 -7.765625 Z "/>
</symbol>
<symbol overflow="visible" id="glyph2-2">
<path style="stroke:none;" d="M 7.875 -4.140625 L 7.875 -3.53125 L 2.078125 -3.53125 C 2.140625 -2.664062 2.398438 -2.003906 2.859375 -1.546875 C 3.328125 -1.097656 3.976562 -0.875 4.8125 -0.875 C 5.300781 -0.875 5.769531 -0.929688 6.21875 -1.046875 C 6.675781 -1.160156 7.128906 -1.335938 7.578125 -1.578125 L 7.578125 -0.390625 C 7.117188 -0.203125 6.648438 -0.0546875 6.171875 0.046875 C 5.703125 0.148438 5.226562 0.203125 4.75 0.203125 C 3.519531 0.203125 2.546875 -0.148438 1.828125 -0.859375 C 1.117188 -1.578125 0.765625 -2.539062 0.765625 -3.75 C 0.765625 -5.007812 1.101562 -6.003906 1.78125 -6.734375 C 2.457031 -7.472656 3.375 -7.84375 4.53125 -7.84375 C 5.5625 -7.84375 6.375 -7.507812 6.96875 -6.84375 C 7.570312 -6.1875 7.875 -5.285156 7.875 -4.140625 Z M 6.609375 -4.515625 C 6.597656 -5.203125 6.40625 -5.75 6.03125 -6.15625 C 5.65625 -6.570312 5.160156 -6.78125 4.546875 -6.78125 C 3.835938 -6.78125 3.269531 -6.578125 2.84375 -6.171875 C 2.425781 -5.773438 2.1875 -5.21875 2.125 -4.5 Z "/>
</symbol>
<symbol overflow="visible" id="glyph2-3">
<path style="stroke:none;" d="M 7.6875 -4.625 L 7.6875 0 L 6.421875 0 L 6.421875 -4.578125 C 6.421875 -5.304688 6.28125 -5.847656 6 -6.203125 C 5.71875 -6.566406 5.296875 -6.75 4.734375 -6.75 C 4.054688 -6.75 3.519531 -6.53125 3.125 -6.09375 C 2.726562 -5.664062 2.53125 -5.078125 2.53125 -4.328125 L 2.53125 0 L 1.265625 0 L 1.265625 -7.65625 L 2.53125 -7.65625 L 2.53125 -6.46875 C 2.832031 -6.925781 3.1875 -7.269531 3.59375 -7.5 C 4.007812 -7.726562 4.484375 -7.84375 5.015625 -7.84375 C 5.890625 -7.84375 6.550781 -7.566406 7 -7.015625 C 7.457031 -6.472656 7.6875 -5.675781 7.6875 -4.625 Z "/>
</symbol>
<symbol overflow="visible" id="glyph2-4">
<path style="stroke:none;" d="M 6.359375 -6.5 L 6.359375 -10.640625 L 7.609375 -10.640625 L 7.609375 0 L 6.359375 0 L 6.359375 -1.15625 C 6.097656 -0.695312 5.765625 -0.351562 5.359375 -0.125 C 4.953125 0.09375 4.46875 0.203125 3.90625 0.203125 C 2.976562 0.203125 2.222656 -0.164062 1.640625 -0.90625 C 1.054688 -1.644531 0.765625 -2.617188 0.765625 -3.828125 C 0.765625 -5.023438 1.054688 -5.992188 1.640625 -6.734375 C 2.222656 -7.472656 2.976562 -7.84375 3.90625 -7.84375 C 4.46875 -7.84375 4.953125 -7.726562 5.359375 -7.5 C 5.765625 -7.28125 6.097656 -6.945312 6.359375 -6.5 Z M 2.078125 -3.828125 C 2.078125 -2.898438 2.265625 -2.171875 2.640625 -1.640625 C 3.023438 -1.117188 3.550781 -0.859375 4.21875 -0.859375 C 4.875 -0.859375 5.394531 -1.117188 5.78125 -1.640625 C 6.164062 -2.171875 6.359375 -2.898438 6.359375 -3.828125 C 6.359375 -4.742188 6.164062 -5.460938 5.78125 -5.984375 C 5.394531 -6.515625 4.875 -6.78125 4.21875 -6.78125 C 3.550781 -6.78125 3.023438 -6.515625 2.640625 -5.984375 C 2.265625 -5.460938 2.078125 -4.742188 2.078125 -3.828125 Z "/>
</symbol>
<symbol overflow="visible" id="glyph2-5">
<path style="stroke:none;" d="M 0.6875 -4.390625 L 4.375 -4.390625 L 4.375 -3.28125 L 0.6875 -3.28125 Z "/>
</symbol>
<symbol overflow="visible" id="glyph2-6">
<path style="stroke:none;" d="M 6.828125 -7.359375 L 6.828125 -6.1875 C 6.472656 -6.382812 6.113281 -6.53125 5.75 -6.625 C 5.394531 -6.726562 5.035156 -6.78125 4.671875 -6.78125 C 3.859375 -6.78125 3.222656 -6.519531 2.765625 -6 C 2.316406 -5.476562 2.09375 -4.753906 2.09375 -3.828125 C 2.09375 -2.890625 2.316406 -2.160156 2.765625 -1.640625 C 3.222656 -1.128906 3.859375 -0.875 4.671875 -0.875 C 5.035156 -0.875 5.394531 -0.921875 5.75 -1.015625 C 6.113281 -1.109375 6.472656 -1.253906 6.828125 -1.453125 L 6.828125 -0.296875 C 6.472656 -0.128906 6.109375 -0.00390625 5.734375 0.078125 C 5.359375 0.160156 4.960938 0.203125 4.546875 0.203125 C 3.390625 0.203125 2.46875 -0.15625 1.78125 -0.875 C 1.101562 -1.601562 0.765625 -2.585938 0.765625 -3.828125 C 0.765625 -5.066406 1.109375 -6.046875 1.796875 -6.765625 C 2.484375 -7.484375 3.425781 -7.84375 4.625 -7.84375 C 5.007812 -7.84375 5.382812 -7.800781 5.75 -7.71875 C 6.125 -7.644531 6.484375 -7.523438 6.828125 -7.359375 Z "/>
</symbol>
<symbol overflow="visible" id="glyph2-7">
<path style="stroke:none;" d="M 4.28125 -6.78125 C 3.613281 -6.78125 3.082031 -6.515625 2.6875 -5.984375 C 2.289062 -5.460938 2.09375 -4.742188 2.09375 -3.828125 C 2.09375 -2.910156 2.285156 -2.1875 2.671875 -1.65625 C 3.066406 -1.132812 3.601562 -0.875 4.28125 -0.875 C 4.957031 -0.875 5.488281 -1.132812 5.875 -1.65625 C 6.269531 -2.1875 6.46875 -2.910156 6.46875 -3.828125 C 6.46875 -4.734375 6.269531 -5.453125 5.875 -5.984375 C 5.488281 -6.515625 4.957031 -6.78125 4.28125 -6.78125 Z M 4.28125 -7.84375 C 5.375 -7.84375 6.234375 -7.484375 6.859375 -6.765625 C 7.484375 -6.054688 7.796875 -5.078125 7.796875 -3.828125 C 7.796875 -2.566406 7.484375 -1.578125 6.859375 -0.859375 C 6.234375 -0.148438 5.375 0.203125 4.28125 0.203125 C 3.1875 0.203125 2.328125 -0.148438 1.703125 -0.859375 C 1.078125 -1.578125 0.765625 -2.566406 0.765625 -3.828125 C 0.765625 -5.078125 1.078125 -6.054688 1.703125 -6.765625 C 2.328125 -7.484375 3.1875 -7.84375 4.28125 -7.84375 Z "/>
</symbol>
<symbol overflow="visible" id="glyph2-8">
<path style="stroke:none;" d="M 7.28125 -6.1875 C 7.59375 -6.75 7.96875 -7.164062 8.40625 -7.4375 C 8.84375 -7.707031 9.359375 -7.84375 9.953125 -7.84375 C 10.753906 -7.84375 11.367188 -7.5625 11.796875 -7 C 12.234375 -6.445312 12.453125 -5.65625 12.453125 -4.625 L 12.453125 0 L 11.1875 0 L 11.1875 -4.578125 C 11.1875 -5.316406 11.054688 -5.863281 10.796875 -6.21875 C 10.535156 -6.570312 10.140625 -6.75 9.609375 -6.75 C 8.953125 -6.75 8.4375 -6.53125 8.0625 -6.09375 C 7.6875 -5.664062 7.5 -5.078125 7.5 -4.328125 L 7.5 0 L 6.234375 0 L 6.234375 -4.578125 C 6.234375 -5.316406 6.101562 -5.863281 5.84375 -6.21875 C 5.582031 -6.570312 5.179688 -6.75 4.640625 -6.75 C 3.992188 -6.75 3.476562 -6.53125 3.09375 -6.09375 C 2.71875 -5.65625 2.53125 -5.066406 2.53125 -4.328125 L 2.53125 0 L 1.265625 0 L 1.265625 -7.65625 L 2.53125 -7.65625 L 2.53125 -6.46875 C 2.820312 -6.9375 3.164062 -7.28125 3.5625 -7.5 C 3.96875 -7.726562 4.445312 -7.84375 5 -7.84375 C 5.550781 -7.84375 6.019531 -7.703125 6.40625 -7.421875 C 6.800781 -7.140625 7.09375 -6.726562 7.28125 -6.1875 Z "/>
</symbol>
<symbol overflow="visible" id="glyph2-9">
<path style="stroke:none;" d="M 2.5625 -9.828125 L 2.5625 -7.65625 L 5.15625 -7.65625 L 5.15625 -6.671875 L 2.5625 -6.671875 L 2.5625 -2.515625 C 2.5625 -1.898438 2.644531 -1.5 2.8125 -1.3125 C 2.988281 -1.132812 3.335938 -1.046875 3.859375 -1.046875 L 5.15625 -1.046875 L 5.15625 0 L 3.859375 0 C 2.890625 0 2.21875 -0.179688 1.84375 -0.546875 C 1.476562 -0.910156 1.296875 -1.566406 1.296875 -2.515625 L 1.296875 -6.671875 L 0.375 -6.671875 L 0.375 -7.65625 L 1.296875 -7.65625 L 1.296875 -9.828125 Z "/>
</symbol>
<symbol overflow="visible" id="glyph2-10">
<path style="stroke:none;" d="M 5.203125 -10.640625 L 5.203125 -9.59375 L 4 -9.59375 C 3.539062 -9.59375 3.222656 -9.5 3.046875 -9.3125 C 2.878906 -9.132812 2.796875 -8.804688 2.796875 -8.328125 L 2.796875 -7.65625 L 4.859375 -7.65625 L 4.859375 -6.671875 L 2.796875 -6.671875 L 2.796875 0 L 1.53125 0 L 1.53125 -6.671875 L 0.328125 -6.671875 L 0.328125 -7.65625 L 1.53125 -7.65625 L 1.53125 -8.1875 C 1.53125 -9.039062 1.726562 -9.660156 2.125 -10.046875 C 2.519531 -10.441406 3.144531 -10.640625 4 -10.640625 Z "/>
</symbol>
<symbol overflow="visible" id="glyph2-11">
<path style="stroke:none;" d="M 6.203125 -7.4375 L 6.203125 -6.234375 C 5.847656 -6.421875 5.476562 -6.554688 5.09375 -6.640625 C 4.707031 -6.734375 4.3125 -6.78125 3.90625 -6.78125 C 3.28125 -6.78125 2.8125 -6.6875 2.5 -6.5 C 2.1875 -6.3125 2.03125 -6.023438 2.03125 -5.640625 C 2.03125 -5.347656 2.140625 -5.117188 2.359375 -4.953125 C 2.585938 -4.785156 3.039062 -4.628906 3.71875 -4.484375 L 4.140625 -4.375 C 5.035156 -4.1875 5.671875 -3.914062 6.046875 -3.5625 C 6.421875 -3.21875 6.609375 -2.734375 6.609375 -2.109375 C 6.609375 -1.398438 6.328125 -0.835938 5.765625 -0.421875 C 5.203125 -0.00390625 4.429688 0.203125 3.453125 0.203125 C 3.035156 0.203125 2.601562 0.160156 2.15625 0.078125 C 1.71875 -0.00390625 1.253906 -0.125 0.765625 -0.28125 L 0.765625 -1.578125 C 1.222656 -1.335938 1.675781 -1.15625 2.125 -1.03125 C 2.582031 -0.914062 3.03125 -0.859375 3.46875 -0.859375 C 4.0625 -0.859375 4.515625 -0.957031 4.828125 -1.15625 C 5.148438 -1.363281 5.3125 -1.648438 5.3125 -2.015625 C 5.3125 -2.359375 5.195312 -2.617188 4.96875 -2.796875 C 4.738281 -2.984375 4.234375 -3.160156 3.453125 -3.328125 L 3.015625 -3.4375 C 2.242188 -3.59375 1.679688 -3.84375 1.328125 -4.1875 C 0.984375 -4.53125 0.8125 -4.992188 0.8125 -5.578125 C 0.8125 -6.304688 1.066406 -6.863281 1.578125 -7.25 C 2.085938 -7.644531 2.8125 -7.84375 3.75 -7.84375 C 4.21875 -7.84375 4.65625 -7.804688 5.0625 -7.734375 C 5.476562 -7.671875 5.859375 -7.570312 6.203125 -7.4375 Z "/>
</symbol>
<symbol overflow="visible" id="glyph2-12">
<path style="stroke:none;" d="M 1.484375 -6.359375 L 10.25 -6.359375 L 10.25 -5.203125 L 1.484375 -5.203125 Z M 1.484375 -3.5625 L 10.25 -3.5625 L 10.25 -2.40625 L 1.484375 -2.40625 Z "/>
</symbol>
<symbol overflow="visible" id="glyph2-13">
<path style="stroke:none;" d="M 2.6875 -1.15625 L 7.5 -1.15625 L 7.5 0 L 1.03125 0 L 1.03125 -1.15625 C 1.550781 -1.695312 2.265625 -2.425781 3.171875 -3.34375 C 4.078125 -4.257812 4.644531 -4.847656 4.875 -5.109375 C 5.3125 -5.609375 5.617188 -6.03125 5.796875 -6.375 C 5.972656 -6.71875 6.0625 -7.054688 6.0625 -7.390625 C 6.0625 -7.929688 5.867188 -8.375 5.484375 -8.71875 C 5.109375 -9.0625 4.613281 -9.234375 4 -9.234375 C 3.570312 -9.234375 3.117188 -9.15625 2.640625 -9 C 2.160156 -8.851562 1.644531 -8.625 1.09375 -8.3125 L 1.09375 -9.71875 C 1.644531 -9.9375 2.160156 -10.101562 2.640625 -10.21875 C 3.128906 -10.332031 3.578125 -10.390625 3.984375 -10.390625 C 5.035156 -10.390625 5.875 -10.125 6.5 -9.59375 C 7.132812 -9.070312 7.453125 -8.367188 7.453125 -7.484375 C 7.453125 -7.054688 7.375 -6.65625 7.21875 -6.28125 C 7.0625 -5.90625 6.773438 -5.460938 6.359375 -4.953125 C 6.242188 -4.828125 5.878906 -4.445312 5.265625 -3.8125 C 4.660156 -3.175781 3.800781 -2.289062 2.6875 -1.15625 Z "/>
</symbol>
<symbol overflow="visible" id="glyph2-14">
<path style="stroke:none;" d="M 4.453125 -9.296875 C 3.742188 -9.296875 3.207031 -8.945312 2.84375 -8.25 C 2.488281 -7.550781 2.3125 -6.5 2.3125 -5.09375 C 2.3125 -3.695312 2.488281 -2.644531 2.84375 -1.9375 C 3.207031 -1.238281 3.742188 -0.890625 4.453125 -0.890625 C 5.171875 -0.890625 5.707031 -1.238281 6.0625 -1.9375 C 6.414062 -2.644531 6.59375 -3.695312 6.59375 -5.09375 C 6.59375 -6.5 6.414062 -7.550781 6.0625 -8.25 C 5.707031 -8.945312 5.171875 -9.296875 4.453125 -9.296875 Z M 4.453125 -10.390625 C 5.597656 -10.390625 6.472656 -9.9375 7.078125 -9.03125 C 7.679688 -8.125 7.984375 -6.8125 7.984375 -5.09375 C 7.984375 -3.375 7.679688 -2.0625 7.078125 -1.15625 C 6.472656 -0.25 5.597656 0.203125 4.453125 0.203125 C 3.304688 0.203125 2.429688 -0.25 1.828125 -1.15625 C 1.222656 -2.0625 0.921875 -3.375 0.921875 -5.09375 C 0.921875 -6.8125 1.222656 -8.125 1.828125 -9.03125 C 2.429688 -9.9375 3.304688 -10.390625 4.453125 -10.390625 Z "/>
</symbol>
</g>
</defs>
<g id="surface2597">
<g style="fill:rgb(0%,0%,0%);fill-opacity:1;">
  <use xlink:href="#glyph0-1" x="68.273438" y="52.175781"/>
</g>
<g style="fill:rgb(0%,0%,0%);fill-opacity:1;">
  <use xlink:href="#glyph0-2" x="120.78125" y="13.804688"/>
</g>
<g style="fill:rgb(0%,0%,0%);fill-opacity:1;">
  <use xlink:href="#glyph0-3" x="17.824219" y="62.972656"/>
</g>
<g style="fill:rgb(0%,0%,0%);fill-opacity:1;">
  <use xlink:href="#glyph0-4" x="0.910156" y="62.769531"/>
</g>
<g style="fill:rgb(0%,0%,0%);fill-opacity:1;">
  <use xlink:href="#glyph1-1" x="11.617188" y="63.664062"/>
</g>
<g style="fill:rgb(0%,0%,0%);fill-opacity:1;">
  <use xlink:href="#glyph0-3" x="174.253906" y="52.167969"/>
</g>
<g style="fill:rgb(0%,0%,0%);fill-opacity:1;">
  <use xlink:href="#glyph0-4" x="184.066406" y="51.964844"/>
</g>
<g style="fill:rgb(0%,0%,0%);fill-opacity:1;">
  <use xlink:href="#glyph1-1" x="194.773438" y="52.859375"/>
</g>
<path style="fill:none;stroke-width:0.0433333;stroke-linecap:butt;stroke-linejoin:miter;stroke:rgb(0%,0%,0%);stroke-opacity:1;stroke-miterlimit:10;" d="M 3.441602 0.990681 L 4.272201 1.594197 " transform="matrix(30,0,0,30,23.283203,8.123306)"/>
<path style="fill:none;stroke-width:0.0433333;stroke-linecap:butt;stroke-linejoin:miter;stroke:rgb(0%,0%,0%);stroke-opacity:1;stroke-miterlimit:10;" d="M 3.466992 0.990681 L 2.636263 1.594197 " transform="matrix(30,0,0,30,23.283203,8.123306)"/>
<path style="fill:none;stroke-width:0.0433333;stroke-linecap:butt;stroke-linejoin:miter;stroke:rgb(0%,0%,0%);stroke-opacity:1;stroke-miterlimit:10;" d="M 4.263216 1.587687 L 3.949414 2.553833 " transform="matrix(30,0,0,30,23.283203,8.123306)"/>
<path style="fill:none;stroke-width:0.0433333;stroke-linecap:butt;stroke-linejoin:miter;stroke:rgb(0%,0%,0%);stroke-opacity:1;stroke-miterlimit:10;" d="M 4.008529 1.670499 L 3.791992 2.337166 " transform="matrix(30,0,0,30,23.283203,8.123306)"/>
<path style="fill:none;stroke-width:0.0433333;stroke-linecap:butt;stroke-linejoin:miter;stroke:rgb(0%,0%,0%);stroke-opacity:1;stroke-miterlimit:10;" d="M 3.969987 2.538859 L 2.938607 2.538859 " transform="matrix(30,0,0,30,23.283203,8.123306)"/>
<path style="fill:none;stroke-width:0.0433333;stroke-linecap:butt;stroke-linejoin:miter;stroke:rgb(0%,0%,0%);stroke-opacity:1;stroke-miterlimit:10;" d="M 2.95918 2.553833 L 2.645247 1.587687 " transform="matrix(30,0,0,30,23.283203,8.123306)"/>
<path style="fill:none;stroke-width:0.0433333;stroke-linecap:butt;stroke-linejoin:miter;stroke:rgb(0%,0%,0%);stroke-opacity:1;stroke-miterlimit:10;" d="M 3.116602 2.337166 L 2.899935 1.670499 " transform="matrix(30,0,0,30,23.283203,8.123306)"/>
<path style="fill:none;stroke-width:0.0433333;stroke-linecap:butt;stroke-linejoin:miter;stroke:rgb(0%,0%,0%);stroke-opacity:1;stroke-miterlimit:10;" d="M 2.655664 1.591202 L 2.016602 1.38352 " transform="matrix(30,0,0,30,23.283203,8.123306)"/>
<path style="fill:none;stroke-width:0.0433333;stroke-linecap:butt;stroke-linejoin:miter;stroke:rgb(0%,0%,0%);stroke-opacity:1;stroke-miterlimit:10;" d="M 1.39707 1.54628 L 0.941732 1.956176 " transform="matrix(30,0,0,30,23.283203,8.123306)"/>
<path style="fill:none;stroke-width:0.0433333;stroke-linecap:butt;stroke-linejoin:miter;stroke:rgb(0%,0%,0%);stroke-opacity:1;stroke-miterlimit:10;" d="M 1.542122 1.707218 L 1.179622 2.03352 " transform="matrix(30,0,0,30,23.283203,8.123306)"/>
<path style="fill:none;stroke-width:0.0433333;stroke-linecap:butt;stroke-linejoin:miter;stroke:rgb(0%,0%,0%);stroke-opacity:1;stroke-miterlimit:10;" d="M 3.562565 1.078702 L 3.562565 0.33964 " transform="matrix(30,0,0,30,23.283203,8.123306)"/>
<path style="fill:none;stroke-width:0.0433333;stroke-linecap:butt;stroke-linejoin:miter;stroke:rgb(0%,0%,0%);stroke-opacity:1;stroke-miterlimit:10;" d="M 3.345898 1.078702 L 3.345898 0.33964 " transform="matrix(30,0,0,30,23.283203,8.123306)"/>
<path style="fill:none;stroke-width:0.0433333;stroke-linecap:butt;stroke-linejoin:miter;stroke:rgb(0%,0%,0%);stroke-opacity:1;stroke-miterlimit:10;" d="M 0.962956 1.951749 L 0.331836 1.746671 " transform="matrix(30,0,0,30,23.283203,8.123306)"/>
<path style="fill:none;stroke-width:0.0433333;stroke-linecap:butt;stroke-linejoin:miter;stroke:rgb(0%,0%,0%);stroke-opacity:1;stroke-miterlimit:10;" d="M 4.252799 1.591202 L 4.882487 1.386515 " transform="matrix(30,0,0,30,23.283203,8.123306)"/>
<g style="fill:rgb(0%,0%,0%);fill-opacity:1;">
  <use xlink:href="#glyph2-1" x="5.09375" y="115.804688"/>
  <use xlink:href="#glyph2-2" x="10.849609" y="115.804688"/>
  <use xlink:href="#glyph2-3" x="19.462891" y="115.804688"/>
  <use xlink:href="#glyph2-4" x="28.335938" y="115.804688"/>
  <use xlink:href="#glyph2-2" x="37.222656" y="115.804688"/>
  <use xlink:href="#glyph2-1" x="45.835938" y="115.804688"/>
  <use xlink:href="#glyph2-5" x="51.591797" y="115.804688"/>
  <use xlink:href="#glyph2-6" x="56.643555" y="115.804688"/>
  <use xlink:href="#glyph2-7" x="64.34082" y="115.804688"/>
  <use xlink:href="#glyph2-8" x="72.90625" y="115.804688"/>
  <use xlink:href="#glyph2-8" x="86.543945" y="115.804688"/>
  <use xlink:href="#glyph2-2" x="100.181641" y="115.804688"/>
  <use xlink:href="#glyph2-3" x="108.794922" y="115.804688"/>
  <use xlink:href="#glyph2-9" x="117.667969" y="115.804688"/>
  <use xlink:href="#glyph2-5" x="123.157227" y="115.804688"/>
  <use xlink:href="#glyph2-7" x="128.208984" y="115.804688"/>
  <use xlink:href="#glyph2-10" x="136.774414" y="115.804688"/>
  <use xlink:href="#glyph2-10" x="141.703125" y="115.804688"/>
  <use xlink:href="#glyph2-11" x="146.631836" y="115.804688"/>
  <use xlink:href="#glyph2-2" x="153.925781" y="115.804688"/>
  <use xlink:href="#glyph2-9" x="162.539062" y="115.804688"/>
  <use xlink:href="#glyph2-12" x="168.02832" y="115.804688"/>
  <use xlink:href="#glyph2-13" x="179.758789" y="115.804688"/>
  <use xlink:href="#glyph2-14" x="188.666016" y="115.804688"/>
</g>
</g>
</svg>
