<?xml version="1.0" encoding="UTF-8"?>
<svg xmlns="http://www.w3.org/2000/svg" xmlns:xlink="http://www.w3.org/1999/xlink" width="523pt" height="130pt" viewBox="0 0 523 130" version="1.1">
<defs>
<g>
<symbol overflow="visible" id="glyph0-0">
<path style="stroke:none;" d="M 0.78125 2.75 L 0.78125 -11 L 8.578125 -11 L 8.578125 2.75 Z M 1.65625 1.890625 L 7.703125 1.890625 L 7.703125 -10.125 L 1.65625 -10.125 Z "/>
</symbol>
<symbol overflow="visible" id="glyph0-1">
<path style="stroke:none;" d="M 1.53125 -11.375 L 3.59375 -11.375 L 8.640625 -1.859375 L 8.640625 -11.375 L 10.140625 -11.375 L 10.140625 0 L 8.0625 0 L 3.015625 -9.515625 L 3.015625 0 L 1.53125 0 Z "/>
</symbol>
<symbol overflow="visible" id="glyph0-2">
<path style="stroke:none;" d="M 1.53125 -11.375 L 3.0625 -11.375 L 3.0625 -6.703125 L 8.65625 -6.703125 L 8.65625 -11.375 L 10.203125 -11.375 L 10.203125 0 L 8.65625 0 L 8.65625 -5.40625 L 3.0625 -5.40625 L 3.0625 0 L 1.53125 0 Z "/>
</symbol>
<symbol overflow="visible" id="glyph0-3">
<path style="stroke:none;" d="M 6.140625 -10.328125 C 5.023438 -10.328125 4.140625 -9.910156 3.484375 -9.078125 C 2.828125 -8.242188 2.5 -7.109375 2.5 -5.671875 C 2.5 -4.242188 2.828125 -3.113281 3.484375 -2.28125 C 4.140625 -1.445312 5.023438 -1.03125 6.140625 -1.03125 C 7.253906 -1.03125 8.140625 -1.445312 8.796875 -2.28125 C 9.453125 -3.113281 9.78125 -4.242188 9.78125 -5.671875 C 9.78125 -7.109375 9.453125 -8.242188 8.796875 -9.078125 C 8.140625 -9.910156 7.253906 -10.328125 6.140625 -10.328125 Z M 6.140625 -11.578125 C 7.734375 -11.578125 9.003906 -11.039062 9.953125 -9.96875 C 10.910156 -8.90625 11.390625 -7.472656 11.390625 -5.671875 C 11.390625 -3.878906 10.910156 -2.445312 9.953125 -1.375 C 9.003906 -0.3125 7.734375 0.21875 6.140625 0.21875 C 4.546875 0.21875 3.269531 -0.3125 2.3125 -1.375 C 1.351562 -2.445312 0.875 -3.878906 0.875 -5.671875 C 0.875 -7.472656 1.351562 -8.90625 2.3125 -9.96875 C 3.269531 -11.039062 4.546875 -11.578125 6.140625 -11.578125 Z "/>
</symbol>
<symbol overflow="visible" id="glyph1-0">
<path style="stroke:none;" d="M 0.515625 1.84375 L 0.515625 -7.34375 L 5.71875 -7.34375 L 5.71875 1.84375 Z M 1.109375 1.265625 L 5.140625 1.265625 L 5.140625 -6.75 L 1.109375 -6.75 Z "/>
</symbol>
<symbol overflow="visible" id="glyph1-1">
<path style="stroke:none;" d="M 2 -0.859375 L 5.578125 -0.859375 L 5.578125 0 L 0.765625 0 L 0.765625 -0.859375 C 1.148438 -1.265625 1.675781 -1.804688 2.34375 -2.484375 C 3.019531 -3.160156 3.445312 -3.597656 3.625 -3.796875 C 3.945312 -4.171875 4.171875 -4.484375 4.296875 -4.734375 C 4.429688 -4.992188 4.5 -5.25 4.5 -5.5 C 4.5 -5.894531 4.359375 -6.21875 4.078125 -6.46875 C 3.796875 -6.726562 3.429688 -6.859375 2.984375 -6.859375 C 2.660156 -6.859375 2.316406 -6.800781 1.953125 -6.6875 C 1.597656 -6.582031 1.21875 -6.414062 0.8125 -6.1875 L 0.8125 -7.21875 C 1.226562 -7.382812 1.613281 -7.507812 1.96875 -7.59375 C 2.332031 -7.675781 2.660156 -7.71875 2.953125 -7.71875 C 3.742188 -7.71875 4.367188 -7.519531 4.828125 -7.125 C 5.296875 -6.738281 5.53125 -6.21875 5.53125 -5.5625 C 5.53125 -5.25 5.472656 -4.953125 5.359375 -4.671875 C 5.242188 -4.390625 5.03125 -4.0625 4.71875 -3.6875 C 4.632812 -3.582031 4.363281 -3.296875 3.90625 -2.828125 C 3.457031 -2.359375 2.820312 -1.703125 2 -0.859375 Z "/>
</symbol>
<symbol overflow="visible" id="glyph2-0">
<path style="stroke:none;" d="M 1 3.53125 L 1 -14.109375 L 11 -14.109375 L 11 3.53125 Z M 2.125 2.421875 L 9.890625 2.421875 L 9.890625 -12.984375 L 2.125 -12.984375 Z "/>
</symbol>
<symbol overflow="visible" id="glyph2-1">
<path style="stroke:none;" d="M 6.84375 -12.640625 L 4.15625 -5.375 L 9.515625 -5.375 Z M 5.71875 -14.578125 L 7.953125 -14.578125 L 13.515625 0 L 11.46875 0 L 10.140625 -3.734375 L 3.5625 -3.734375 L 2.234375 0 L 0.15625 0 Z "/>
</symbol>
<symbol overflow="visible" id="glyph2-2">
<path style="stroke:none;" d="M 2.484375 -1.65625 L 5.703125 -1.65625 L 5.703125 -12.78125 L 2.203125 -12.078125 L 2.203125 -13.875 L 5.6875 -14.578125 L 7.65625 -14.578125 L 7.65625 -1.65625 L 10.875 -1.65625 L 10.875 0 L 2.484375 0 Z "/>
</symbol>
<symbol overflow="visible" id="glyph3-0">
<path style="stroke:none;" d="M 0.703125 2.46875 L 0.703125 -9.875 L 7.703125 -9.875 L 7.703125 2.46875 Z M 1.484375 1.703125 L 6.921875 1.703125 L 6.921875 -9.078125 L 1.484375 -9.078125 Z "/>
</symbol>
<symbol overflow="visible" id="glyph3-1">
<path style="stroke:none;" d="M 1.375 -10.203125 L 2.75 -10.203125 L 2.75 0 L 1.375 0 Z "/>
</symbol>
<symbol overflow="visible" id="glyph3-2">
<path style="stroke:none;" d="M 7.6875 -4.625 L 7.6875 0 L 6.421875 0 L 6.421875 -4.578125 C 6.421875 -5.304688 6.28125 -5.847656 6 -6.203125 C 5.71875 -6.566406 5.296875 -6.75 4.734375 -6.75 C 4.054688 -6.75 3.519531 -6.53125 3.125 -6.09375 C 2.726562 -5.664062 2.53125 -5.078125 2.53125 -4.328125 L 2.53125 0 L 1.265625 0 L 1.265625 -7.65625 L 2.53125 -7.65625 L 2.53125 -6.46875 C 2.832031 -6.925781 3.1875 -7.269531 3.59375 -7.5 C 4.007812 -7.726562 4.484375 -7.84375 5.015625 -7.84375 C 5.890625 -7.84375 6.550781 -7.566406 7 -7.015625 C 7.457031 -6.472656 7.6875 -5.675781 7.6875 -4.625 Z "/>
</symbol>
<symbol overflow="visible" id="glyph3-3">
<path style="stroke:none;" d="M 2.53125 -1.15625 L 2.53125 2.90625 L 1.265625 2.90625 L 1.265625 -7.65625 L 2.53125 -7.65625 L 2.53125 -6.5 C 2.800781 -6.945312 3.132812 -7.28125 3.53125 -7.5 C 3.9375 -7.726562 4.421875 -7.84375 4.984375 -7.84375 C 5.910156 -7.84375 6.664062 -7.472656 7.25 -6.734375 C 7.832031 -5.992188 8.125 -5.023438 8.125 -3.828125 C 8.125 -2.617188 7.832031 -1.644531 7.25 -0.90625 C 6.664062 -0.164062 5.910156 0.203125 4.984375 0.203125 C 4.421875 0.203125 3.9375 0.09375 3.53125 -0.125 C 3.132812 -0.351562 2.800781 -0.695312 2.53125 -1.15625 Z M 6.8125 -3.828125 C 6.8125 -4.742188 6.617188 -5.460938 6.234375 -5.984375 C 5.859375 -6.515625 5.335938 -6.78125 4.671875 -6.78125 C 4.003906 -6.78125 3.476562 -6.515625 3.09375 -5.984375 C 2.71875 -5.460938 2.53125 -4.742188 2.53125 -3.828125 C 2.53125 -2.898438 2.71875 -2.171875 3.09375 -1.640625 C 3.476562 -1.117188 4.003906 -0.859375 4.671875 -0.859375 C 5.335938 -0.859375 5.859375 -1.117188 6.234375 -1.640625 C 6.617188 -2.171875 6.8125 -2.898438 6.8125 -3.828125 Z "/>
</symbol>
<symbol overflow="visible" id="glyph3-4">
<path style="stroke:none;" d="M 1.1875 -3.015625 L 1.1875 -7.65625 L 2.453125 -7.65625 L 2.453125 -3.0625 C 2.453125 -2.34375 2.59375 -1.800781 2.875 -1.4375 C 3.15625 -1.070312 3.578125 -0.890625 4.140625 -0.890625 C 4.816406 -0.890625 5.351562 -1.101562 5.75 -1.53125 C 6.144531 -1.96875 6.34375 -2.5625 6.34375 -3.3125 L 6.34375 -7.65625 L 7.609375 -7.65625 L 7.609375 0 L 6.34375 0 L 6.34375 -1.171875 C 6.039062 -0.710938 5.6875 -0.367188 5.28125 -0.140625 C 4.875 0.0859375 4.40625 0.203125 3.875 0.203125 C 3 0.203125 2.332031 -0.0664062 1.875 -0.609375 C 1.414062 -1.160156 1.1875 -1.960938 1.1875 -3.015625 Z M 4.359375 -7.84375 Z "/>
</symbol>
<symbol overflow="visible" id="glyph3-5">
<path style="stroke:none;" d="M 2.5625 -9.828125 L 2.5625 -7.65625 L 5.15625 -7.65625 L 5.15625 -6.671875 L 2.5625 -6.671875 L 2.5625 -2.515625 C 2.5625 -1.898438 2.644531 -1.5 2.8125 -1.3125 C 2.988281 -1.132812 3.335938 -1.046875 3.859375 -1.046875 L 5.15625 -1.046875 L 5.15625 0 L 3.859375 0 C 2.890625 0 2.21875 -0.179688 1.84375 -0.546875 C 1.476562 -0.910156 1.296875 -1.566406 1.296875 -2.515625 L 1.296875 -6.671875 L 0.375 -6.671875 L 0.375 -7.65625 L 1.296875 -7.65625 L 1.296875 -9.828125 Z "/>
</symbol>
<symbol overflow="visible" id="glyph3-6">
<path style="stroke:none;" d=""/>
</symbol>
<symbol overflow="visible" id="glyph3-7">
<path style="stroke:none;" d="M 7.28125 -6.1875 C 7.59375 -6.75 7.96875 -7.164062 8.40625 -7.4375 C 8.84375 -7.707031 9.359375 -7.84375 9.953125 -7.84375 C 10.753906 -7.84375 11.367188 -7.5625 11.796875 -7 C 12.234375 -6.445312 12.453125 -5.65625 12.453125 -4.625 L 12.453125 0 L 11.1875 0 L 11.1875 -4.578125 C 11.1875 -5.316406 11.054688 -5.863281 10.796875 -6.21875 C 10.535156 -6.570312 10.140625 -6.75 9.609375 -6.75 C 8.953125 -6.75 8.4375 -6.53125 8.0625 -6.09375 C 7.6875 -5.664062 7.5 -5.078125 7.5 -4.328125 L 7.5 0 L 6.234375 0 L 6.234375 -4.578125 C 6.234375 -5.316406 6.101562 -5.863281 5.84375 -6.21875 C 5.582031 -6.570312 5.179688 -6.75 4.640625 -6.75 C 3.992188 -6.75 3.476562 -6.53125 3.09375 -6.09375 C 2.71875 -5.65625 2.53125 -5.066406 2.53125 -4.328125 L 2.53125 0 L 1.265625 0 L 1.265625 -7.65625 L 2.53125 -7.65625 L 2.53125 -6.46875 C 2.820312 -6.9375 3.164062 -7.28125 3.5625 -7.5 C 3.96875 -7.726562 4.445312 -7.84375 5 -7.84375 C 5.550781 -7.84375 6.019531 -7.703125 6.40625 -7.421875 C 6.800781 -7.140625 7.09375 -6.726562 7.28125 -6.1875 Z "/>
</symbol>
<symbol overflow="visible" id="glyph3-8">
<path style="stroke:none;" d="M 4.28125 -6.78125 C 3.613281 -6.78125 3.082031 -6.515625 2.6875 -5.984375 C 2.289062 -5.460938 2.09375 -4.742188 2.09375 -3.828125 C 2.09375 -2.910156 2.285156 -2.1875 2.671875 -1.65625 C 3.066406 -1.132812 3.601562 -0.875 4.28125 -0.875 C 4.957031 -0.875 5.488281 -1.132812 5.875 -1.65625 C 6.269531 -2.1875 6.46875 -2.910156 6.46875 -3.828125 C 6.46875 -4.734375 6.269531 -5.453125 5.875 -5.984375 C 5.488281 -6.515625 4.957031 -6.78125 4.28125 -6.78125 Z M 4.28125 -7.84375 C 5.375 -7.84375 6.234375 -7.484375 6.859375 -6.765625 C 7.484375 -6.054688 7.796875 -5.078125 7.796875 -3.828125 C 7.796875 -2.566406 7.484375 -1.578125 6.859375 -0.859375 C 6.234375 -0.148438 5.375 0.203125 4.28125 0.203125 C 3.1875 0.203125 2.328125 -0.148438 1.703125 -0.859375 C 1.078125 -1.578125 0.765625 -2.566406 0.765625 -3.828125 C 0.765625 -5.078125 1.078125 -6.054688 1.703125 -6.765625 C 2.328125 -7.484375 3.1875 -7.84375 4.28125 -7.84375 Z "/>
</symbol>
<symbol overflow="visible" id="glyph3-9">
<path style="stroke:none;" d="M 7.875 -4.140625 L 7.875 -3.53125 L 2.078125 -3.53125 C 2.140625 -2.664062 2.398438 -2.003906 2.859375 -1.546875 C 3.328125 -1.097656 3.976562 -0.875 4.8125 -0.875 C 5.300781 -0.875 5.769531 -0.929688 6.21875 -1.046875 C 6.675781 -1.160156 7.128906 -1.335938 7.578125 -1.578125 L 7.578125 -0.390625 C 7.117188 -0.203125 6.648438 -0.0546875 6.171875 0.046875 C 5.703125 0.148438 5.226562 0.203125 4.75 0.203125 C 3.519531 0.203125 2.546875 -0.148438 1.828125 -0.859375 C 1.117188 -1.578125 0.765625 -2.539062 0.765625 -3.75 C 0.765625 -5.007812 1.101562 -6.003906 1.78125 -6.734375 C 2.457031 -7.472656 3.375 -7.84375 4.53125 -7.84375 C 5.5625 -7.84375 6.375 -7.507812 6.96875 -6.84375 C 7.570312 -6.1875 7.875 -5.285156 7.875 -4.140625 Z M 6.609375 -4.515625 C 6.597656 -5.203125 6.40625 -5.75 6.03125 -6.15625 C 5.65625 -6.570312 5.160156 -6.78125 4.546875 -6.78125 C 3.835938 -6.78125 3.269531 -6.578125 2.84375 -6.171875 C 2.425781 -5.773438 2.1875 -5.21875 2.125 -4.5 Z "/>
</symbol>
<symbol overflow="visible" id="glyph3-10">
<path style="stroke:none;" d="M 5.75 -6.484375 C 5.613281 -6.566406 5.460938 -6.625 5.296875 -6.65625 C 5.128906 -6.695312 4.945312 -6.71875 4.75 -6.71875 C 4.03125 -6.71875 3.476562 -6.484375 3.09375 -6.015625 C 2.71875 -5.554688 2.53125 -4.894531 2.53125 -4.03125 L 2.53125 0 L 1.265625 0 L 1.265625 -7.65625 L 2.53125 -7.65625 L 2.53125 -6.46875 C 2.800781 -6.9375 3.144531 -7.28125 3.5625 -7.5 C 3.988281 -7.726562 4.503906 -7.84375 5.109375 -7.84375 C 5.203125 -7.84375 5.300781 -7.835938 5.40625 -7.828125 C 5.507812 -7.816406 5.625 -7.796875 5.75 -7.765625 Z "/>
</symbol>
<symbol overflow="visible" id="glyph3-11">
<path style="stroke:none;" d="M 6.203125 -7.4375 L 6.203125 -6.234375 C 5.847656 -6.421875 5.476562 -6.554688 5.09375 -6.640625 C 4.707031 -6.734375 4.3125 -6.78125 3.90625 -6.78125 C 3.28125 -6.78125 2.8125 -6.6875 2.5 -6.5 C 2.1875 -6.3125 2.03125 -6.023438 2.03125 -5.640625 C 2.03125 -5.347656 2.140625 -5.117188 2.359375 -4.953125 C 2.585938 -4.785156 3.039062 -4.628906 3.71875 -4.484375 L 4.140625 -4.375 C 5.035156 -4.1875 5.671875 -3.914062 6.046875 -3.5625 C 6.421875 -3.21875 6.609375 -2.734375 6.609375 -2.109375 C 6.609375 -1.398438 6.328125 -0.835938 5.765625 -0.421875 C 5.203125 -0.00390625 4.429688 0.203125 3.453125 0.203125 C 3.035156 0.203125 2.601562 0.160156 2.15625 0.078125 C 1.71875 -0.00390625 1.253906 -0.125 0.765625 -0.28125 L 0.765625 -1.578125 C 1.222656 -1.335938 1.675781 -1.15625 2.125 -1.03125 C 2.582031 -0.914062 3.03125 -0.859375 3.46875 -0.859375 C 4.0625 -0.859375 4.515625 -0.957031 4.828125 -1.15625 C 5.148438 -1.363281 5.3125 -1.648438 5.3125 -2.015625 C 5.3125 -2.359375 5.195312 -2.617188 4.96875 -2.796875 C 4.738281 -2.984375 4.234375 -3.160156 3.453125 -3.328125 L 3.015625 -3.4375 C 2.242188 -3.59375 1.679688 -3.84375 1.328125 -4.1875 C 0.984375 -4.53125 0.8125 -4.992188 0.8125 -5.578125 C 0.8125 -6.304688 1.066406 -6.863281 1.578125 -7.25 C 2.085938 -7.644531 2.8125 -7.84375 3.75 -7.84375 C 4.21875 -7.84375 4.65625 -7.804688 5.0625 -7.734375 C 5.476562 -7.671875 5.859375 -7.570312 6.203125 -7.4375 Z "/>
</symbol>
<symbol overflow="visible" id="glyph3-12">
<path style="stroke:none;" d="M 5.203125 -10.640625 L 5.203125 -9.59375 L 4 -9.59375 C 3.539062 -9.59375 3.222656 -9.5 3.046875 -9.3125 C 2.878906 -9.132812 2.796875 -8.804688 2.796875 -8.328125 L 2.796875 -7.65625 L 4.859375 -7.65625 L 4.859375 -6.671875 L 2.796875 -6.671875 L 2.796875 0 L 1.53125 0 L 1.53125 -6.671875 L 0.328125 -6.671875 L 0.328125 -7.65625 L 1.53125 -7.65625 L 1.53125 -8.1875 C 1.53125 -9.039062 1.726562 -9.660156 2.125 -10.046875 C 2.519531 -10.441406 3.144531 -10.640625 4 -10.640625 Z "/>
</symbol>
<symbol overflow="visible" id="glyph3-13">
<path style="stroke:none;" d="M 4.796875 -3.84375 C 3.785156 -3.84375 3.082031 -3.726562 2.6875 -3.5 C 2.289062 -3.269531 2.09375 -2.875 2.09375 -2.3125 C 2.09375 -1.863281 2.238281 -1.507812 2.53125 -1.25 C 2.832031 -0.988281 3.234375 -0.859375 3.734375 -0.859375 C 4.429688 -0.859375 4.988281 -1.101562 5.40625 -1.59375 C 5.832031 -2.09375 6.046875 -2.75 6.046875 -3.5625 L 6.046875 -3.84375 Z M 7.3125 -4.375 L 7.3125 0 L 6.046875 0 L 6.046875 -1.15625 C 5.765625 -0.695312 5.40625 -0.351562 4.96875 -0.125 C 4.539062 0.09375 4.019531 0.203125 3.40625 0.203125 C 2.625 0.203125 2 -0.015625 1.53125 -0.453125 C 1.070312 -0.898438 0.84375 -1.492188 0.84375 -2.234375 C 0.84375 -3.085938 1.128906 -3.734375 1.703125 -4.171875 C 2.285156 -4.609375 3.144531 -4.828125 4.28125 -4.828125 L 6.046875 -4.828125 L 6.046875 -4.953125 C 6.046875 -5.535156 5.851562 -5.984375 5.46875 -6.296875 C 5.09375 -6.617188 4.5625 -6.78125 3.875 -6.78125 C 3.4375 -6.78125 3.007812 -6.722656 2.59375 -6.609375 C 2.175781 -6.503906 1.78125 -6.347656 1.40625 -6.140625 L 1.40625 -7.3125 C 1.863281 -7.488281 2.304688 -7.617188 2.734375 -7.703125 C 3.171875 -7.796875 3.59375 -7.84375 4 -7.84375 C 5.113281 -7.84375 5.941406 -7.554688 6.484375 -6.984375 C 7.035156 -6.410156 7.3125 -5.539062 7.3125 -4.375 Z "/>
</symbol>
<symbol overflow="visible" id="glyph3-14">
<path style="stroke:none;" d="M 6.828125 -7.359375 L 6.828125 -6.1875 C 6.472656 -6.382812 6.113281 -6.53125 5.75 -6.625 C 5.394531 -6.726562 5.035156 -6.78125 4.671875 -6.78125 C 3.859375 -6.78125 3.222656 -6.519531 2.765625 -6 C 2.316406 -5.476562 2.09375 -4.753906 2.09375 -3.828125 C 2.09375 -2.890625 2.316406 -2.160156 2.765625 -1.640625 C 3.222656 -1.128906 3.859375 -0.875 4.671875 -0.875 C 5.035156 -0.875 5.394531 -0.921875 5.75 -1.015625 C 6.113281 -1.109375 6.472656 -1.253906 6.828125 -1.453125 L 6.828125 -0.296875 C 6.472656 -0.128906 6.109375 -0.00390625 5.734375 0.078125 C 5.359375 0.160156 4.960938 0.203125 4.546875 0.203125 C 3.390625 0.203125 2.46875 -0.15625 1.78125 -0.875 C 1.101562 -1.601562 0.765625 -2.585938 0.765625 -3.828125 C 0.765625 -5.066406 1.109375 -6.046875 1.796875 -6.765625 C 2.484375 -7.484375 3.425781 -7.84375 4.625 -7.84375 C 5.007812 -7.84375 5.382812 -7.800781 5.75 -7.71875 C 6.125 -7.644531 6.484375 -7.523438 6.828125 -7.359375 Z "/>
</symbol>
<symbol overflow="visible" id="glyph3-15">
<path style="stroke:none;" d="M 1.734375 -1.15625 L 4 -1.15625 L 4 -8.953125 L 1.53125 -8.453125 L 1.53125 -9.71875 L 3.984375 -10.203125 L 5.359375 -10.203125 L 5.359375 -1.15625 L 7.609375 -1.15625 L 7.609375 0 L 1.734375 0 Z "/>
</symbol>
</g>
</defs>
<g id="surface2049">
<g style="fill:rgb(0%,0%,0%);fill-opacity:1;">
  <use xlink:href="#glyph0-1" x="16.703125" y="39.613281"/>
</g>
<g style="fill:rgb(0%,0%,0%);fill-opacity:1;">
  <use xlink:href="#glyph0-2" x="0.617188" y="39.613281"/>
</g>
<g style="fill:rgb(0%,0%,0%);fill-opacity:1;">
  <use xlink:href="#glyph1-1" x="11.355469" y="40.507812"/>
</g>
<g style="fill:rgb(0%,0%,0%);fill-opacity:1;">
  <use xlink:href="#glyph0-3" x="124.347656" y="84.605469"/>
</g>
<g style="fill:rgb(0%,0%,0%);fill-opacity:1;">
  <use xlink:href="#glyph0-2" x="135.503906" y="84.402344"/>
</g>
<g style="fill:rgb(0%,0%,0%);fill-opacity:1;">
  <use xlink:href="#glyph0-3" x="150.328125" y="39.605469"/>
</g>
<g style="fill:rgb(0%,0%,0%);fill-opacity:1;">
  <use xlink:href="#glyph0-3" x="83.363281" y="13.625"/>
</g>
<path style="fill:none;stroke-width:0.0433333;stroke-linecap:butt;stroke-linejoin:miter;stroke:rgb(0%,0%,0%);stroke-opacity:1;stroke-miterlimit:10;" d="M 0.331445 1.057361 L 0.876758 1.372335 " transform="matrix(30,0,0,30,22.537109,7.943233)"/>
<path style="fill:none;stroke-width:0.0433333;stroke-linecap:butt;stroke-linejoin:miter;stroke:rgb(0%,0%,0%);stroke-opacity:1;stroke-miterlimit:10;" d="M 0.855143 1.372335 L 1.731966 0.866085 " transform="matrix(30,0,0,30,22.537109,7.943233)"/>
<path style="fill:none;stroke-width:0.0433333;stroke-linecap:butt;stroke-linejoin:miter;stroke:rgb(0%,0%,0%);stroke-opacity:1;stroke-miterlimit:10;" d="M 1.731966 0.866085 L 2.731966 0.866085 " transform="matrix(30,0,0,30,22.537109,7.943233)"/>
<path style="fill:none;stroke-width:0.0433333;stroke-linecap:butt;stroke-linejoin:miter;stroke:rgb(0%,0%,0%);stroke-opacity:1;stroke-miterlimit:10;" d="M 2.731966 0.866085 L 3.608919 1.372335 " transform="matrix(30,0,0,30,22.537109,7.943233)"/>
<path style="fill:none;stroke-width:0.0433333;stroke-linecap:butt;stroke-linejoin:miter;stroke:rgb(0%,0%,0%);stroke-opacity:1;stroke-miterlimit:10;" d="M 3.597982 1.353585 L 3.597982 2.026371 " transform="matrix(30,0,0,30,22.537109,7.943233)"/>
<path style="fill:none;stroke-width:0.0433333;stroke-linecap:butt;stroke-linejoin:miter;stroke:rgb(0%,0%,0%);stroke-opacity:1;stroke-miterlimit:10;" d="M 3.597982 1.491085 L 4.159961 1.166736 " transform="matrix(30,0,0,30,22.537109,7.943233)"/>
<path style="fill:none;stroke-width:0.0433333;stroke-linecap:butt;stroke-linejoin:miter;stroke:rgb(0%,0%,0%);stroke-opacity:1;stroke-miterlimit:10;" d="M 3.489648 1.303455 L 4.051628 0.979106 " transform="matrix(30,0,0,30,22.537109,7.943233)"/>
<path style="fill:none;stroke-width:0.0433333;stroke-linecap:butt;stroke-linejoin:miter;stroke:rgb(0%,0%,0%);stroke-opacity:1;stroke-miterlimit:10;" d="M 1.731966 0.866085 L 2.021159 0.365043 " transform="matrix(30,0,0,30,22.537109,7.943233)"/>
<path style="fill:none;stroke-width:0.0433333;stroke-linecap:butt;stroke-linejoin:miter;stroke:rgb(0%,0%,0%);stroke-opacity:1;stroke-miterlimit:10;" d="M 2.442773 0.365043 L 2.731966 0.866085 " transform="matrix(30,0,0,30,22.537109,7.943233)"/>
<g style="fill:rgb(0%,0%,0%);fill-opacity:1;">
  <use xlink:href="#glyph2-1" x="69.574219" y="104.402344"/>
  <use xlink:href="#glyph2-2" x="83.255859" y="104.402344"/>
</g>
<g style="fill:rgb(0%,0%,0%);fill-opacity:1;">
  <use xlink:href="#glyph3-1" x="153.34375" y="115.089844"/>
  <use xlink:href="#glyph3-2" x="157.472656" y="115.089844"/>
  <use xlink:href="#glyph3-3" x="166.345703" y="115.089844"/>
  <use xlink:href="#glyph3-4" x="175.232422" y="115.089844"/>
  <use xlink:href="#glyph3-5" x="184.105469" y="115.089844"/>
  <use xlink:href="#glyph3-6" x="189.594727" y="115.089844"/>
  <use xlink:href="#glyph3-7" x="194.044922" y="115.089844"/>
  <use xlink:href="#glyph3-8" x="207.682617" y="115.089844"/>
  <use xlink:href="#glyph3-2" x="216.248047" y="115.089844"/>
  <use xlink:href="#glyph3-8" x="225.121094" y="115.089844"/>
  <use xlink:href="#glyph3-7" x="233.686523" y="115.089844"/>
  <use xlink:href="#glyph3-9" x="247.324219" y="115.089844"/>
  <use xlink:href="#glyph3-10" x="255.9375" y="115.089844"/>
  <use xlink:href="#glyph3-11" x="261.693359" y="115.089844"/>
  <use xlink:href="#glyph3-6" x="268.987305" y="115.089844"/>
  <use xlink:href="#glyph3-12" x="273.4375" y="115.089844"/>
  <use xlink:href="#glyph3-8" x="278.366211" y="115.089844"/>
  <use xlink:href="#glyph3-10" x="286.931641" y="115.089844"/>
  <use xlink:href="#glyph3-6" x="292.6875" y="115.089844"/>
  <use xlink:href="#glyph3-10" x="297.137695" y="115.089844"/>
  <use xlink:href="#glyph3-9" x="302.893555" y="115.089844"/>
  <use xlink:href="#glyph3-13" x="311.506836" y="115.089844"/>
  <use xlink:href="#glyph3-14" x="320.085938" y="115.089844"/>
  <use xlink:href="#glyph3-5" x="327.783203" y="115.089844"/>
  <use xlink:href="#glyph3-13" x="333.272461" y="115.089844"/>
  <use xlink:href="#glyph3-2" x="341.851562" y="115.089844"/>
  <use xlink:href="#glyph3-5" x="350.724609" y="115.089844"/>
  <use xlink:href="#glyph3-6" x="356.213867" y="115.089844"/>
  <use xlink:href="#glyph3-15" x="360.664062" y="115.089844"/>
</g>
</g>
</svg>
