<?xml version="1.0" encoding="UTF-8"?>
<svg xmlns="http://www.w3.org/2000/svg" xmlns:xlink="http://www.w3.org/1999/xlink" width="237pt" height="45pt" viewBox="0 0 237 45" version="1.1">
<defs>
<g>
<symbol overflow="visible" id="glyph0-0">
<path style="stroke:none;" d="M 0.78125 2.75 L 0.78125 -11 L 8.578125 -11 L 8.578125 2.75 Z M 1.65625 1.890625 L 7.703125 1.890625 L 7.703125 -10.125 L 1.65625 -10.125 Z "/>
</symbol>
<symbol overflow="visible" id="glyph0-1">
<path style="stroke:none;" d="M 6.140625 -10.328125 C 5.023438 -10.328125 4.140625 -9.910156 3.484375 -9.078125 C 2.828125 -8.242188 2.5 -7.109375 2.5 -5.671875 C 2.5 -4.242188 2.828125 -3.113281 3.484375 -2.28125 C 4.140625 -1.445312 5.023438 -1.03125 6.140625 -1.03125 C 7.253906 -1.03125 8.140625 -1.445312 8.796875 -2.28125 C 9.453125 -3.113281 9.78125 -4.242188 9.78125 -5.671875 C 9.78125 -7.109375 9.453125 -8.242188 8.796875 -9.078125 C 8.140625 -9.910156 7.253906 -10.328125 6.140625 -10.328125 Z M 6.140625 -11.578125 C 7.734375 -11.578125 9.003906 -11.039062 9.953125 -9.96875 C 10.910156 -8.90625 11.390625 -7.472656 11.390625 -5.671875 C 11.390625 -3.878906 10.910156 -2.445312 9.953125 -1.375 C 9.003906 -0.3125 7.734375 0.21875 6.140625 0.21875 C 4.546875 0.21875 3.269531 -0.3125 2.3125 -1.375 C 1.351562 -2.445312 0.875 -3.878906 0.875 -5.671875 C 0.875 -7.472656 1.351562 -8.90625 2.3125 -9.96875 C 3.269531 -11.039062 4.546875 -11.578125 6.140625 -11.578125 Z "/>
</symbol>
<symbol overflow="visible" id="glyph0-2">
<path style="stroke:none;" d="M 1.53125 -11.375 L 3.59375 -11.375 L 8.640625 -1.859375 L 8.640625 -11.375 L 10.140625 -11.375 L 10.140625 0 L 8.0625 0 L 3.015625 -9.515625 L 3.015625 0 L 1.53125 0 Z "/>
</symbol>
<symbol overflow="visible" id="glyph0-3">
<path style="stroke:none;" d="M 1.53125 -11.375 L 3.0625 -11.375 L 3.0625 -6.703125 L 8.65625 -6.703125 L 8.65625 -11.375 L 10.203125 -11.375 L 10.203125 0 L 8.65625 0 L 8.65625 -5.40625 L 3.0625 -5.40625 L 3.0625 0 L 1.53125 0 Z "/>
</symbol>
<symbol overflow="visible" id="glyph1-0">
<path style="stroke:none;" d="M 0.390625 1.375 L 0.390625 -5.5 L 4.28125 -5.5 L 4.28125 1.375 Z M 0.828125 0.9375 L 3.859375 0.9375 L 3.859375 -5.0625 L 0.828125 -5.0625 Z "/>
</symbol>
<symbol overflow="visible" id="glyph1-1">
<path style="stroke:none;" d="M 2.484375 -5.171875 C 2.085938 -5.171875 1.785156 -4.976562 1.578125 -4.59375 C 1.378906 -4.207031 1.28125 -3.625 1.28125 -2.84375 C 1.28125 -2.0625 1.378906 -1.472656 1.578125 -1.078125 C 1.785156 -0.691406 2.085938 -0.5 2.484375 -0.5 C 2.878906 -0.5 3.175781 -0.691406 3.375 -1.078125 C 3.570312 -1.472656 3.671875 -2.0625 3.671875 -2.84375 C 3.671875 -3.625 3.570312 -4.207031 3.375 -4.59375 C 3.175781 -4.976562 2.878906 -5.171875 2.484375 -5.171875 Z M 2.484375 -5.78125 C 3.117188 -5.78125 3.601562 -5.53125 3.9375 -5.03125 C 4.269531 -4.53125 4.4375 -3.800781 4.4375 -2.84375 C 4.4375 -1.882812 4.269531 -1.148438 3.9375 -0.640625 C 3.601562 -0.140625 3.117188 0.109375 2.484375 0.109375 C 1.835938 0.109375 1.347656 -0.140625 1.015625 -0.640625 C 0.679688 -1.148438 0.515625 -1.882812 0.515625 -2.84375 C 0.515625 -3.800781 0.679688 -4.53125 1.015625 -5.03125 C 1.347656 -5.53125 1.835938 -5.78125 2.484375 -5.78125 Z "/>
</symbol>
<symbol overflow="visible" id="glyph1-2">
<path style="stroke:none;" d="M 0.96875 -0.640625 L 2.21875 -0.640625 L 2.21875 -4.984375 L 0.859375 -4.703125 L 0.859375 -5.40625 L 2.21875 -5.6875 L 2.984375 -5.6875 L 2.984375 -0.640625 L 4.234375 -0.640625 L 4.234375 0 L 0.96875 0 Z "/>
</symbol>
<symbol overflow="visible" id="glyph1-3">
<path style="stroke:none;" d="M 1.5 -0.640625 L 4.1875 -0.640625 L 4.1875 0 L 0.578125 0 L 0.578125 -0.640625 C 0.867188 -0.941406 1.265625 -1.347656 1.765625 -1.859375 C 2.265625 -2.367188 2.582031 -2.695312 2.71875 -2.84375 C 2.957031 -3.125 3.125 -3.359375 3.21875 -3.546875 C 3.320312 -3.742188 3.375 -3.929688 3.375 -4.109375 C 3.375 -4.410156 3.265625 -4.65625 3.046875 -4.84375 C 2.835938 -5.039062 2.566406 -5.140625 2.234375 -5.140625 C 1.992188 -5.140625 1.738281 -5.097656 1.46875 -5.015625 C 1.195312 -4.929688 0.910156 -4.804688 0.609375 -4.640625 L 0.609375 -5.40625 C 0.921875 -5.53125 1.207031 -5.625 1.46875 -5.6875 C 1.738281 -5.75 1.988281 -5.78125 2.21875 -5.78125 C 2.800781 -5.78125 3.269531 -5.632812 3.625 -5.34375 C 3.976562 -5.050781 4.15625 -4.660156 4.15625 -4.171875 C 4.15625 -3.929688 4.109375 -3.707031 4.015625 -3.5 C 3.929688 -3.289062 3.773438 -3.046875 3.546875 -2.765625 C 3.484375 -2.691406 3.28125 -2.476562 2.9375 -2.125 C 2.59375 -1.769531 2.113281 -1.273438 1.5 -0.640625 Z "/>
</symbol>
<symbol overflow="visible" id="glyph1-4">
<path style="stroke:none;" d="M 3.15625 -3.0625 C 3.53125 -2.988281 3.820312 -2.828125 4.03125 -2.578125 C 4.238281 -2.328125 4.34375 -2.019531 4.34375 -1.65625 C 4.34375 -1.09375 4.144531 -0.65625 3.75 -0.34375 C 3.363281 -0.0390625 2.816406 0.109375 2.109375 0.109375 C 1.867188 0.109375 1.625 0.0820312 1.375 0.03125 C 1.125 -0.0078125 0.863281 -0.078125 0.59375 -0.171875 L 0.59375 -0.90625 C 0.800781 -0.789062 1.03125 -0.695312 1.28125 -0.625 C 1.539062 -0.5625 1.8125 -0.53125 2.09375 -0.53125 C 2.570312 -0.53125 2.9375 -0.625 3.1875 -0.8125 C 3.445312 -1.007812 3.578125 -1.289062 3.578125 -1.65625 C 3.578125 -1.988281 3.457031 -2.25 3.21875 -2.4375 C 2.976562 -2.625 2.648438 -2.71875 2.234375 -2.71875 L 1.578125 -2.71875 L 1.578125 -3.359375 L 2.265625 -3.359375 C 2.648438 -3.359375 2.941406 -3.429688 3.140625 -3.578125 C 3.335938 -3.734375 3.4375 -3.953125 3.4375 -4.234375 C 3.4375 -4.523438 3.332031 -4.75 3.125 -4.90625 C 2.914062 -5.0625 2.617188 -5.140625 2.234375 -5.140625 C 2.023438 -5.140625 1.800781 -5.113281 1.5625 -5.0625 C 1.320312 -5.019531 1.054688 -4.953125 0.765625 -4.859375 L 0.765625 -5.546875 C 1.054688 -5.628906 1.328125 -5.6875 1.578125 -5.71875 C 1.835938 -5.757812 2.082031 -5.78125 2.3125 -5.78125 C 2.894531 -5.78125 3.351562 -5.644531 3.6875 -5.375 C 4.03125 -5.113281 4.203125 -4.757812 4.203125 -4.3125 C 4.203125 -4 4.109375 -3.734375 3.921875 -3.515625 C 3.742188 -3.296875 3.488281 -3.144531 3.15625 -3.0625 Z "/>
</symbol>
<symbol overflow="visible" id="glyph1-5">
<path style="stroke:none;" d="M 2.953125 -5.015625 L 1 -1.984375 L 2.953125 -1.984375 Z M 2.75 -5.6875 L 3.71875 -5.6875 L 3.71875 -1.984375 L 4.515625 -1.984375 L 4.515625 -1.34375 L 3.71875 -1.34375 L 3.71875 0 L 2.953125 0 L 2.953125 -1.34375 L 0.375 -1.34375 L 0.375 -2.078125 Z "/>
</symbol>
<symbol overflow="visible" id="glyph1-6">
<path style="stroke:none;" d="M 0.84375 -5.6875 L 3.859375 -5.6875 L 3.859375 -5.03125 L 1.546875 -5.03125 L 1.546875 -3.640625 C 1.660156 -3.679688 1.769531 -3.707031 1.875 -3.71875 C 1.988281 -3.738281 2.101562 -3.75 2.21875 -3.75 C 2.851562 -3.75 3.351562 -3.578125 3.71875 -3.234375 C 4.09375 -2.890625 4.28125 -2.421875 4.28125 -1.828125 C 4.28125 -1.210938 4.085938 -0.734375 3.703125 -0.390625 C 3.328125 -0.0546875 2.789062 0.109375 2.09375 0.109375 C 1.851562 0.109375 1.609375 0.0859375 1.359375 0.046875 C 1.117188 0.00390625 0.863281 -0.0546875 0.59375 -0.140625 L 0.59375 -0.90625 C 0.820312 -0.78125 1.054688 -0.6875 1.296875 -0.625 C 1.546875 -0.5625 1.804688 -0.53125 2.078125 -0.53125 C 2.515625 -0.53125 2.863281 -0.644531 3.125 -0.875 C 3.382812 -1.113281 3.515625 -1.429688 3.515625 -1.828125 C 3.515625 -2.222656 3.382812 -2.535156 3.125 -2.765625 C 2.863281 -2.992188 2.515625 -3.109375 2.078125 -3.109375 C 1.878906 -3.109375 1.675781 -3.082031 1.46875 -3.03125 C 1.257812 -2.988281 1.050781 -2.921875 0.84375 -2.828125 Z "/>
</symbol>
<symbol overflow="visible" id="glyph1-7">
<path style="stroke:none;" d="M 2.578125 -3.15625 C 2.234375 -3.15625 1.957031 -3.035156 1.75 -2.796875 C 1.550781 -2.554688 1.453125 -2.234375 1.453125 -1.828125 C 1.453125 -1.410156 1.550781 -1.082031 1.75 -0.84375 C 1.957031 -0.613281 2.234375 -0.5 2.578125 -0.5 C 2.921875 -0.5 3.191406 -0.613281 3.390625 -0.84375 C 3.597656 -1.082031 3.703125 -1.410156 3.703125 -1.828125 C 3.703125 -2.234375 3.597656 -2.554688 3.390625 -2.796875 C 3.191406 -3.035156 2.921875 -3.15625 2.578125 -3.15625 Z M 4.09375 -5.5625 L 4.09375 -4.859375 C 3.90625 -4.953125 3.710938 -5.019531 3.515625 -5.0625 C 3.316406 -5.113281 3.125 -5.140625 2.9375 -5.140625 C 2.425781 -5.140625 2.035156 -4.96875 1.765625 -4.625 C 1.492188 -4.28125 1.34375 -3.765625 1.3125 -3.078125 C 1.457031 -3.296875 1.644531 -3.460938 1.875 -3.578125 C 2.101562 -3.691406 2.351562 -3.75 2.625 -3.75 C 3.1875 -3.75 3.632812 -3.578125 3.96875 -3.234375 C 4.300781 -2.890625 4.46875 -2.421875 4.46875 -1.828125 C 4.46875 -1.242188 4.296875 -0.773438 3.953125 -0.421875 C 3.609375 -0.0664062 3.148438 0.109375 2.578125 0.109375 C 1.921875 0.109375 1.414062 -0.140625 1.0625 -0.640625 C 0.71875 -1.148438 0.546875 -1.882812 0.546875 -2.84375 C 0.546875 -3.738281 0.757812 -4.453125 1.1875 -4.984375 C 1.613281 -5.515625 2.1875 -5.78125 2.90625 -5.78125 C 3.09375 -5.78125 3.285156 -5.757812 3.484375 -5.71875 C 3.679688 -5.6875 3.882812 -5.632812 4.09375 -5.5625 Z "/>
</symbol>
<symbol overflow="visible" id="glyph1-8">
<path style="stroke:none;" d="M 0.640625 -5.6875 L 4.296875 -5.6875 L 4.296875 -5.359375 L 2.234375 0 L 1.421875 0 L 3.375 -5.03125 L 0.640625 -5.03125 Z "/>
</symbol>
<symbol overflow="visible" id="glyph2-0">
<path style="stroke:none;" d="M 0.515625 1.84375 L 0.515625 -7.34375 L 5.71875 -7.34375 L 5.71875 1.84375 Z M 1.109375 1.265625 L 5.140625 1.265625 L 5.140625 -6.75 L 1.109375 -6.75 Z "/>
</symbol>
<symbol overflow="visible" id="glyph2-1">
<path style="stroke:none;" d="M 2 -0.859375 L 5.578125 -0.859375 L 5.578125 0 L 0.765625 0 L 0.765625 -0.859375 C 1.148438 -1.265625 1.675781 -1.804688 2.34375 -2.484375 C 3.019531 -3.160156 3.445312 -3.597656 3.625 -3.796875 C 3.945312 -4.171875 4.171875 -4.484375 4.296875 -4.734375 C 4.429688 -4.992188 4.5 -5.25 4.5 -5.5 C 4.5 -5.894531 4.359375 -6.21875 4.078125 -6.46875 C 3.796875 -6.726562 3.429688 -6.859375 2.984375 -6.859375 C 2.660156 -6.859375 2.316406 -6.800781 1.953125 -6.6875 C 1.597656 -6.582031 1.21875 -6.414062 0.8125 -6.1875 L 0.8125 -7.21875 C 1.226562 -7.382812 1.613281 -7.507812 1.96875 -7.59375 C 2.332031 -7.675781 2.660156 -7.71875 2.953125 -7.71875 C 3.742188 -7.71875 4.367188 -7.519531 4.828125 -7.125 C 5.296875 -6.738281 5.53125 -6.21875 5.53125 -5.5625 C 5.53125 -5.25 5.472656 -4.953125 5.359375 -4.671875 C 5.242188 -4.390625 5.03125 -4.0625 4.71875 -3.6875 C 4.632812 -3.582031 4.363281 -3.296875 3.90625 -2.828125 C 3.457031 -2.359375 2.820312 -1.703125 2 -0.859375 Z "/>
</symbol>
<symbol overflow="visible" id="glyph2-2">
<path style="stroke:none;" d="M 4.71875 -4.828125 L 4.71875 -7.90625 L 5.65625 -7.90625 L 5.65625 0 L 4.71875 0 L 4.71875 -0.859375 C 4.53125 -0.515625 4.285156 -0.257812 3.984375 -0.09375 C 3.679688 0.0625 3.320312 0.140625 2.90625 0.140625 C 2.21875 0.140625 1.65625 -0.128906 1.21875 -0.671875 C 0.789062 -1.222656 0.578125 -1.945312 0.578125 -2.84375 C 0.578125 -3.738281 0.789062 -4.457031 1.21875 -5 C 1.65625 -5.550781 2.21875 -5.828125 2.90625 -5.828125 C 3.320312 -5.828125 3.679688 -5.742188 3.984375 -5.578125 C 4.285156 -5.410156 4.53125 -5.160156 4.71875 -4.828125 Z M 1.546875 -2.84375 C 1.546875 -2.15625 1.6875 -1.613281 1.96875 -1.21875 C 2.25 -0.832031 2.632812 -0.640625 3.125 -0.640625 C 3.625 -0.640625 4.015625 -0.832031 4.296875 -1.21875 C 4.578125 -1.613281 4.71875 -2.15625 4.71875 -2.84375 C 4.71875 -3.53125 4.578125 -4.066406 4.296875 -4.453125 C 4.015625 -4.847656 3.625 -5.046875 3.125 -5.046875 C 2.632812 -5.046875 2.25 -4.847656 1.96875 -4.453125 C 1.6875 -4.066406 1.546875 -3.53125 1.546875 -2.84375 Z "/>
</symbol>
<symbol overflow="visible" id="glyph2-3">
<path style="stroke:none;" d="M 3.5625 -2.859375 C 2.8125 -2.859375 2.289062 -2.769531 2 -2.59375 C 1.707031 -2.425781 1.5625 -2.132812 1.5625 -1.71875 C 1.5625 -1.382812 1.671875 -1.117188 1.890625 -0.921875 C 2.109375 -0.734375 2.40625 -0.640625 2.78125 -0.640625 C 3.300781 -0.640625 3.71875 -0.820312 4.03125 -1.1875 C 4.34375 -1.550781 4.5 -2.039062 4.5 -2.65625 L 4.5 -2.859375 Z M 5.4375 -3.25 L 5.4375 0 L 4.5 0 L 4.5 -0.859375 C 4.28125 -0.515625 4.007812 -0.257812 3.6875 -0.09375 C 3.375 0.0625 2.988281 0.140625 2.53125 0.140625 C 1.945312 0.140625 1.484375 -0.0195312 1.140625 -0.34375 C 0.796875 -0.664062 0.625 -1.101562 0.625 -1.65625 C 0.625 -2.289062 0.835938 -2.769531 1.265625 -3.09375 C 1.691406 -3.425781 2.332031 -3.59375 3.1875 -3.59375 L 4.5 -3.59375 L 4.5 -3.6875 C 4.5 -4.113281 4.351562 -4.441406 4.0625 -4.671875 C 3.78125 -4.910156 3.382812 -5.03125 2.875 -5.03125 C 2.550781 -5.03125 2.234375 -4.988281 1.921875 -4.90625 C 1.617188 -4.832031 1.328125 -4.71875 1.046875 -4.5625 L 1.046875 -5.4375 C 1.390625 -5.5625 1.71875 -5.65625 2.03125 -5.71875 C 2.351562 -5.789062 2.671875 -5.828125 2.984375 -5.828125 C 3.804688 -5.828125 4.421875 -5.613281 4.828125 -5.1875 C 5.234375 -4.757812 5.4375 -4.113281 5.4375 -3.25 Z "/>
</symbol>
<symbol overflow="visible" id="glyph2-4">
<path style="stroke:none;" d="M 1.90625 -7.3125 L 1.90625 -5.6875 L 3.828125 -5.6875 L 3.828125 -4.96875 L 1.90625 -4.96875 L 1.90625 -1.875 C 1.90625 -1.40625 1.96875 -1.101562 2.09375 -0.96875 C 2.21875 -0.84375 2.476562 -0.78125 2.875 -0.78125 L 3.828125 -0.78125 L 3.828125 0 L 2.875 0 C 2.144531 0 1.644531 -0.132812 1.375 -0.40625 C 1.101562 -0.675781 0.96875 -1.164062 0.96875 -1.875 L 0.96875 -4.96875 L 0.28125 -4.96875 L 0.28125 -5.6875 L 0.96875 -5.6875 L 0.96875 -7.3125 Z "/>
</symbol>
<symbol overflow="visible" id="glyph2-5">
<path style="stroke:none;" d="M 0.3125 -5.6875 L 1.296875 -5.6875 L 3.078125 -0.921875 L 4.859375 -5.6875 L 5.84375 -5.6875 L 3.71875 0 L 2.4375 0 Z "/>
</symbol>
<symbol overflow="visible" id="glyph2-6">
<path style="stroke:none;" d="M 0.984375 -7.90625 L 1.921875 -7.90625 L 1.921875 0 L 0.984375 0 Z "/>
</symbol>
<symbol overflow="visible" id="glyph2-7">
<path style="stroke:none;" d="M 0.890625 -2.25 L 0.890625 -5.6875 L 1.8125 -5.6875 L 1.8125 -2.28125 C 1.8125 -1.738281 1.914062 -1.332031 2.125 -1.0625 C 2.34375 -0.800781 2.660156 -0.671875 3.078125 -0.671875 C 3.585938 -0.671875 3.988281 -0.828125 4.28125 -1.140625 C 4.570312 -1.460938 4.71875 -1.90625 4.71875 -2.46875 L 4.71875 -5.6875 L 5.65625 -5.6875 L 5.65625 0 L 4.71875 0 L 4.71875 -0.875 C 4.488281 -0.53125 4.222656 -0.273438 3.921875 -0.109375 C 3.617188 0.0546875 3.269531 0.140625 2.875 0.140625 C 2.226562 0.140625 1.734375 -0.0625 1.390625 -0.46875 C 1.054688 -0.875 0.890625 -1.46875 0.890625 -2.25 Z M 3.234375 -5.828125 Z "/>
</symbol>
<symbol overflow="visible" id="glyph2-8">
<path style="stroke:none;" d="M 5.84375 -3.078125 L 5.84375 -2.625 L 1.546875 -2.625 C 1.585938 -1.976562 1.78125 -1.484375 2.125 -1.140625 C 2.476562 -0.804688 2.960938 -0.640625 3.578125 -0.640625 C 3.941406 -0.640625 4.289062 -0.679688 4.625 -0.765625 C 4.957031 -0.859375 5.289062 -0.992188 5.625 -1.171875 L 5.625 -0.296875 C 5.289062 -0.148438 4.945312 -0.0390625 4.59375 0.03125 C 4.238281 0.101562 3.882812 0.140625 3.53125 0.140625 C 2.625 0.140625 1.90625 -0.117188 1.375 -0.640625 C 0.84375 -1.171875 0.578125 -1.890625 0.578125 -2.796875 C 0.578125 -3.722656 0.828125 -4.457031 1.328125 -5 C 1.828125 -5.550781 2.503906 -5.828125 3.359375 -5.828125 C 4.128906 -5.828125 4.734375 -5.578125 5.171875 -5.078125 C 5.617188 -4.585938 5.84375 -3.921875 5.84375 -3.078125 Z M 4.90625 -3.359375 C 4.90625 -3.867188 4.765625 -4.273438 4.484375 -4.578125 C 4.203125 -4.878906 3.832031 -5.03125 3.375 -5.03125 C 2.851562 -5.03125 2.4375 -4.882812 2.125 -4.59375 C 1.8125 -4.300781 1.628906 -3.882812 1.578125 -3.34375 Z "/>
</symbol>
<symbol overflow="visible" id="glyph2-9">
<path style="stroke:none;" d="M 4.21875 -4.09375 C 4.707031 -3.988281 5.085938 -3.769531 5.359375 -3.4375 C 5.640625 -3.101562 5.78125 -2.691406 5.78125 -2.203125 C 5.78125 -1.453125 5.523438 -0.875 5.015625 -0.46875 C 4.503906 -0.0625 3.769531 0.140625 2.8125 0.140625 C 2.5 0.140625 2.171875 0.109375 1.828125 0.046875 C 1.492188 -0.015625 1.148438 -0.109375 0.796875 -0.234375 L 0.796875 -1.21875 C 1.078125 -1.050781 1.382812 -0.925781 1.71875 -0.84375 C 2.0625 -0.757812 2.421875 -0.71875 2.796875 -0.71875 C 3.429688 -0.71875 3.914062 -0.84375 4.25 -1.09375 C 4.59375 -1.351562 4.765625 -1.722656 4.765625 -2.203125 C 4.765625 -2.648438 4.609375 -3 4.296875 -3.25 C 3.984375 -3.507812 3.546875 -3.640625 2.984375 -3.640625 L 2.109375 -3.640625 L 2.109375 -4.46875 L 3.03125 -4.46875 C 3.53125 -4.46875 3.914062 -4.566406 4.1875 -4.765625 C 4.457031 -4.972656 4.59375 -5.269531 4.59375 -5.65625 C 4.59375 -6.039062 4.453125 -6.335938 4.171875 -6.546875 C 3.898438 -6.753906 3.503906 -6.859375 2.984375 -6.859375 C 2.703125 -6.859375 2.398438 -6.828125 2.078125 -6.765625 C 1.753906 -6.703125 1.398438 -6.609375 1.015625 -6.484375 L 1.015625 -7.390625 C 1.410156 -7.503906 1.773438 -7.585938 2.109375 -7.640625 C 2.453125 -7.691406 2.773438 -7.71875 3.078125 -7.71875 C 3.859375 -7.71875 4.472656 -7.539062 4.921875 -7.1875 C 5.378906 -6.832031 5.609375 -6.351562 5.609375 -5.75 C 5.609375 -5.332031 5.488281 -4.976562 5.25 -4.6875 C 5.007812 -4.40625 4.664062 -4.207031 4.21875 -4.09375 Z "/>
</symbol>
</g>
</defs>
<g id="surface3221">
<g style="fill:rgb(0%,0%,0%);fill-opacity:1;">
  <use xlink:href="#glyph0-1" x="1.164062" y="34.921875"/>
</g>
<g style="fill:rgb(0%,0%,100%);fill-opacity:1;">
  <use xlink:href="#glyph1-1" x="13.339844" y="35.023438"/>
</g>
<g style="fill:rgb(0%,0%,100%);fill-opacity:1;">
  <use xlink:href="#glyph1-2" x="28.101562" y="18.601562"/>
</g>
<g style="fill:rgb(0%,0%,100%);fill-opacity:1;">
  <use xlink:href="#glyph1-3" x="51.617187" y="32.132812"/>
</g>
<g style="fill:rgb(0%,0%,0%);fill-opacity:1;">
  <use xlink:href="#glyph0-1" x="71.214844" y="21.4375"/>
</g>
<g style="fill:rgb(0%,0%,100%);fill-opacity:1;">
  <use xlink:href="#glyph1-4" x="83.3125" y="21.539062"/>
</g>
<g style="fill:rgb(0%,0%,100%);fill-opacity:1;">
  <use xlink:href="#glyph1-5" x="98.253906" y="32.085938"/>
</g>
<g style="fill:rgb(0%,0%,100%);fill-opacity:1;">
  <use xlink:href="#glyph1-6" x="121.613281" y="18.546875"/>
</g>
<g style="fill:rgb(0%,0%,100%);fill-opacity:1;">
  <use xlink:href="#glyph1-7" x="144.894531" y="32.078125"/>
</g>
<g style="fill:rgb(0%,0%,0%);fill-opacity:1;">
  <use xlink:href="#glyph0-2" x="164.917969" y="21.445312"/>
</g>
<g style="fill:rgb(0%,0%,0%);fill-opacity:1;">
  <use xlink:href="#glyph0-3" x="174.828125" y="21.445312"/>
</g>
<g style="fill:rgb(0%,0%,0%);fill-opacity:1;">
  <use xlink:href="#glyph2-1" x="185.566406" y="22.339844"/>
</g>
<g style="fill:rgb(0%,0%,100%);fill-opacity:1;">
  <use xlink:href="#glyph1-8" x="193.101562" y="21.445312"/>
</g>
<path style="fill:none;stroke-width:0.0433333;stroke-linecap:butt;stroke-linejoin:miter;stroke:rgb(0%,0%,0%);stroke-opacity:1;stroke-miterlimit:10;" d="M 0.403711 0.216276 L 0.789258 -0.00625 " transform="matrix(30,0,0,30,7.294914,15.757812)"/>
<path style="fill:none;stroke-width:0.0433333;stroke-linecap:butt;stroke-linejoin:miter;stroke:rgb(0%,0%,0%);stroke-opacity:1;stroke-miterlimit:10;" d="M 0.512045 0.403906 L 0.789258 0.24388 " transform="matrix(30,0,0,30,7.294914,15.757812)"/>
<path style="fill:none;stroke-width:0.0433333;stroke-linecap:butt;stroke-linejoin:miter;stroke:rgb(0%,0%,0%);stroke-opacity:1;stroke-miterlimit:10;" d="M 1.545899 0.455599 L 1.976758 0.206901 " transform="matrix(30,0,0,30,7.294914,15.757812)"/>
<path style="fill:none;stroke-width:0.0433333;stroke-linecap:butt;stroke-linejoin:miter;stroke:rgb(0%,0%,0%);stroke-opacity:1;stroke-miterlimit:10;" d="M 2.819466 0.279688 L 3.124284 0.455599 " transform="matrix(30,0,0,30,7.294914,15.757812)"/>
<path style="fill:none;stroke-width:0.0433333;stroke-linecap:butt;stroke-linejoin:miter;stroke:rgb(0%,0%,0%);stroke-opacity:1;stroke-miterlimit:10;" d="M 3.881055 -0.00625 L 4.681055 0.455599 " transform="matrix(30,0,0,30,7.294914,15.757812)"/>
<path style="fill:none;stroke-width:0.0433333;stroke-linecap:butt;stroke-linejoin:miter;stroke:rgb(0%,0%,0%);stroke-opacity:1;stroke-miterlimit:10;" d="M 4.65944 0.455599 L 5.117253 0.191276 " transform="matrix(30,0,0,30,7.294914,15.757812)"/>
<path style="fill:none;stroke-width:0.0433333;stroke-linecap:butt;stroke-linejoin:miter;stroke:rgb(0%,0%,0%);stroke-opacity:1;stroke-miterlimit:10;" d="M 0.767513 -0.00625 L 1.567643 0.455599 " transform="matrix(30,0,0,30,7.294914,15.757812)"/>
<path style="fill:none;stroke-width:0.0433333;stroke-linecap:butt;stroke-linejoin:miter;stroke:rgb(0%,0%,0%);stroke-opacity:1;stroke-miterlimit:10;" d="M 3.90267 -0.00625 L 3.10267 0.455599 " transform="matrix(30,0,0,30,7.294914,15.757812)"/>
<g style="fill:rgb(0%,0%,0%);fill-opacity:1;">
  <use xlink:href="#glyph2-2" x="183.660156" y="10.652344"/>
  <use xlink:href="#glyph2-3" x="190.265686" y="10.652344"/>
  <use xlink:href="#glyph2-4" x="196.642563" y="10.652344"/>
  <use xlink:href="#glyph2-3" x="200.722748" y="10.652344"/>
  <use xlink:href="#glyph2-5" x="207.099625" y="10.652344"/>
  <use xlink:href="#glyph2-3" x="213.258011" y="10.652344"/>
  <use xlink:href="#glyph2-6" x="219.634888" y="10.652344"/>
  <use xlink:href="#glyph2-7" x="222.526077" y="10.652344"/>
  <use xlink:href="#glyph2-8" x="229.121445" y="10.652344"/>
</g>
<g style="fill:rgb(0%,0%,0%);fill-opacity:1;">
  <use xlink:href="#glyph2-9" x="114.683594" y="42.582031"/>
</g>
<path style="fill:none;stroke-width:0.0433333;stroke-linecap:butt;stroke-linejoin:miter;stroke:rgb(0%,0%,0%);stroke-opacity:1;stroke-miterlimit:10;" d="M 1.309571 0.898828 L 1.107357 0.898828 L 1.107357 -0.449349 L 1.309571 -0.449349 " transform="matrix(30,0,0,30,7.294914,15.757812)"/>
<path style="fill:none;stroke-width:0.0433333;stroke-linecap:butt;stroke-linejoin:miter;stroke:rgb(0%,0%,0%);stroke-opacity:1;stroke-miterlimit:10;" d="M 3.360612 -0.449349 L 3.562826 -0.449349 L 3.562826 0.898828 L 3.360612 0.898828 " transform="matrix(30,0,0,30,7.294914,15.757812)"/>
<path style=" stroke:none;fill-rule:nonzero;fill:rgb(100%,100%,100%);fill-opacity:1;" d="M 12.164062 27.550781 L 19.464844 27.550781 L 19.464844 36.820312 L 12.164062 36.820312 Z "/>
<g style="fill:rgb(0%,0%,100%);fill-opacity:1;">
  <use xlink:href="#glyph1-1" x="13.339844" y="35.023438"/>
</g>
<path style=" stroke:none;fill-rule:nonzero;fill:rgb(100%,100%,100%);fill-opacity:1;" d="M 27.269531 11.222656 L 34.023438 11.222656 L 34.023438 20.289062 L 27.269531 20.289062 Z "/>
<g style="fill:rgb(0%,0%,100%);fill-opacity:1;">
  <use xlink:href="#glyph1-2" x="28.101562" y="18.601562"/>
</g>
<path style=" stroke:none;fill-rule:nonzero;fill:rgb(100%,100%,100%);fill-opacity:1;" d="M 50.503906 24.660156 L 57.492188 24.660156 L 57.492188 33.820312 L 50.503906 33.820312 Z "/>
<g style="fill:rgb(0%,0%,100%);fill-opacity:1;">
  <use xlink:href="#glyph1-3" x="51.617187" y="32.132812"/>
</g>
<path style=" stroke:none;fill-rule:nonzero;fill:rgb(100%,100%,100%);fill-opacity:1;" d="M 82.214844 14.066406 L 89.34375 14.066406 L 89.34375 23.335938 L 82.214844 23.335938 Z "/>
<g style="fill:rgb(0%,0%,100%);fill-opacity:1;">
  <use xlink:href="#glyph1-4" x="83.3125" y="21.539062"/>
</g>
<path style=" stroke:none;fill-rule:nonzero;fill:rgb(100%,100%,100%);fill-opacity:1;" d="M 96.9375 24.707031 L 104.457031 24.707031 L 104.457031 33.773438 L 96.9375 33.773438 Z "/>
<g style="fill:rgb(0%,0%,100%);fill-opacity:1;">
  <use xlink:href="#glyph1-5" x="98.253906" y="32.085938"/>
</g>
<path style=" stroke:none;fill-rule:nonzero;fill:rgb(100%,100%,100%);fill-opacity:1;" d="M 120.515625 11.167969 L 127.582031 11.167969 L 127.582031 20.34375 L 120.515625 20.34375 Z "/>
<g style="fill:rgb(0%,0%,100%);fill-opacity:1;">
  <use xlink:href="#glyph1-6" x="121.613281" y="18.546875"/>
</g>
<path style=" stroke:none;fill-rule:nonzero;fill:rgb(100%,100%,100%);fill-opacity:1;" d="M 143.75 24.605469 L 151.050781 24.605469 L 151.050781 33.875 L 143.75 33.875 Z "/>
<g style="fill:rgb(0%,0%,100%);fill-opacity:1;">
  <use xlink:href="#glyph1-7" x="144.894531" y="32.078125"/>
</g>
<path style=" stroke:none;fill-rule:nonzero;fill:rgb(100%,100%,100%);fill-opacity:1;" d="M 192.050781 14.066406 L 199.085938 14.066406 L 199.085938 23.132812 L 192.050781 23.132812 Z "/>
<g style="fill:rgb(0%,0%,100%);fill-opacity:1;">
  <use xlink:href="#glyph1-8" x="193.101562" y="21.445312"/>
</g>
</g>
</svg>
