<?xml version="1.0" encoding="UTF-8"?>
<svg xmlns="http://www.w3.org/2000/svg" xmlns:xlink="http://www.w3.org/1999/xlink" width="448pt" height="198pt" viewBox="0 0 448 198" version="1.1">
<defs>
<g>
<symbol overflow="visible" id="glyph0-0">
<path style="stroke:none;" d="M 0.78125 2.75 L 0.78125 -11 L 8.578125 -11 L 8.578125 2.75 Z M 1.65625 1.890625 L 7.703125 1.890625 L 7.703125 -10.125 L 1.65625 -10.125 Z "/>
</symbol>
<symbol overflow="visible" id="glyph0-1">
<path style="stroke:none;" d="M 10.046875 -10.5 L 10.046875 -8.875 C 9.523438 -9.351562 8.96875 -9.710938 8.375 -9.953125 C 7.789062 -10.191406 7.171875 -10.3125 6.515625 -10.3125 C 5.210938 -10.3125 4.21875 -9.910156 3.53125 -9.109375 C 2.84375 -8.316406 2.5 -7.171875 2.5 -5.671875 C 2.5 -4.171875 2.84375 -3.023438 3.53125 -2.234375 C 4.21875 -1.441406 5.210938 -1.046875 6.515625 -1.046875 C 7.171875 -1.046875 7.789062 -1.164062 8.375 -1.40625 C 8.96875 -1.644531 9.523438 -2.003906 10.046875 -2.484375 L 10.046875 -0.875 C 9.503906 -0.507812 8.929688 -0.234375 8.328125 -0.046875 C 7.734375 0.128906 7.097656 0.21875 6.421875 0.21875 C 4.703125 0.21875 3.347656 -0.304688 2.359375 -1.359375 C 1.367188 -2.410156 0.875 -3.847656 0.875 -5.671875 C 0.875 -7.492188 1.367188 -8.929688 2.359375 -9.984375 C 3.347656 -11.046875 4.703125 -11.578125 6.421875 -11.578125 C 7.109375 -11.578125 7.75 -11.484375 8.34375 -11.296875 C 8.945312 -11.117188 9.515625 -10.851562 10.046875 -10.5 Z "/>
</symbol>
<symbol overflow="visible" id="glyph0-2">
<path style="stroke:none;" d="M 8.5625 -5.140625 L 8.5625 0 L 7.15625 0 L 7.15625 -5.09375 C 7.15625 -5.90625 7 -6.507812 6.6875 -6.90625 C 6.375 -7.3125 5.898438 -7.515625 5.265625 -7.515625 C 4.515625 -7.515625 3.921875 -7.269531 3.484375 -6.78125 C 3.046875 -6.300781 2.828125 -5.644531 2.828125 -4.8125 L 2.828125 0 L 1.421875 0 L 1.421875 -11.84375 L 2.828125 -11.84375 L 2.828125 -7.203125 C 3.160156 -7.710938 3.550781 -8.09375 4 -8.34375 C 4.457031 -8.601562 4.984375 -8.734375 5.578125 -8.734375 C 6.554688 -8.734375 7.296875 -8.425781 7.796875 -7.8125 C 8.304688 -7.207031 8.5625 -6.316406 8.5625 -5.140625 Z "/>
</symbol>
<symbol overflow="visible" id="glyph0-3">
<path style="stroke:none;" d="M 1.46875 -8.53125 L 2.875 -8.53125 L 2.875 0 L 1.46875 0 Z M 1.46875 -11.84375 L 2.875 -11.84375 L 2.875 -10.078125 L 1.46875 -10.078125 Z "/>
</symbol>
<symbol overflow="visible" id="glyph0-4">
<path style="stroke:none;" d="M 6.40625 -7.21875 C 6.25 -7.3125 6.078125 -7.378906 5.890625 -7.421875 C 5.710938 -7.460938 5.507812 -7.484375 5.28125 -7.484375 C 4.488281 -7.484375 3.878906 -7.222656 3.453125 -6.703125 C 3.035156 -6.191406 2.828125 -5.457031 2.828125 -4.5 L 2.828125 0 L 1.421875 0 L 1.421875 -8.53125 L 2.828125 -8.53125 L 2.828125 -7.203125 C 3.117188 -7.722656 3.5 -8.109375 3.96875 -8.359375 C 4.445312 -8.609375 5.023438 -8.734375 5.703125 -8.734375 C 5.796875 -8.734375 5.898438 -8.726562 6.015625 -8.71875 C 6.128906 -8.707031 6.257812 -8.6875 6.40625 -8.65625 Z "/>
</symbol>
<symbol overflow="visible" id="glyph0-5">
<path style="stroke:none;" d="M 5.34375 -4.28125 C 4.207031 -4.28125 3.421875 -4.148438 2.984375 -3.890625 C 2.554688 -3.640625 2.34375 -3.203125 2.34375 -2.578125 C 2.34375 -2.078125 2.503906 -1.679688 2.828125 -1.390625 C 3.148438 -1.097656 3.597656 -0.953125 4.171875 -0.953125 C 4.941406 -0.953125 5.5625 -1.226562 6.03125 -1.78125 C 6.5 -2.332031 6.734375 -3.0625 6.734375 -3.96875 L 6.734375 -4.28125 Z M 8.140625 -4.859375 L 8.140625 0 L 6.734375 0 L 6.734375 -1.296875 C 6.421875 -0.773438 6.023438 -0.390625 5.546875 -0.140625 C 5.066406 0.0976562 4.484375 0.21875 3.796875 0.21875 C 2.921875 0.21875 2.222656 -0.0234375 1.703125 -0.515625 C 1.191406 -1.003906 0.9375 -1.660156 0.9375 -2.484375 C 0.9375 -3.441406 1.253906 -4.164062 1.890625 -4.65625 C 2.535156 -5.144531 3.5 -5.390625 4.78125 -5.390625 L 6.734375 -5.390625 L 6.734375 -5.515625 C 6.734375 -6.160156 6.519531 -6.660156 6.09375 -7.015625 C 5.675781 -7.367188 5.082031 -7.546875 4.3125 -7.546875 C 3.832031 -7.546875 3.359375 -7.488281 2.890625 -7.375 C 2.429688 -7.257812 1.988281 -7.082031 1.5625 -6.84375 L 1.5625 -8.140625 C 2.070312 -8.335938 2.566406 -8.484375 3.046875 -8.578125 C 3.535156 -8.679688 4.007812 -8.734375 4.46875 -8.734375 C 5.695312 -8.734375 6.613281 -8.410156 7.21875 -7.765625 C 7.832031 -7.128906 8.140625 -6.160156 8.140625 -4.859375 Z "/>
</symbol>
<symbol overflow="visible" id="glyph0-6">
<path style="stroke:none;" d="M 1.46875 -11.84375 L 2.875 -11.84375 L 2.875 0 L 1.46875 0 Z "/>
</symbol>
<symbol overflow="visible" id="glyph0-7">
<path style="stroke:none;" d="M 6.140625 -10.328125 C 5.023438 -10.328125 4.140625 -9.910156 3.484375 -9.078125 C 2.828125 -8.242188 2.5 -7.109375 2.5 -5.671875 C 2.5 -4.242188 2.828125 -3.113281 3.484375 -2.28125 C 4.140625 -1.445312 5.023438 -1.03125 6.140625 -1.03125 C 7.253906 -1.03125 8.140625 -1.445312 8.796875 -2.28125 C 9.453125 -3.113281 9.78125 -4.242188 9.78125 -5.671875 C 9.78125 -7.109375 9.453125 -8.242188 8.796875 -9.078125 C 8.140625 -9.910156 7.253906 -10.328125 6.140625 -10.328125 Z M 6.140625 -11.578125 C 7.734375 -11.578125 9.003906 -11.039062 9.953125 -9.96875 C 10.910156 -8.90625 11.390625 -7.472656 11.390625 -5.671875 C 11.390625 -3.878906 10.910156 -2.445312 9.953125 -1.375 C 9.003906 -0.3125 7.734375 0.21875 6.140625 0.21875 C 4.546875 0.21875 3.269531 -0.3125 2.3125 -1.375 C 1.351562 -2.445312 0.875 -3.878906 0.875 -5.671875 C 0.875 -7.472656 1.351562 -8.90625 2.3125 -9.96875 C 3.269531 -11.039062 4.546875 -11.578125 6.140625 -11.578125 Z "/>
</symbol>
<symbol overflow="visible" id="glyph0-8">
<path style="stroke:none;" d="M 1.53125 -11.375 L 3.0625 -11.375 L 3.0625 -6.703125 L 8.65625 -6.703125 L 8.65625 -11.375 L 10.203125 -11.375 L 10.203125 0 L 8.65625 0 L 8.65625 -5.40625 L 3.0625 -5.40625 L 3.0625 0 L 1.53125 0 Z "/>
</symbol>
<symbol overflow="visible" id="glyph1-0">
<path style="stroke:none;" d="M 1 3.53125 L 1 -14.109375 L 11 -14.109375 L 11 3.53125 Z M 2.125 2.421875 L 9.890625 2.421875 L 9.890625 -12.984375 L 2.125 -12.984375 Z "/>
</symbol>
<symbol overflow="visible" id="glyph1-1">
<path style="stroke:none;" d="M 3.9375 -6.96875 L 3.9375 -1.625 L 7.09375 -1.625 C 8.15625 -1.625 8.941406 -1.84375 9.453125 -2.28125 C 9.960938 -2.71875 10.21875 -3.390625 10.21875 -4.296875 C 10.21875 -5.210938 9.960938 -5.882812 9.453125 -6.3125 C 8.941406 -6.75 8.15625 -6.96875 7.09375 -6.96875 Z M 3.9375 -12.953125 L 3.9375 -8.5625 L 6.859375 -8.5625 C 7.816406 -8.5625 8.53125 -8.742188 9 -9.109375 C 9.476562 -9.472656 9.71875 -10.023438 9.71875 -10.765625 C 9.71875 -11.492188 9.476562 -12.039062 9 -12.40625 C 8.53125 -12.769531 7.816406 -12.953125 6.859375 -12.953125 Z M 1.96875 -14.578125 L 7 -14.578125 C 8.507812 -14.578125 9.671875 -14.265625 10.484375 -13.640625 C 11.296875 -13.015625 11.703125 -12.128906 11.703125 -10.984375 C 11.703125 -10.085938 11.492188 -9.375 11.078125 -8.84375 C 10.660156 -8.320312 10.046875 -7.992188 9.234375 -7.859375 C 10.203125 -7.648438 10.957031 -7.210938 11.5 -6.546875 C 12.039062 -5.890625 12.3125 -5.066406 12.3125 -4.078125 C 12.3125 -2.773438 11.867188 -1.769531 10.984375 -1.0625 C 10.097656 -0.351562 8.835938 0 7.203125 0 L 1.96875 0 Z "/>
</symbol>
<symbol overflow="visible" id="glyph1-2">
<path style="stroke:none;" d="M 2.484375 -1.65625 L 5.703125 -1.65625 L 5.703125 -12.78125 L 2.203125 -12.078125 L 2.203125 -13.875 L 5.6875 -14.578125 L 7.65625 -14.578125 L 7.65625 -1.65625 L 10.875 -1.65625 L 10.875 0 L 2.484375 0 Z "/>
</symbol>
<symbol overflow="visible" id="glyph2-0">
<path style="stroke:none;" d="M 0.703125 2.46875 L 0.703125 -9.875 L 7.703125 -9.875 L 7.703125 2.46875 Z M 1.484375 1.703125 L 6.921875 1.703125 L 6.921875 -9.078125 L 1.484375 -9.078125 Z "/>
</symbol>
<symbol overflow="visible" id="glyph2-1">
<path style="stroke:none;" d="M 1.375 -10.203125 L 2.75 -10.203125 L 2.75 0 L 1.375 0 Z "/>
</symbol>
<symbol overflow="visible" id="glyph2-2">
<path style="stroke:none;" d="M 7.6875 -4.625 L 7.6875 0 L 6.421875 0 L 6.421875 -4.578125 C 6.421875 -5.304688 6.28125 -5.847656 6 -6.203125 C 5.71875 -6.566406 5.296875 -6.75 4.734375 -6.75 C 4.054688 -6.75 3.519531 -6.53125 3.125 -6.09375 C 2.726562 -5.664062 2.53125 -5.078125 2.53125 -4.328125 L 2.53125 0 L 1.265625 0 L 1.265625 -7.65625 L 2.53125 -7.65625 L 2.53125 -6.46875 C 2.832031 -6.925781 3.1875 -7.269531 3.59375 -7.5 C 4.007812 -7.726562 4.484375 -7.84375 5.015625 -7.84375 C 5.890625 -7.84375 6.550781 -7.566406 7 -7.015625 C 7.457031 -6.472656 7.6875 -5.675781 7.6875 -4.625 Z "/>
</symbol>
<symbol overflow="visible" id="glyph2-3">
<path style="stroke:none;" d="M 2.53125 -1.15625 L 2.53125 2.90625 L 1.265625 2.90625 L 1.265625 -7.65625 L 2.53125 -7.65625 L 2.53125 -6.5 C 2.800781 -6.945312 3.132812 -7.28125 3.53125 -7.5 C 3.9375 -7.726562 4.421875 -7.84375 4.984375 -7.84375 C 5.910156 -7.84375 6.664062 -7.472656 7.25 -6.734375 C 7.832031 -5.992188 8.125 -5.023438 8.125 -3.828125 C 8.125 -2.617188 7.832031 -1.644531 7.25 -0.90625 C 6.664062 -0.164062 5.910156 0.203125 4.984375 0.203125 C 4.421875 0.203125 3.9375 0.09375 3.53125 -0.125 C 3.132812 -0.351562 2.800781 -0.695312 2.53125 -1.15625 Z M 6.8125 -3.828125 C 6.8125 -4.742188 6.617188 -5.460938 6.234375 -5.984375 C 5.859375 -6.515625 5.335938 -6.78125 4.671875 -6.78125 C 4.003906 -6.78125 3.476562 -6.515625 3.09375 -5.984375 C 2.71875 -5.460938 2.53125 -4.742188 2.53125 -3.828125 C 2.53125 -2.898438 2.71875 -2.171875 3.09375 -1.640625 C 3.476562 -1.117188 4.003906 -0.859375 4.671875 -0.859375 C 5.335938 -0.859375 5.859375 -1.117188 6.234375 -1.640625 C 6.617188 -2.171875 6.8125 -2.898438 6.8125 -3.828125 Z "/>
</symbol>
<symbol overflow="visible" id="glyph2-4">
<path style="stroke:none;" d="M 1.1875 -3.015625 L 1.1875 -7.65625 L 2.453125 -7.65625 L 2.453125 -3.0625 C 2.453125 -2.34375 2.59375 -1.800781 2.875 -1.4375 C 3.15625 -1.070312 3.578125 -0.890625 4.140625 -0.890625 C 4.816406 -0.890625 5.351562 -1.101562 5.75 -1.53125 C 6.144531 -1.96875 6.34375 -2.5625 6.34375 -3.3125 L 6.34375 -7.65625 L 7.609375 -7.65625 L 7.609375 0 L 6.34375 0 L 6.34375 -1.171875 C 6.039062 -0.710938 5.6875 -0.367188 5.28125 -0.140625 C 4.875 0.0859375 4.40625 0.203125 3.875 0.203125 C 3 0.203125 2.332031 -0.0664062 1.875 -0.609375 C 1.414062 -1.160156 1.1875 -1.960938 1.1875 -3.015625 Z M 4.359375 -7.84375 Z "/>
</symbol>
<symbol overflow="visible" id="glyph2-5">
<path style="stroke:none;" d="M 2.5625 -9.828125 L 2.5625 -7.65625 L 5.15625 -7.65625 L 5.15625 -6.671875 L 2.5625 -6.671875 L 2.5625 -2.515625 C 2.5625 -1.898438 2.644531 -1.5 2.8125 -1.3125 C 2.988281 -1.132812 3.335938 -1.046875 3.859375 -1.046875 L 5.15625 -1.046875 L 5.15625 0 L 3.859375 0 C 2.890625 0 2.21875 -0.179688 1.84375 -0.546875 C 1.476562 -0.910156 1.296875 -1.566406 1.296875 -2.515625 L 1.296875 -6.671875 L 0.375 -6.671875 L 0.375 -7.65625 L 1.296875 -7.65625 L 1.296875 -9.828125 Z "/>
</symbol>
<symbol overflow="visible" id="glyph2-6">
<path style="stroke:none;" d=""/>
</symbol>
<symbol overflow="visible" id="glyph2-7">
<path style="stroke:none;" d="M 7.28125 -6.1875 C 7.59375 -6.75 7.96875 -7.164062 8.40625 -7.4375 C 8.84375 -7.707031 9.359375 -7.84375 9.953125 -7.84375 C 10.753906 -7.84375 11.367188 -7.5625 11.796875 -7 C 12.234375 -6.445312 12.453125 -5.65625 12.453125 -4.625 L 12.453125 0 L 11.1875 0 L 11.1875 -4.578125 C 11.1875 -5.316406 11.054688 -5.863281 10.796875 -6.21875 C 10.535156 -6.570312 10.140625 -6.75 9.609375 -6.75 C 8.953125 -6.75 8.4375 -6.53125 8.0625 -6.09375 C 7.6875 -5.664062 7.5 -5.078125 7.5 -4.328125 L 7.5 0 L 6.234375 0 L 6.234375 -4.578125 C 6.234375 -5.316406 6.101562 -5.863281 5.84375 -6.21875 C 5.582031 -6.570312 5.179688 -6.75 4.640625 -6.75 C 3.992188 -6.75 3.476562 -6.53125 3.09375 -6.09375 C 2.71875 -5.65625 2.53125 -5.066406 2.53125 -4.328125 L 2.53125 0 L 1.265625 0 L 1.265625 -7.65625 L 2.53125 -7.65625 L 2.53125 -6.46875 C 2.820312 -6.9375 3.164062 -7.28125 3.5625 -7.5 C 3.96875 -7.726562 4.445312 -7.84375 5 -7.84375 C 5.550781 -7.84375 6.019531 -7.703125 6.40625 -7.421875 C 6.800781 -7.140625 7.09375 -6.726562 7.28125 -6.1875 Z "/>
</symbol>
<symbol overflow="visible" id="glyph2-8">
<path style="stroke:none;" d="M 4.28125 -6.78125 C 3.613281 -6.78125 3.082031 -6.515625 2.6875 -5.984375 C 2.289062 -5.460938 2.09375 -4.742188 2.09375 -3.828125 C 2.09375 -2.910156 2.285156 -2.1875 2.671875 -1.65625 C 3.066406 -1.132812 3.601562 -0.875 4.28125 -0.875 C 4.957031 -0.875 5.488281 -1.132812 5.875 -1.65625 C 6.269531 -2.1875 6.46875 -2.910156 6.46875 -3.828125 C 6.46875 -4.734375 6.269531 -5.453125 5.875 -5.984375 C 5.488281 -6.515625 4.957031 -6.78125 4.28125 -6.78125 Z M 4.28125 -7.84375 C 5.375 -7.84375 6.234375 -7.484375 6.859375 -6.765625 C 7.484375 -6.054688 7.796875 -5.078125 7.796875 -3.828125 C 7.796875 -2.566406 7.484375 -1.578125 6.859375 -0.859375 C 6.234375 -0.148438 5.375 0.203125 4.28125 0.203125 C 3.1875 0.203125 2.328125 -0.148438 1.703125 -0.859375 C 1.078125 -1.578125 0.765625 -2.566406 0.765625 -3.828125 C 0.765625 -5.078125 1.078125 -6.054688 1.703125 -6.765625 C 2.328125 -7.484375 3.1875 -7.84375 4.28125 -7.84375 Z "/>
</symbol>
<symbol overflow="visible" id="glyph2-9">
<path style="stroke:none;" d="M 7.875 -4.140625 L 7.875 -3.53125 L 2.078125 -3.53125 C 2.140625 -2.664062 2.398438 -2.003906 2.859375 -1.546875 C 3.328125 -1.097656 3.976562 -0.875 4.8125 -0.875 C 5.300781 -0.875 5.769531 -0.929688 6.21875 -1.046875 C 6.675781 -1.160156 7.128906 -1.335938 7.578125 -1.578125 L 7.578125 -0.390625 C 7.117188 -0.203125 6.648438 -0.0546875 6.171875 0.046875 C 5.703125 0.148438 5.226562 0.203125 4.75 0.203125 C 3.519531 0.203125 2.546875 -0.148438 1.828125 -0.859375 C 1.117188 -1.578125 0.765625 -2.539062 0.765625 -3.75 C 0.765625 -5.007812 1.101562 -6.003906 1.78125 -6.734375 C 2.457031 -7.472656 3.375 -7.84375 4.53125 -7.84375 C 5.5625 -7.84375 6.375 -7.507812 6.96875 -6.84375 C 7.570312 -6.1875 7.875 -5.285156 7.875 -4.140625 Z M 6.609375 -4.515625 C 6.597656 -5.203125 6.40625 -5.75 6.03125 -6.15625 C 5.65625 -6.570312 5.160156 -6.78125 4.546875 -6.78125 C 3.835938 -6.78125 3.269531 -6.578125 2.84375 -6.171875 C 2.425781 -5.773438 2.1875 -5.21875 2.125 -4.5 Z "/>
</symbol>
<symbol overflow="visible" id="glyph2-10">
<path style="stroke:none;" d="M 5.75 -6.484375 C 5.613281 -6.566406 5.460938 -6.625 5.296875 -6.65625 C 5.128906 -6.695312 4.945312 -6.71875 4.75 -6.71875 C 4.03125 -6.71875 3.476562 -6.484375 3.09375 -6.015625 C 2.71875 -5.554688 2.53125 -4.894531 2.53125 -4.03125 L 2.53125 0 L 1.265625 0 L 1.265625 -7.65625 L 2.53125 -7.65625 L 2.53125 -6.46875 C 2.800781 -6.9375 3.144531 -7.28125 3.5625 -7.5 C 3.988281 -7.726562 4.503906 -7.84375 5.109375 -7.84375 C 5.203125 -7.84375 5.300781 -7.835938 5.40625 -7.828125 C 5.507812 -7.816406 5.625 -7.796875 5.75 -7.765625 Z "/>
</symbol>
<symbol overflow="visible" id="glyph2-11">
<path style="stroke:none;" d="M 6.203125 -7.4375 L 6.203125 -6.234375 C 5.847656 -6.421875 5.476562 -6.554688 5.09375 -6.640625 C 4.707031 -6.734375 4.3125 -6.78125 3.90625 -6.78125 C 3.28125 -6.78125 2.8125 -6.6875 2.5 -6.5 C 2.1875 -6.3125 2.03125 -6.023438 2.03125 -5.640625 C 2.03125 -5.347656 2.140625 -5.117188 2.359375 -4.953125 C 2.585938 -4.785156 3.039062 -4.628906 3.71875 -4.484375 L 4.140625 -4.375 C 5.035156 -4.1875 5.671875 -3.914062 6.046875 -3.5625 C 6.421875 -3.21875 6.609375 -2.734375 6.609375 -2.109375 C 6.609375 -1.398438 6.328125 -0.835938 5.765625 -0.421875 C 5.203125 -0.00390625 4.429688 0.203125 3.453125 0.203125 C 3.035156 0.203125 2.601562 0.160156 2.15625 0.078125 C 1.71875 -0.00390625 1.253906 -0.125 0.765625 -0.28125 L 0.765625 -1.578125 C 1.222656 -1.335938 1.675781 -1.15625 2.125 -1.03125 C 2.582031 -0.914062 3.03125 -0.859375 3.46875 -0.859375 C 4.0625 -0.859375 4.515625 -0.957031 4.828125 -1.15625 C 5.148438 -1.363281 5.3125 -1.648438 5.3125 -2.015625 C 5.3125 -2.359375 5.195312 -2.617188 4.96875 -2.796875 C 4.738281 -2.984375 4.234375 -3.160156 3.453125 -3.328125 L 3.015625 -3.4375 C 2.242188 -3.59375 1.679688 -3.84375 1.328125 -4.1875 C 0.984375 -4.53125 0.8125 -4.992188 0.8125 -5.578125 C 0.8125 -6.304688 1.066406 -6.863281 1.578125 -7.25 C 2.085938 -7.644531 2.8125 -7.84375 3.75 -7.84375 C 4.21875 -7.84375 4.65625 -7.804688 5.0625 -7.734375 C 5.476562 -7.671875 5.859375 -7.570312 6.203125 -7.4375 Z "/>
</symbol>
<symbol overflow="visible" id="glyph2-12">
<path style="stroke:none;" d="M 5.203125 -10.640625 L 5.203125 -9.59375 L 4 -9.59375 C 3.539062 -9.59375 3.222656 -9.5 3.046875 -9.3125 C 2.878906 -9.132812 2.796875 -8.804688 2.796875 -8.328125 L 2.796875 -7.65625 L 4.859375 -7.65625 L 4.859375 -6.671875 L 2.796875 -6.671875 L 2.796875 0 L 1.53125 0 L 1.53125 -6.671875 L 0.328125 -6.671875 L 0.328125 -7.65625 L 1.53125 -7.65625 L 1.53125 -8.1875 C 1.53125 -9.039062 1.726562 -9.660156 2.125 -10.046875 C 2.519531 -10.441406 3.144531 -10.640625 4 -10.640625 Z "/>
</symbol>
<symbol overflow="visible" id="glyph2-13">
<path style="stroke:none;" d="M 4.796875 -3.84375 C 3.785156 -3.84375 3.082031 -3.726562 2.6875 -3.5 C 2.289062 -3.269531 2.09375 -2.875 2.09375 -2.3125 C 2.09375 -1.863281 2.238281 -1.507812 2.53125 -1.25 C 2.832031 -0.988281 3.234375 -0.859375 3.734375 -0.859375 C 4.429688 -0.859375 4.988281 -1.101562 5.40625 -1.59375 C 5.832031 -2.09375 6.046875 -2.75 6.046875 -3.5625 L 6.046875 -3.84375 Z M 7.3125 -4.375 L 7.3125 0 L 6.046875 0 L 6.046875 -1.15625 C 5.765625 -0.695312 5.40625 -0.351562 4.96875 -0.125 C 4.539062 0.09375 4.019531 0.203125 3.40625 0.203125 C 2.625 0.203125 2 -0.015625 1.53125 -0.453125 C 1.070312 -0.898438 0.84375 -1.492188 0.84375 -2.234375 C 0.84375 -3.085938 1.128906 -3.734375 1.703125 -4.171875 C 2.285156 -4.609375 3.144531 -4.828125 4.28125 -4.828125 L 6.046875 -4.828125 L 6.046875 -4.953125 C 6.046875 -5.535156 5.851562 -5.984375 5.46875 -6.296875 C 5.09375 -6.617188 4.5625 -6.78125 3.875 -6.78125 C 3.4375 -6.78125 3.007812 -6.722656 2.59375 -6.609375 C 2.175781 -6.503906 1.78125 -6.347656 1.40625 -6.140625 L 1.40625 -7.3125 C 1.863281 -7.488281 2.304688 -7.617188 2.734375 -7.703125 C 3.171875 -7.796875 3.59375 -7.84375 4 -7.84375 C 5.113281 -7.84375 5.941406 -7.554688 6.484375 -6.984375 C 7.035156 -6.410156 7.3125 -5.539062 7.3125 -4.375 Z "/>
</symbol>
<symbol overflow="visible" id="glyph2-14">
<path style="stroke:none;" d="M 6.828125 -7.359375 L 6.828125 -6.1875 C 6.472656 -6.382812 6.113281 -6.53125 5.75 -6.625 C 5.394531 -6.726562 5.035156 -6.78125 4.671875 -6.78125 C 3.859375 -6.78125 3.222656 -6.519531 2.765625 -6 C 2.316406 -5.476562 2.09375 -4.753906 2.09375 -3.828125 C 2.09375 -2.890625 2.316406 -2.160156 2.765625 -1.640625 C 3.222656 -1.128906 3.859375 -0.875 4.671875 -0.875 C 5.035156 -0.875 5.394531 -0.921875 5.75 -1.015625 C 6.113281 -1.109375 6.472656 -1.253906 6.828125 -1.453125 L 6.828125 -0.296875 C 6.472656 -0.128906 6.109375 -0.00390625 5.734375 0.078125 C 5.359375 0.160156 4.960938 0.203125 4.546875 0.203125 C 3.390625 0.203125 2.46875 -0.15625 1.78125 -0.875 C 1.101562 -1.601562 0.765625 -2.585938 0.765625 -3.828125 C 0.765625 -5.066406 1.109375 -6.046875 1.796875 -6.765625 C 2.484375 -7.484375 3.425781 -7.84375 4.625 -7.84375 C 5.007812 -7.84375 5.382812 -7.800781 5.75 -7.71875 C 6.125 -7.644531 6.484375 -7.523438 6.828125 -7.359375 Z "/>
</symbol>
<symbol overflow="visible" id="glyph2-15">
<path style="stroke:none;" d="M 2.6875 -1.15625 L 7.5 -1.15625 L 7.5 0 L 1.03125 0 L 1.03125 -1.15625 C 1.550781 -1.695312 2.265625 -2.425781 3.171875 -3.34375 C 4.078125 -4.257812 4.644531 -4.847656 4.875 -5.109375 C 5.3125 -5.609375 5.617188 -6.03125 5.796875 -6.375 C 5.972656 -6.71875 6.0625 -7.054688 6.0625 -7.390625 C 6.0625 -7.929688 5.867188 -8.375 5.484375 -8.71875 C 5.109375 -9.0625 4.613281 -9.234375 4 -9.234375 C 3.570312 -9.234375 3.117188 -9.15625 2.640625 -9 C 2.160156 -8.851562 1.644531 -8.625 1.09375 -8.3125 L 1.09375 -9.71875 C 1.644531 -9.9375 2.160156 -10.101562 2.640625 -10.21875 C 3.128906 -10.332031 3.578125 -10.390625 3.984375 -10.390625 C 5.035156 -10.390625 5.875 -10.125 6.5 -9.59375 C 7.132812 -9.070312 7.453125 -8.367188 7.453125 -7.484375 C 7.453125 -7.054688 7.375 -6.65625 7.21875 -6.28125 C 7.0625 -5.90625 6.773438 -5.460938 6.359375 -4.953125 C 6.242188 -4.828125 5.878906 -4.445312 5.265625 -3.8125 C 4.660156 -3.175781 3.800781 -2.289062 2.6875 -1.15625 Z "/>
</symbol>
</g>
</defs>
<g id="surface1901">
<g style="fill:rgb(0%,0%,0%);fill-opacity:1;">
  <use xlink:href="#glyph0-1" x="77.636719" y="14.265625"/>
  <use xlink:href="#glyph0-2" x="88.524933" y="14.265625"/>
  <use xlink:href="#glyph0-3" x="98.408081" y="14.265625"/>
  <use xlink:href="#glyph0-4" x="102.740524" y="14.265625"/>
  <use xlink:href="#glyph0-5" x="109.151627" y="14.265625"/>
  <use xlink:href="#glyph0-6" x="118.707367" y="14.265625"/>
</g>
<g style="fill:rgb(0%,0%,0%);fill-opacity:1;">
  <use xlink:href="#glyph0-7" x="63.488281" y="32.230469"/>
</g>
<g style="fill:rgb(0%,0%,0%);fill-opacity:1;">
  <use xlink:href="#glyph0-8" x="74.648438" y="32.027344"/>
</g>
<g style="fill:rgb(0%,0%,0%);fill-opacity:1;">
  <use xlink:href="#glyph0-7" x="115.449219" y="122.226562"/>
</g>
<g style="fill:rgb(0%,0%,0%);fill-opacity:1;">
  <use xlink:href="#glyph0-8" x="126.609375" y="122.023438"/>
</g>
<g style="fill:rgb(0%,0%,0%);fill-opacity:1;">
  <use xlink:href="#glyph0-7" x="11.527344" y="122.226562"/>
</g>
<g style="fill:rgb(0%,0%,0%);fill-opacity:1;">
  <use xlink:href="#glyph0-8" x="0.898438" y="122.023438"/>
</g>
<g style="fill:rgb(0%,0%,0%);fill-opacity:1;">
  <use xlink:href="#glyph0-7" x="115.449219" y="62.226562"/>
</g>
<g style="fill:rgb(0%,0%,0%);fill-opacity:1;">
  <use xlink:href="#glyph0-8" x="126.609375" y="62.023438"/>
</g>
<g style="fill:rgb(0%,0%,0%);fill-opacity:1;">
  <use xlink:href="#glyph0-7" x="63.488281" y="152.230469"/>
</g>
<g style="fill:rgb(0%,0%,0%);fill-opacity:1;">
  <use xlink:href="#glyph0-8" x="74.648438" y="152.027344"/>
</g>
<g style="fill:rgb(0%,0%,0%);fill-opacity:1;">
  <use xlink:href="#glyph0-7" x="11.527344" y="62.226562"/>
</g>
<g style="fill:rgb(0%,0%,0%);fill-opacity:1;">
  <use xlink:href="#glyph0-8" x="0.898438" y="62.023438"/>
</g>
<path style="fill:none;stroke-width:0.0433333;stroke-linecap:butt;stroke-linejoin:miter;stroke:rgb(0%,0%,0%);stroke-opacity:1;stroke-miterlimit:10;" d="M 2.608919 1.50619 L 1.721159 0.99369 " transform="matrix(30,0,0,30,17.658203,26.548683)"/>
<path style="fill:none;stroke-width:0.0433333;stroke-linecap:butt;stroke-linejoin:miter;stroke:rgb(0%,0%,0%);stroke-opacity:1;stroke-miterlimit:10;" d="M 2.598112 2.51244 L 2.598112 1.48744 " transform="matrix(30,0,0,30,17.658203,26.548683)"/>
<path style="fill:none;stroke-width:0.0433333;stroke-linecap:butt;stroke-linejoin:miter;stroke:rgb(0%,0%,0%);stroke-opacity:1;stroke-miterlimit:10;" d="M 1.721159 3.00619 L 2.608919 2.49369 " transform="matrix(30,0,0,30,17.658203,26.548683)"/>
<path style="fill:none;stroke-width:0.0433333;stroke-linecap:butt;stroke-linejoin:miter;stroke:rgb(0%,0%,0%);stroke-opacity:1;stroke-miterlimit:10;" d="M 0.855143 2.49369 L 1.742904 3.00619 " transform="matrix(30,0,0,30,17.658203,26.548683)"/>
<path style="fill:none;stroke-width:0.0433333;stroke-linecap:butt;stroke-linejoin:miter;stroke:rgb(0%,0%,0%);stroke-opacity:1;stroke-miterlimit:10;" d="M 0.865951 1.48744 L 0.865951 2.51244 " transform="matrix(30,0,0,30,17.658203,26.548683)"/>
<path style="fill:none;stroke-width:0.0433333;stroke-linecap:butt;stroke-linejoin:miter;stroke:rgb(0%,0%,0%);stroke-opacity:1;stroke-miterlimit:10;" d="M 0.855143 1.50619 L 1.742904 0.99369 " transform="matrix(30,0,0,30,17.658203,26.548683)"/>
<path style=" stroke:none;fill-rule:nonzero;fill:rgb(0%,0%,0%);fill-opacity:1;" d="M 70.269531 56.546875 L 72.871094 36.738281 L 66.371094 36.738281 L 68.96875 56.546875 "/>
<path style=" stroke:none;fill-rule:nonzero;fill:rgb(0%,0%,0%);fill-opacity:1;" d="M 95.277344 102.109375 L 109.207031 113.15625 L 112.457031 107.527344 L 95.925781 100.984375 "/>
<path style=" stroke:none;fill-rule:nonzero;fill:rgb(0%,0%,0%);fill-opacity:1;" d="M 43.3125 100.984375 L 26.78125 107.527344 L 30.03125 113.15625 L 43.960938 102.109375 "/>
<path style="fill:none;stroke-width:0.0433333;stroke-linecap:butt;stroke-linejoin:miter;stroke:rgb(0%,0%,0%);stroke-opacity:1;stroke-miterlimit:10;" d="M 2.700846 1.482362 L 2.664648 1.419731 M 2.792643 1.446033 L 2.742122 1.358403 M 2.88444 1.409575 L 2.819466 1.297075 M 2.976367 1.373247 L 2.89681 1.235747 M 3.068164 1.336919 L 2.974284 1.174289 M 3.159961 1.300591 L 3.051628 1.112961 " transform="matrix(30,0,0,30,17.658203,26.548683)"/>
<path style="fill:none;stroke-width:0.0433333;stroke-linecap:butt;stroke-linejoin:miter;stroke:rgb(0%,0%,0%);stroke-opacity:1;stroke-miterlimit:10;" d="M 1.697982 3.094341 L 1.766081 3.094341 M 1.685612 3.188612 L 1.778451 3.188612 M 1.673242 3.283013 L 1.79082 3.283013 M 1.660872 3.377283 L 1.80319 3.377283 M 1.648503 3.471685 L 1.81556 3.471685 M 1.636133 3.565955 L 1.82806 3.565955 M 1.623763 3.660356 L 1.84043 3.660356 " transform="matrix(30,0,0,30,17.658203,26.548683)"/>
<path style="fill:none;stroke-width:0.0433333;stroke-linecap:butt;stroke-linejoin:miter;stroke:rgb(0%,0%,0%);stroke-opacity:1;stroke-miterlimit:10;" d="M 0.799414 1.419731 L 0.763346 1.482362 M 0.72207 1.358403 L 0.671419 1.446033 M 0.644596 1.297075 L 0.579622 1.409575 M 0.567253 1.235747 L 0.487826 1.373247 M 0.489779 1.174289 L 0.395898 1.336919 M 0.412435 1.112961 L 0.304102 1.300591 " transform="matrix(30,0,0,30,17.658203,26.548683)"/>
<g style="fill:rgb(0%,0%,0%);fill-opacity:1;">
  <use xlink:href="#glyph1-1" x="56.332031" y="172.023438"/>
  <use xlink:href="#glyph1-2" x="70.052734" y="172.023438"/>
</g>
<g style="fill:rgb(0%,0%,0%);fill-opacity:1;">
  <use xlink:href="#glyph2-1" x="115.898438" y="183.089844"/>
  <use xlink:href="#glyph2-2" x="120.027344" y="183.089844"/>
  <use xlink:href="#glyph2-3" x="128.900391" y="183.089844"/>
  <use xlink:href="#glyph2-4" x="137.787109" y="183.089844"/>
  <use xlink:href="#glyph2-5" x="146.660156" y="183.089844"/>
  <use xlink:href="#glyph2-6" x="152.149414" y="183.089844"/>
  <use xlink:href="#glyph2-7" x="156.599609" y="183.089844"/>
  <use xlink:href="#glyph2-8" x="170.237305" y="183.089844"/>
  <use xlink:href="#glyph2-2" x="178.802734" y="183.089844"/>
  <use xlink:href="#glyph2-8" x="187.675781" y="183.089844"/>
  <use xlink:href="#glyph2-7" x="196.241211" y="183.089844"/>
  <use xlink:href="#glyph2-9" x="209.878906" y="183.089844"/>
  <use xlink:href="#glyph2-10" x="218.492188" y="183.089844"/>
  <use xlink:href="#glyph2-11" x="224.248047" y="183.089844"/>
  <use xlink:href="#glyph2-6" x="231.541992" y="183.089844"/>
  <use xlink:href="#glyph2-12" x="235.992188" y="183.089844"/>
  <use xlink:href="#glyph2-8" x="240.920898" y="183.089844"/>
  <use xlink:href="#glyph2-10" x="249.486328" y="183.089844"/>
  <use xlink:href="#glyph2-6" x="255.242188" y="183.089844"/>
  <use xlink:href="#glyph2-10" x="259.692383" y="183.089844"/>
  <use xlink:href="#glyph2-9" x="265.448242" y="183.089844"/>
  <use xlink:href="#glyph2-13" x="274.061523" y="183.089844"/>
  <use xlink:href="#glyph2-14" x="282.640625" y="183.089844"/>
  <use xlink:href="#glyph2-5" x="290.337891" y="183.089844"/>
  <use xlink:href="#glyph2-13" x="295.827148" y="183.089844"/>
  <use xlink:href="#glyph2-2" x="304.40625" y="183.089844"/>
  <use xlink:href="#glyph2-5" x="313.279297" y="183.089844"/>
  <use xlink:href="#glyph2-6" x="318.768555" y="183.089844"/>
  <use xlink:href="#glyph2-15" x="323.21875" y="183.089844"/>
</g>
</g>
</svg>
