<?xml version="1.0" encoding="UTF-8"?>
<svg xmlns="http://www.w3.org/2000/svg" xmlns:xlink="http://www.w3.org/1999/xlink" width="713pt" height="585pt" viewBox="0 0 713 585" version="1.1">
<defs>
<g>
<symbol overflow="visible" id="glyph0-0">
<path style="stroke:none;" d="M 0.78125 2.75 L 0.78125 -11 L 8.578125 -11 L 8.578125 2.75 Z M 1.65625 1.890625 L 7.703125 1.890625 L 7.703125 -10.125 L 1.65625 -10.125 Z "/>
</symbol>
<symbol overflow="visible" id="glyph0-1">
<path style="stroke:none;" d="M 10.046875 -10.5 L 10.046875 -8.875 C 9.523438 -9.351562 8.96875 -9.710938 8.375 -9.953125 C 7.789062 -10.191406 7.171875 -10.3125 6.515625 -10.3125 C 5.210938 -10.3125 4.21875 -9.910156 3.53125 -9.109375 C 2.84375 -8.316406 2.5 -7.171875 2.5 -5.671875 C 2.5 -4.171875 2.84375 -3.023438 3.53125 -2.234375 C 4.21875 -1.441406 5.210938 -1.046875 6.515625 -1.046875 C 7.171875 -1.046875 7.789062 -1.164062 8.375 -1.40625 C 8.96875 -1.644531 9.523438 -2.003906 10.046875 -2.484375 L 10.046875 -0.875 C 9.503906 -0.507812 8.929688 -0.234375 8.328125 -0.046875 C 7.734375 0.128906 7.097656 0.21875 6.421875 0.21875 C 4.703125 0.21875 3.347656 -0.304688 2.359375 -1.359375 C 1.367188 -2.410156 0.875 -3.847656 0.875 -5.671875 C 0.875 -7.492188 1.367188 -8.929688 2.359375 -9.984375 C 3.347656 -11.046875 4.703125 -11.578125 6.421875 -11.578125 C 7.109375 -11.578125 7.75 -11.484375 8.34375 -11.296875 C 8.945312 -11.117188 9.515625 -10.851562 10.046875 -10.5 Z "/>
</symbol>
<symbol overflow="visible" id="glyph0-2">
<path style="stroke:none;" d="M 1.53125 -11.375 L 3.0625 -11.375 L 3.0625 -6.703125 L 8.65625 -6.703125 L 8.65625 -11.375 L 10.203125 -11.375 L 10.203125 0 L 8.65625 0 L 8.65625 -5.40625 L 3.0625 -5.40625 L 3.0625 0 L 1.53125 0 Z "/>
</symbol>
<symbol overflow="visible" id="glyph1-0">
<path style="stroke:none;" d="M 0.515625 1.84375 L 0.515625 -7.34375 L 5.71875 -7.34375 L 5.71875 1.84375 Z M 1.109375 1.265625 L 5.140625 1.265625 L 5.140625 -6.75 L 1.109375 -6.75 Z "/>
</symbol>
<symbol overflow="visible" id="glyph1-1">
<path style="stroke:none;" d="M 3.9375 -6.6875 L 1.34375 -2.640625 L 3.9375 -2.640625 Z M 3.65625 -7.59375 L 4.953125 -7.59375 L 4.953125 -2.640625 L 6.03125 -2.640625 L 6.03125 -1.78125 L 4.953125 -1.78125 L 4.953125 0 L 3.9375 0 L 3.9375 -1.78125 L 0.515625 -1.78125 L 0.515625 -2.78125 Z "/>
</symbol>
<symbol overflow="visible" id="glyph1-2">
<path style="stroke:none;" d="M 2 -0.859375 L 5.578125 -0.859375 L 5.578125 0 L 0.765625 0 L 0.765625 -0.859375 C 1.148438 -1.265625 1.675781 -1.804688 2.34375 -2.484375 C 3.019531 -3.160156 3.445312 -3.597656 3.625 -3.796875 C 3.945312 -4.171875 4.171875 -4.484375 4.296875 -4.734375 C 4.429688 -4.992188 4.5 -5.25 4.5 -5.5 C 4.5 -5.894531 4.359375 -6.21875 4.078125 -6.46875 C 3.796875 -6.726562 3.429688 -6.859375 2.984375 -6.859375 C 2.660156 -6.859375 2.316406 -6.800781 1.953125 -6.6875 C 1.597656 -6.582031 1.21875 -6.414062 0.8125 -6.1875 L 0.8125 -7.21875 C 1.226562 -7.382812 1.613281 -7.507812 1.96875 -7.59375 C 2.332031 -7.675781 2.660156 -7.71875 2.953125 -7.71875 C 3.742188 -7.71875 4.367188 -7.519531 4.828125 -7.125 C 5.296875 -6.738281 5.53125 -6.21875 5.53125 -5.5625 C 5.53125 -5.25 5.472656 -4.953125 5.359375 -4.671875 C 5.242188 -4.390625 5.03125 -4.0625 4.71875 -3.6875 C 4.632812 -3.582031 4.363281 -3.296875 3.90625 -2.828125 C 3.457031 -2.359375 2.820312 -1.703125 2 -0.859375 Z "/>
</symbol>
<symbol overflow="visible" id="glyph1-3">
<path style="stroke:none;" d="M 4.21875 -4.09375 C 4.707031 -3.988281 5.085938 -3.769531 5.359375 -3.4375 C 5.640625 -3.101562 5.78125 -2.691406 5.78125 -2.203125 C 5.78125 -1.453125 5.523438 -0.875 5.015625 -0.46875 C 4.503906 -0.0625 3.769531 0.140625 2.8125 0.140625 C 2.5 0.140625 2.171875 0.109375 1.828125 0.046875 C 1.492188 -0.015625 1.148438 -0.109375 0.796875 -0.234375 L 0.796875 -1.21875 C 1.078125 -1.050781 1.382812 -0.925781 1.71875 -0.84375 C 2.0625 -0.757812 2.421875 -0.71875 2.796875 -0.71875 C 3.429688 -0.71875 3.914062 -0.84375 4.25 -1.09375 C 4.59375 -1.351562 4.765625 -1.722656 4.765625 -2.203125 C 4.765625 -2.648438 4.609375 -3 4.296875 -3.25 C 3.984375 -3.507812 3.546875 -3.640625 2.984375 -3.640625 L 2.109375 -3.640625 L 2.109375 -4.46875 L 3.03125 -4.46875 C 3.53125 -4.46875 3.914062 -4.566406 4.1875 -4.765625 C 4.457031 -4.972656 4.59375 -5.269531 4.59375 -5.65625 C 4.59375 -6.039062 4.453125 -6.335938 4.171875 -6.546875 C 3.898438 -6.753906 3.503906 -6.859375 2.984375 -6.859375 C 2.703125 -6.859375 2.398438 -6.828125 2.078125 -6.765625 C 1.753906 -6.703125 1.398438 -6.609375 1.015625 -6.484375 L 1.015625 -7.390625 C 1.410156 -7.503906 1.773438 -7.585938 2.109375 -7.640625 C 2.453125 -7.691406 2.773438 -7.71875 3.078125 -7.71875 C 3.859375 -7.71875 4.472656 -7.539062 4.921875 -7.1875 C 5.378906 -6.832031 5.609375 -6.351562 5.609375 -5.75 C 5.609375 -5.332031 5.488281 -4.976562 5.25 -4.6875 C 5.007812 -4.40625 4.664062 -4.207031 4.21875 -4.09375 Z "/>
</symbol>
<symbol overflow="visible" id="glyph2-0">
<path style="stroke:none;" d="M 1 3.53125 L 1 -14.109375 L 11 -14.109375 L 11 3.53125 Z M 2.125 2.421875 L 9.890625 2.421875 L 9.890625 -12.984375 L 2.125 -12.984375 Z "/>
</symbol>
<symbol overflow="visible" id="glyph2-1">
<path style="stroke:none;" d="M 10.40625 -8.84375 C 10.851562 -9.644531 11.390625 -10.238281 12.015625 -10.625 C 12.640625 -11.007812 13.375 -11.203125 14.21875 -11.203125 C 15.351562 -11.203125 16.226562 -10.800781 16.84375 -10 C 17.46875 -9.207031 17.78125 -8.078125 17.78125 -6.609375 L 17.78125 0 L 15.984375 0 L 15.984375 -6.546875 C 15.984375 -7.585938 15.796875 -8.363281 15.421875 -8.875 C 15.046875 -9.382812 14.476562 -9.640625 13.71875 -9.640625 C 12.789062 -9.640625 12.054688 -9.328125 11.515625 -8.703125 C 10.972656 -8.085938 10.703125 -7.25 10.703125 -6.1875 L 10.703125 0 L 8.890625 0 L 8.890625 -6.546875 C 8.890625 -7.597656 8.703125 -8.375 8.328125 -8.875 C 7.960938 -9.382812 7.394531 -9.640625 6.625 -9.640625 C 5.707031 -9.640625 4.976562 -9.328125 4.4375 -8.703125 C 3.894531 -8.085938 3.625 -7.25 3.625 -6.1875 L 3.625 0 L 1.8125 0 L 1.8125 -10.9375 L 3.625 -10.9375 L 3.625 -9.234375 C 4.03125 -9.910156 4.519531 -10.40625 5.09375 -10.71875 C 5.664062 -11.039062 6.347656 -11.203125 7.140625 -11.203125 C 7.929688 -11.203125 8.601562 -11 9.15625 -10.59375 C 9.71875 -10.1875 10.132812 -9.601562 10.40625 -8.84375 Z "/>
</symbol>
<symbol overflow="visible" id="glyph2-2">
<path style="stroke:none;" d="M 11.234375 -5.921875 L 11.234375 -5.046875 L 2.984375 -5.046875 C 3.054688 -3.804688 3.425781 -2.859375 4.09375 -2.203125 C 4.757812 -1.554688 5.691406 -1.234375 6.890625 -1.234375 C 7.578125 -1.234375 8.242188 -1.316406 8.890625 -1.484375 C 9.535156 -1.660156 10.179688 -1.914062 10.828125 -2.25 L 10.828125 -0.5625 C 10.179688 -0.28125 9.519531 -0.0703125 8.84375 0.0625 C 8.164062 0.207031 7.476562 0.28125 6.78125 0.28125 C 5.03125 0.28125 3.644531 -0.222656 2.625 -1.234375 C 1.613281 -2.253906 1.109375 -3.628906 1.109375 -5.359375 C 1.109375 -7.148438 1.585938 -8.570312 2.546875 -9.625 C 3.515625 -10.675781 4.820312 -11.203125 6.46875 -11.203125 C 7.9375 -11.203125 9.097656 -10.726562 9.953125 -9.78125 C 10.804688 -8.832031 11.234375 -7.546875 11.234375 -5.921875 Z M 9.4375 -6.453125 C 9.425781 -7.429688 9.148438 -8.210938 8.609375 -8.796875 C 8.078125 -9.378906 7.367188 -9.671875 6.484375 -9.671875 C 5.484375 -9.671875 4.679688 -9.390625 4.078125 -8.828125 C 3.472656 -8.265625 3.125 -7.46875 3.03125 -6.4375 Z "/>
</symbol>
<symbol overflow="visible" id="glyph2-3">
<path style="stroke:none;" d="M 3.65625 -14.046875 L 3.65625 -10.9375 L 7.359375 -10.9375 L 7.359375 -9.546875 L 3.65625 -9.546875 L 3.65625 -3.609375 C 3.65625 -2.710938 3.773438 -2.132812 4.015625 -1.875 C 4.265625 -1.625 4.765625 -1.5 5.515625 -1.5 L 7.359375 -1.5 L 7.359375 0 L 5.515625 0 C 4.128906 0 3.171875 -0.253906 2.640625 -0.765625 C 2.117188 -1.285156 1.859375 -2.234375 1.859375 -3.609375 L 1.859375 -9.546875 L 0.53125 -9.546875 L 0.53125 -10.9375 L 1.859375 -10.9375 L 1.859375 -14.046875 Z "/>
</symbol>
<symbol overflow="visible" id="glyph2-4">
<path style="stroke:none;" d="M 10.984375 -6.609375 L 10.984375 0 L 9.1875 0 L 9.1875 -6.546875 C 9.1875 -7.578125 8.984375 -8.347656 8.578125 -8.859375 C 8.171875 -9.378906 7.566406 -9.640625 6.765625 -9.640625 C 5.785156 -9.640625 5.015625 -9.328125 4.453125 -8.703125 C 3.898438 -8.085938 3.625 -7.25 3.625 -6.1875 L 3.625 0 L 1.8125 0 L 1.8125 -15.203125 L 3.625 -15.203125 L 3.625 -9.234375 C 4.050781 -9.890625 4.554688 -10.378906 5.140625 -10.703125 C 5.722656 -11.035156 6.394531 -11.203125 7.15625 -11.203125 C 8.414062 -11.203125 9.367188 -10.8125 10.015625 -10.03125 C 10.660156 -9.257812 10.984375 -8.117188 10.984375 -6.609375 Z "/>
</symbol>
<symbol overflow="visible" id="glyph2-5">
<path style="stroke:none;" d="M 6.859375 -5.5 C 5.398438 -5.5 4.390625 -5.332031 3.828125 -5 C 3.273438 -4.664062 3 -4.097656 3 -3.296875 C 3 -2.660156 3.207031 -2.15625 3.625 -1.78125 C 4.050781 -1.40625 4.625 -1.21875 5.34375 -1.21875 C 6.34375 -1.21875 7.140625 -1.570312 7.734375 -2.28125 C 8.335938 -2.988281 8.640625 -3.925781 8.640625 -5.09375 L 8.640625 -5.5 Z M 10.4375 -6.234375 L 10.4375 0 L 8.640625 0 L 8.640625 -1.65625 C 8.234375 -1 7.722656 -0.507812 7.109375 -0.1875 C 6.492188 0.125 5.742188 0.28125 4.859375 0.28125 C 3.742188 0.28125 2.851562 -0.03125 2.1875 -0.65625 C 1.53125 -1.289062 1.203125 -2.132812 1.203125 -3.1875 C 1.203125 -4.414062 1.613281 -5.34375 2.4375 -5.96875 C 3.257812 -6.59375 4.488281 -6.90625 6.125 -6.90625 L 8.640625 -6.90625 L 8.640625 -7.078125 C 8.640625 -7.910156 8.367188 -8.550781 7.828125 -9 C 7.285156 -9.445312 6.519531 -9.671875 5.53125 -9.671875 C 4.90625 -9.671875 4.296875 -9.597656 3.703125 -9.453125 C 3.117188 -9.304688 2.550781 -9.082031 2 -8.78125 L 2 -10.4375 C 2.65625 -10.695312 3.289062 -10.890625 3.90625 -11.015625 C 4.53125 -11.140625 5.132812 -11.203125 5.71875 -11.203125 C 7.300781 -11.203125 8.484375 -10.789062 9.265625 -9.96875 C 10.046875 -9.144531 10.4375 -7.898438 10.4375 -6.234375 Z "/>
</symbol>
<symbol overflow="visible" id="glyph2-6">
<path style="stroke:none;" d="M 10.984375 -6.609375 L 10.984375 0 L 9.1875 0 L 9.1875 -6.546875 C 9.1875 -7.578125 8.984375 -8.347656 8.578125 -8.859375 C 8.171875 -9.378906 7.566406 -9.640625 6.765625 -9.640625 C 5.785156 -9.640625 5.015625 -9.328125 4.453125 -8.703125 C 3.898438 -8.085938 3.625 -7.25 3.625 -6.1875 L 3.625 0 L 1.8125 0 L 1.8125 -10.9375 L 3.625 -10.9375 L 3.625 -9.234375 C 4.050781 -9.890625 4.554688 -10.378906 5.140625 -10.703125 C 5.722656 -11.035156 6.394531 -11.203125 7.15625 -11.203125 C 8.414062 -11.203125 9.367188 -10.8125 10.015625 -10.03125 C 10.660156 -9.257812 10.984375 -8.117188 10.984375 -6.609375 Z "/>
</symbol>
<symbol overflow="visible" id="glyph2-7">
<path style="stroke:none;" d="M 9.734375 -5.453125 C 9.734375 -6.773438 9.460938 -7.8125 8.921875 -8.5625 C 8.378906 -9.320312 7.632812 -9.703125 6.6875 -9.703125 C 5.726562 -9.703125 4.976562 -9.320312 4.4375 -8.5625 C 3.894531 -7.8125 3.625 -6.773438 3.625 -5.453125 C 3.625 -4.140625 3.894531 -3.101562 4.4375 -2.34375 C 4.976562 -1.59375 5.726562 -1.21875 6.6875 -1.21875 C 7.632812 -1.21875 8.378906 -1.59375 8.921875 -2.34375 C 9.460938 -3.101562 9.734375 -4.140625 9.734375 -5.453125 Z M 3.625 -9.28125 C 4 -9.925781 4.472656 -10.40625 5.046875 -10.71875 C 5.628906 -11.039062 6.320312 -11.203125 7.125 -11.203125 C 8.445312 -11.203125 9.523438 -10.671875 10.359375 -9.609375 C 11.191406 -8.554688 11.609375 -7.171875 11.609375 -5.453125 C 11.609375 -3.734375 11.191406 -2.347656 10.359375 -1.296875 C 9.523438 -0.242188 8.445312 0.28125 7.125 0.28125 C 6.320312 0.28125 5.628906 0.125 5.046875 -0.1875 C 4.472656 -0.507812 4 -0.992188 3.625 -1.640625 L 3.625 0 L 1.8125 0 L 1.8125 -15.203125 L 3.625 -15.203125 Z "/>
</symbol>
<symbol overflow="visible" id="glyph2-8">
<path style="stroke:none;" d="M 1.703125 -4.3125 L 1.703125 -10.9375 L 3.5 -10.9375 L 3.5 -4.390625 C 3.5 -3.347656 3.695312 -2.566406 4.09375 -2.046875 C 4.5 -1.535156 5.109375 -1.28125 5.921875 -1.28125 C 6.890625 -1.28125 7.65625 -1.585938 8.21875 -2.203125 C 8.78125 -2.828125 9.0625 -3.671875 9.0625 -4.734375 L 9.0625 -10.9375 L 10.859375 -10.9375 L 10.859375 0 L 9.0625 0 L 9.0625 -1.6875 C 8.625 -1.019531 8.117188 -0.523438 7.546875 -0.203125 C 6.972656 0.117188 6.300781 0.28125 5.53125 0.28125 C 4.28125 0.28125 3.328125 -0.109375 2.671875 -0.890625 C 2.023438 -1.671875 1.703125 -2.8125 1.703125 -4.3125 Z M 6.21875 -11.203125 Z "/>
</symbol>
<symbol overflow="visible" id="glyph2-9">
<path style="stroke:none;" d="M 8.109375 -7.859375 C 9.054688 -7.660156 9.796875 -7.238281 10.328125 -6.59375 C 10.859375 -5.957031 11.125 -5.171875 11.125 -4.234375 C 11.125 -2.796875 10.628906 -1.679688 9.640625 -0.890625 C 8.648438 -0.109375 7.242188 0.28125 5.421875 0.28125 C 4.804688 0.28125 4.175781 0.21875 3.53125 0.09375 C 2.882812 -0.0195312 2.21875 -0.195312 1.53125 -0.4375 L 1.53125 -2.34375 C 2.070312 -2.019531 2.664062 -1.773438 3.3125 -1.609375 C 3.96875 -1.453125 4.648438 -1.375 5.359375 -1.375 C 6.597656 -1.375 7.539062 -1.617188 8.1875 -2.109375 C 8.832031 -2.597656 9.15625 -3.304688 9.15625 -4.234375 C 9.15625 -5.097656 8.851562 -5.769531 8.25 -6.25 C 7.65625 -6.738281 6.820312 -6.984375 5.75 -6.984375 L 4.046875 -6.984375 L 4.046875 -8.609375 L 5.828125 -8.609375 C 6.796875 -8.609375 7.535156 -8.800781 8.046875 -9.1875 C 8.554688 -9.570312 8.8125 -10.128906 8.8125 -10.859375 C 8.8125 -11.609375 8.546875 -12.179688 8.015625 -12.578125 C 7.492188 -12.984375 6.738281 -13.1875 5.75 -13.1875 C 5.207031 -13.1875 4.625 -13.125 4 -13 C 3.382812 -12.882812 2.707031 -12.707031 1.96875 -12.46875 L 1.96875 -14.21875 C 2.71875 -14.425781 3.414062 -14.582031 4.0625 -14.6875 C 4.71875 -14.789062 5.335938 -14.84375 5.921875 -14.84375 C 7.421875 -14.84375 8.601562 -14.5 9.46875 -13.8125 C 10.34375 -13.132812 10.78125 -12.21875 10.78125 -11.0625 C 10.78125 -10.257812 10.546875 -9.578125 10.078125 -9.015625 C 9.617188 -8.460938 8.960938 -8.078125 8.109375 -7.859375 Z "/>
</symbol>
<symbol overflow="visible" id="glyph2-10">
<path style="stroke:none;" d="M 0.984375 -6.28125 L 6.234375 -6.28125 L 6.234375 -4.671875 L 0.984375 -4.671875 Z "/>
</symbol>
<symbol overflow="visible" id="glyph2-11">
<path style="stroke:none;" d="M 6.4375 1.015625 C 5.925781 2.316406 5.429688 3.164062 4.953125 3.5625 C 4.472656 3.957031 3.828125 4.15625 3.015625 4.15625 L 1.578125 4.15625 L 1.578125 2.65625 L 2.640625 2.65625 C 3.128906 2.65625 3.507812 2.535156 3.78125 2.296875 C 4.0625 2.066406 4.367188 1.515625 4.703125 0.640625 L 5.015625 -0.171875 L 0.59375 -10.9375 L 2.5 -10.9375 L 5.921875 -2.390625 L 9.34375 -10.9375 L 11.234375 -10.9375 Z "/>
</symbol>
<symbol overflow="visible" id="glyph2-12">
<path style="stroke:none;" d="M 1.890625 -15.203125 L 3.6875 -15.203125 L 3.6875 0 L 1.890625 0 Z "/>
</symbol>
<symbol overflow="visible" id="glyph2-13">
<path style="stroke:none;" d="M 6.125 -9.671875 C 5.15625 -9.671875 4.390625 -9.296875 3.828125 -8.546875 C 3.273438 -7.796875 3 -6.765625 3 -5.453125 C 3 -4.148438 3.273438 -3.117188 3.828125 -2.359375 C 4.390625 -1.609375 5.15625 -1.234375 6.125 -1.234375 C 7.082031 -1.234375 7.835938 -1.609375 8.390625 -2.359375 C 8.953125 -3.117188 9.234375 -4.148438 9.234375 -5.453125 C 9.234375 -6.753906 8.953125 -7.78125 8.390625 -8.53125 C 7.835938 -9.289062 7.082031 -9.671875 6.125 -9.671875 Z M 6.125 -11.203125 C 7.6875 -11.203125 8.910156 -10.691406 9.796875 -9.671875 C 10.691406 -8.660156 11.140625 -7.253906 11.140625 -5.453125 C 11.140625 -3.671875 10.691406 -2.269531 9.796875 -1.25 C 8.910156 -0.226562 7.6875 0.28125 6.125 0.28125 C 4.550781 0.28125 3.320312 -0.226562 2.4375 -1.25 C 1.550781 -2.269531 1.109375 -3.671875 1.109375 -5.453125 C 1.109375 -7.253906 1.550781 -8.660156 2.4375 -9.671875 C 3.320312 -10.691406 4.550781 -11.203125 6.125 -11.203125 Z "/>
</symbol>
<symbol overflow="visible" id="glyph2-14">
<path style="stroke:none;" d="M 9.75 -10.515625 L 9.75 -8.84375 C 9.25 -9.125 8.742188 -9.332031 8.234375 -9.46875 C 7.722656 -9.601562 7.207031 -9.671875 6.6875 -9.671875 C 5.519531 -9.671875 4.613281 -9.300781 3.96875 -8.5625 C 3.320312 -7.832031 3 -6.796875 3 -5.453125 C 3 -4.117188 3.320312 -3.082031 3.96875 -2.34375 C 4.613281 -1.601562 5.519531 -1.234375 6.6875 -1.234375 C 7.207031 -1.234375 7.722656 -1.300781 8.234375 -1.4375 C 8.742188 -1.582031 9.25 -1.796875 9.75 -2.078125 L 9.75 -0.421875 C 9.25 -0.179688 8.726562 -0.00390625 8.1875 0.109375 C 7.65625 0.222656 7.085938 0.28125 6.484375 0.28125 C 4.835938 0.28125 3.53125 -0.234375 2.5625 -1.265625 C 1.59375 -2.304688 1.109375 -3.703125 1.109375 -5.453125 C 1.109375 -7.242188 1.597656 -8.648438 2.578125 -9.671875 C 3.554688 -10.691406 4.898438 -11.203125 6.609375 -11.203125 C 7.160156 -11.203125 7.695312 -11.144531 8.21875 -11.03125 C 8.75 -10.914062 9.257812 -10.742188 9.75 -10.515625 Z "/>
</symbol>
<symbol overflow="visible" id="glyph2-15">
<path style="stroke:none;" d="M 2.34375 -2.484375 L 4.40625 -2.484375 L 4.40625 -0.796875 L 2.796875 2.328125 L 1.546875 2.328125 L 2.34375 -0.796875 Z "/>
</symbol>
<symbol overflow="visible" id="glyph2-16">
<path style="stroke:none;" d="M 2.15625 -14.578125 L 9.90625 -14.578125 L 9.90625 -12.921875 L 3.96875 -12.921875 L 3.96875 -9.34375 C 4.25 -9.445312 4.53125 -9.519531 4.8125 -9.5625 C 5.101562 -9.613281 5.394531 -9.640625 5.6875 -9.640625 C 7.3125 -9.640625 8.597656 -9.191406 9.546875 -8.296875 C 10.503906 -7.410156 10.984375 -6.203125 10.984375 -4.671875 C 10.984375 -3.109375 10.492188 -1.890625 9.515625 -1.015625 C 8.535156 -0.148438 7.15625 0.28125 5.375 0.28125 C 4.769531 0.28125 4.148438 0.226562 3.515625 0.125 C 2.878906 0.0195312 2.222656 -0.132812 1.546875 -0.34375 L 1.546875 -2.328125 C 2.128906 -2.003906 2.734375 -1.765625 3.359375 -1.609375 C 3.984375 -1.453125 4.644531 -1.375 5.34375 -1.375 C 6.46875 -1.375 7.359375 -1.671875 8.015625 -2.265625 C 8.671875 -2.859375 9 -3.660156 9 -4.671875 C 9 -5.691406 8.671875 -6.5 8.015625 -7.09375 C 7.359375 -7.6875 6.46875 -7.984375 5.34375 -7.984375 C 4.8125 -7.984375 4.285156 -7.921875 3.765625 -7.796875 C 3.242188 -7.679688 2.707031 -7.5 2.15625 -7.25 Z "/>
</symbol>
<symbol overflow="visible" id="glyph2-17">
<path style="stroke:none;" d="M 9.078125 -9.28125 L 9.078125 -15.203125 L 10.875 -15.203125 L 10.875 0 L 9.078125 0 L 9.078125 -1.640625 C 8.703125 -0.992188 8.222656 -0.507812 7.640625 -0.1875 C 7.066406 0.125 6.378906 0.28125 5.578125 0.28125 C 4.253906 0.28125 3.175781 -0.242188 2.34375 -1.296875 C 1.519531 -2.347656 1.109375 -3.734375 1.109375 -5.453125 C 1.109375 -7.171875 1.519531 -8.554688 2.34375 -9.609375 C 3.175781 -10.671875 4.253906 -11.203125 5.578125 -11.203125 C 6.378906 -11.203125 7.066406 -11.039062 7.640625 -10.71875 C 8.222656 -10.40625 8.703125 -9.925781 9.078125 -9.28125 Z M 2.953125 -5.453125 C 2.953125 -4.140625 3.222656 -3.101562 3.765625 -2.34375 C 4.316406 -1.59375 5.066406 -1.21875 6.015625 -1.21875 C 6.960938 -1.21875 7.707031 -1.59375 8.25 -2.34375 C 8.800781 -3.101562 9.078125 -4.140625 9.078125 -5.453125 C 9.078125 -6.773438 8.800781 -7.8125 8.25 -8.5625 C 7.707031 -9.320312 6.960938 -9.703125 6.015625 -9.703125 C 5.066406 -9.703125 4.316406 -9.320312 3.765625 -8.5625 C 3.222656 -7.8125 2.953125 -6.773438 2.953125 -5.453125 Z "/>
</symbol>
<symbol overflow="visible" id="glyph2-18">
<path style="stroke:none;" d="M 1.890625 -10.9375 L 3.6875 -10.9375 L 3.6875 0 L 1.890625 0 Z M 1.890625 -15.203125 L 3.6875 -15.203125 L 3.6875 -12.921875 L 1.890625 -12.921875 Z "/>
</symbol>
<symbol overflow="visible" id="glyph2-19">
<path style="stroke:none;" d="M 6.203125 -15.171875 C 5.328125 -13.679688 4.675781 -12.203125 4.25 -10.734375 C 3.832031 -9.265625 3.625 -7.78125 3.625 -6.28125 C 3.625 -4.78125 3.835938 -3.289062 4.265625 -1.8125 C 4.691406 -0.332031 5.335938 1.148438 6.203125 2.640625 L 4.640625 2.640625 C 3.660156 1.109375 2.925781 -0.394531 2.4375 -1.875 C 1.957031 -3.351562 1.71875 -4.820312 1.71875 -6.28125 C 1.71875 -7.726562 1.957031 -9.1875 2.4375 -10.65625 C 2.925781 -12.132812 3.660156 -13.640625 4.640625 -15.171875 Z "/>
</symbol>
<symbol overflow="visible" id="glyph2-20">
<path style="stroke:none;" d="M 3.84375 -1.65625 L 10.71875 -1.65625 L 10.71875 0 L 1.46875 0 L 1.46875 -1.65625 C 2.21875 -2.4375 3.238281 -3.476562 4.53125 -4.78125 C 5.820312 -6.082031 6.632812 -6.925781 6.96875 -7.3125 C 7.59375 -8.019531 8.03125 -8.617188 8.28125 -9.109375 C 8.53125 -9.597656 8.65625 -10.082031 8.65625 -10.5625 C 8.65625 -11.332031 8.382812 -11.960938 7.84375 -12.453125 C 7.300781 -12.941406 6.59375 -13.1875 5.71875 -13.1875 C 5.101562 -13.1875 4.453125 -13.078125 3.765625 -12.859375 C 3.078125 -12.648438 2.34375 -12.328125 1.5625 -11.890625 L 1.5625 -13.875 C 2.351562 -14.195312 3.09375 -14.4375 3.78125 -14.59375 C 4.476562 -14.757812 5.113281 -14.84375 5.6875 -14.84375 C 7.195312 -14.84375 8.398438 -14.460938 9.296875 -13.703125 C 10.191406 -12.953125 10.640625 -11.945312 10.640625 -10.6875 C 10.640625 -10.082031 10.523438 -9.507812 10.296875 -8.96875 C 10.078125 -8.4375 9.671875 -7.804688 9.078125 -7.078125 C 8.921875 -6.890625 8.40625 -6.34375 7.53125 -5.4375 C 6.65625 -4.539062 5.425781 -3.28125 3.84375 -1.65625 Z "/>
</symbol>
<symbol overflow="visible" id="glyph2-21">
<path style="stroke:none;" d="M 7.5625 -12.859375 L 2.578125 -5.078125 L 7.5625 -5.078125 Z M 7.046875 -14.578125 L 9.515625 -14.578125 L 9.515625 -5.078125 L 11.609375 -5.078125 L 11.609375 -3.4375 L 9.515625 -3.4375 L 9.515625 0 L 7.5625 0 L 7.5625 -3.4375 L 0.984375 -3.4375 L 0.984375 -5.34375 Z "/>
</symbol>
<symbol overflow="visible" id="glyph2-22">
<path style="stroke:none;" d="M 3.625 -1.640625 L 3.625 4.15625 L 1.8125 4.15625 L 1.8125 -10.9375 L 3.625 -10.9375 L 3.625 -9.28125 C 4 -9.925781 4.472656 -10.40625 5.046875 -10.71875 C 5.628906 -11.039062 6.320312 -11.203125 7.125 -11.203125 C 8.445312 -11.203125 9.523438 -10.671875 10.359375 -9.609375 C 11.191406 -8.554688 11.609375 -7.171875 11.609375 -5.453125 C 11.609375 -3.734375 11.191406 -2.347656 10.359375 -1.296875 C 9.523438 -0.242188 8.445312 0.28125 7.125 0.28125 C 6.320312 0.28125 5.628906 0.125 5.046875 -0.1875 C 4.472656 -0.507812 4 -0.992188 3.625 -1.640625 Z M 9.734375 -5.453125 C 9.734375 -6.773438 9.460938 -7.8125 8.921875 -8.5625 C 8.378906 -9.320312 7.632812 -9.703125 6.6875 -9.703125 C 5.726562 -9.703125 4.976562 -9.320312 4.4375 -8.5625 C 3.894531 -7.8125 3.625 -6.773438 3.625 -5.453125 C 3.625 -4.140625 3.894531 -3.101562 4.4375 -2.34375 C 4.976562 -1.59375 5.726562 -1.21875 6.6875 -1.21875 C 7.632812 -1.21875 8.378906 -1.59375 8.921875 -2.34375 C 9.460938 -3.101562 9.734375 -4.140625 9.734375 -5.453125 Z "/>
</symbol>
<symbol overflow="visible" id="glyph2-23">
<path style="stroke:none;" d="M 1.609375 -15.171875 L 3.171875 -15.171875 C 4.140625 -13.640625 4.863281 -12.132812 5.34375 -10.65625 C 5.832031 -9.1875 6.078125 -7.726562 6.078125 -6.28125 C 6.078125 -4.820312 5.832031 -3.351562 5.34375 -1.875 C 4.863281 -0.394531 4.140625 1.109375 3.171875 2.640625 L 1.609375 2.640625 C 2.472656 1.148438 3.117188 -0.332031 3.546875 -1.8125 C 3.972656 -3.289062 4.1875 -4.78125 4.1875 -6.28125 C 4.1875 -7.78125 3.972656 -9.265625 3.546875 -10.734375 C 3.117188 -12.203125 2.472656 -13.679688 1.609375 -15.171875 Z "/>
</symbol>
<symbol overflow="visible" id="glyph2-24">
<path style="stroke:none;" d="M 2.484375 -1.65625 L 5.703125 -1.65625 L 5.703125 -12.78125 L 2.203125 -12.078125 L 2.203125 -13.875 L 5.6875 -14.578125 L 7.65625 -14.578125 L 7.65625 -1.65625 L 10.875 -1.65625 L 10.875 0 L 2.484375 0 Z "/>
</symbol>
<symbol overflow="visible" id="glyph2-25">
<path style="stroke:none;" d="M 1.640625 -14.578125 L 11.015625 -14.578125 L 11.015625 -13.734375 L 5.71875 0 L 3.65625 0 L 8.640625 -12.921875 L 1.640625 -12.921875 Z "/>
</symbol>
<symbol overflow="visible" id="glyph2-26">
<path style="stroke:none;" d="M 2.203125 -0.296875 L 2.203125 -2.09375 C 2.691406 -1.863281 3.191406 -1.6875 3.703125 -1.5625 C 4.210938 -1.4375 4.710938 -1.375 5.203125 -1.375 C 6.503906 -1.375 7.492188 -1.8125 8.171875 -2.6875 C 8.859375 -3.5625 9.253906 -4.894531 9.359375 -6.6875 C 8.984375 -6.125 8.503906 -5.691406 7.921875 -5.390625 C 7.335938 -5.085938 6.695312 -4.9375 6 -4.9375 C 4.539062 -4.9375 3.382812 -5.378906 2.53125 -6.265625 C 1.6875 -7.148438 1.265625 -8.359375 1.265625 -9.890625 C 1.265625 -11.378906 1.707031 -12.578125 2.59375 -13.484375 C 3.476562 -14.390625 4.65625 -14.84375 6.125 -14.84375 C 7.8125 -14.84375 9.097656 -14.195312 9.984375 -12.90625 C 10.867188 -11.613281 11.3125 -9.738281 11.3125 -7.28125 C 11.3125 -4.976562 10.765625 -3.140625 9.671875 -1.765625 C 8.585938 -0.398438 7.125 0.28125 5.28125 0.28125 C 4.789062 0.28125 4.289062 0.226562 3.78125 0.125 C 3.269531 0.03125 2.742188 -0.109375 2.203125 -0.296875 Z M 6.125 -6.484375 C 7.007812 -6.484375 7.707031 -6.785156 8.21875 -7.390625 C 8.738281 -7.992188 9 -8.828125 9 -9.890625 C 9 -10.929688 8.738281 -11.753906 8.21875 -12.359375 C 7.707031 -12.972656 7.007812 -13.28125 6.125 -13.28125 C 5.238281 -13.28125 4.535156 -12.972656 4.015625 -12.359375 C 3.503906 -11.753906 3.25 -10.929688 3.25 -9.890625 C 3.25 -8.828125 3.503906 -7.992188 4.015625 -7.390625 C 4.535156 -6.785156 5.238281 -6.484375 6.125 -6.484375 Z "/>
</symbol>
<symbol overflow="visible" id="glyph2-27">
<path style="stroke:none;" d="M 10.984375 -10.9375 L 7.015625 -5.609375 L 11.1875 0 L 9.0625 0 L 5.875 -4.296875 L 2.703125 0 L 0.578125 0 L 4.828125 -5.71875 L 0.9375 -10.9375 L 3.0625 -10.9375 L 5.953125 -7.046875 L 8.859375 -10.9375 Z "/>
</symbol>
</g>
</defs>
<g id="surface965">
<g style="fill:rgb(0%,0%,0%);fill-opacity:1;">
  <use xlink:href="#glyph0-1" x="160.503906" y="64.410156"/>
</g>
<g style="fill:rgb(0%,0%,0%);fill-opacity:1;">
  <use xlink:href="#glyph0-2" x="170.316406" y="64.207031"/>
</g>
<g style="fill:rgb(0%,0%,0%);fill-opacity:1;">
  <use xlink:href="#glyph1-1" x="181.304688" y="64.976562"/>
</g>
<g style="fill:rgb(0%,0%,0%);fill-opacity:1;">
  <use xlink:href="#glyph2-1" x="129.214844" y="137.671875"/>
  <use xlink:href="#glyph2-2" x="148.697266" y="137.671875"/>
  <use xlink:href="#glyph2-3" x="161.001953" y="137.671875"/>
  <use xlink:href="#glyph2-4" x="168.84375" y="137.671875"/>
  <use xlink:href="#glyph2-5" x="181.519531" y="137.671875"/>
  <use xlink:href="#glyph2-6" x="193.775391" y="137.671875"/>
  <use xlink:href="#glyph2-2" x="206.451172" y="137.671875"/>
</g>
<g style="fill:rgb(0%,0%,0%);fill-opacity:1;">
  <use xlink:href="#glyph0-1" x="494.125" y="71.847656"/>
</g>
<g style="fill:rgb(0%,0%,0%);fill-opacity:1;">
  <use xlink:href="#glyph0-2" x="477.382812" y="71.644531"/>
</g>
<g style="fill:rgb(0%,0%,0%);fill-opacity:1;">
  <use xlink:href="#glyph1-2" x="488.121094" y="72.539062"/>
</g>
<g style="fill:rgb(0%,0%,0%);fill-opacity:1;">
  <use xlink:href="#glyph0-1" x="572.066406" y="56.847656"/>
</g>
<g style="fill:rgb(0%,0%,0%);fill-opacity:1;">
  <use xlink:href="#glyph0-2" x="581.882812" y="56.644531"/>
</g>
<g style="fill:rgb(0%,0%,0%);fill-opacity:1;">
  <use xlink:href="#glyph1-3" x="592.589844" y="57.539062"/>
</g>
<path style="fill:none;stroke-width:0.0433333;stroke-linecap:butt;stroke-linejoin:miter;stroke:rgb(0%,0%,0%);stroke-opacity:1;stroke-miterlimit:10;" d="M 0.341443 0.302817 L 0.87686 -0.00629781 " transform="matrix(30,0,0,30,499.584824,51.165497)"/>
<path style="fill:none;stroke-width:0.0433333;stroke-linecap:butt;stroke-linejoin:miter;stroke:rgb(0%,0%,0%);stroke-opacity:1;stroke-miterlimit:10;" d="M 0.449777 0.490447 L 0.87686 0.243963 " transform="matrix(30,0,0,30,499.584824,51.165497)"/>
<path style="fill:none;stroke-width:0.0433333;stroke-linecap:butt;stroke-linejoin:miter;stroke:rgb(0%,0%,0%);stroke-opacity:1;stroke-miterlimit:10;" d="M 0.855245 -0.00629781 L 1.742876 0.506202 " transform="matrix(30,0,0,30,499.584824,51.165497)"/>
<path style="fill:none;stroke-width:0.0433333;stroke-linecap:butt;stroke-linejoin:miter;stroke:rgb(0%,0%,0%);stroke-opacity:1;stroke-miterlimit:10;" d="M 1.721261 0.506202 L 2.256548 0.197218 " transform="matrix(30,0,0,30,499.584824,51.165497)"/>
<g style="fill:rgb(0%,0%,0%);fill-opacity:1;">
  <use xlink:href="#glyph2-7" x="503.023438" y="137.671875"/>
  <use xlink:href="#glyph2-8" x="515.71875" y="137.671875"/>
  <use xlink:href="#glyph2-3" x="528.394531" y="137.671875"/>
  <use xlink:href="#glyph2-2" x="536.236328" y="137.671875"/>
  <use xlink:href="#glyph2-6" x="548.541016" y="137.671875"/>
  <use xlink:href="#glyph2-2" x="561.216797" y="137.671875"/>
</g>
<g style="fill:rgb(0%,0%,0%);fill-opacity:1;">
  <use xlink:href="#glyph0-1" x="90.953125" y="256.890625"/>
</g>
<g style="fill:rgb(0%,0%,0%);fill-opacity:1;">
  <use xlink:href="#glyph0-2" x="100.769531" y="256.6875"/>
</g>
<g style="fill:rgb(0%,0%,0%);fill-opacity:1;">
  <use xlink:href="#glyph1-3" x="111.476562" y="257.582031"/>
</g>
<g style="fill:rgb(0%,0%,0%);fill-opacity:1;">
  <use xlink:href="#glyph0-1" x="90.953125" y="166.890625"/>
</g>
<g style="fill:rgb(0%,0%,0%);fill-opacity:1;">
  <use xlink:href="#glyph0-2" x="74.042969" y="166.6875"/>
</g>
<g style="fill:rgb(0%,0%,0%);fill-opacity:1;">
  <use xlink:href="#glyph1-3" x="84.746094" y="167.582031"/>
</g>
<g style="fill:rgb(0%,0%,0%);fill-opacity:1;">
  <use xlink:href="#glyph0-1" x="246.839844" y="226.890625"/>
</g>
<g style="fill:rgb(0%,0%,0%);fill-opacity:1;">
  <use xlink:href="#glyph0-2" x="256.652344" y="226.6875"/>
</g>
<g style="fill:rgb(0%,0%,0%);fill-opacity:1;">
  <use xlink:href="#glyph1-3" x="267.359375" y="227.582031"/>
</g>
<path style="fill:none;stroke-width:0.0433333;stroke-linecap:butt;stroke-linejoin:miter;stroke:rgb(0%,0%,0%);stroke-opacity:1;stroke-miterlimit:10;" d="M 0.0000279943 2.66036 L 0.0000279943 1.987443 " transform="matrix(30,0,0,30,96.413223,161.208728)"/>
<path style="fill:none;stroke-width:0.0433333;stroke-linecap:butt;stroke-linejoin:miter;stroke:rgb(0%,0%,0%);stroke-opacity:1;stroke-miterlimit:10;" d="M -0.0107793 2.006193 L 0.866044 1.499943 " transform="matrix(30,0,0,30,96.413223,161.208728)"/>
<path style="fill:none;stroke-width:0.0433333;stroke-linecap:butt;stroke-linejoin:miter;stroke:rgb(0%,0%,0%);stroke-opacity:1;stroke-miterlimit:10;" d="M 0.866044 1.499943 L 0.866044 0.487443 " transform="matrix(30,0,0,30,96.413223,161.208728)"/>
<path style="fill:none;stroke-width:0.0433333;stroke-linecap:butt;stroke-linejoin:miter;stroke:rgb(0%,0%,0%);stroke-opacity:1;stroke-miterlimit:10;" d="M 0.876851 0.506193 L 0.341434 0.197209 " transform="matrix(30,0,0,30,96.413223,161.208728)"/>
<path style="fill:none;stroke-width:0.0433333;stroke-linecap:butt;stroke-linejoin:miter;stroke:rgb(0%,0%,0%);stroke-opacity:1;stroke-miterlimit:10;" d="M 0.866044 1.499943 L 1.742867 2.006193 " transform="matrix(30,0,0,30,96.413223,161.208728)"/>
<path style="fill:none;stroke-width:0.0433333;stroke-linecap:butt;stroke-linejoin:miter;stroke:rgb(0%,0%,0%);stroke-opacity:1;stroke-miterlimit:10;" d="M 1.721252 2.006193 L 2.608882 1.493693 " transform="matrix(30,0,0,30,96.413223,161.208728)"/>
<path style="fill:none;stroke-width:0.0433333;stroke-linecap:butt;stroke-linejoin:miter;stroke:rgb(0%,0%,0%);stroke-opacity:1;stroke-miterlimit:10;" d="M 2.587268 1.493693 L 3.474898 2.006193 " transform="matrix(30,0,0,30,96.413223,161.208728)"/>
<path style="fill:none;stroke-width:0.0433333;stroke-linecap:butt;stroke-linejoin:miter;stroke:rgb(0%,0%,0%);stroke-opacity:1;stroke-miterlimit:10;" d="M 3.453283 2.006193 L 4.340913 1.493693 " transform="matrix(30,0,0,30,96.413223,161.208728)"/>
<path style="fill:none;stroke-width:0.0433333;stroke-linecap:butt;stroke-linejoin:miter;stroke:rgb(0%,0%,0%);stroke-opacity:1;stroke-miterlimit:10;" d="M 4.319299 1.493693 L 4.854715 1.802808 " transform="matrix(30,0,0,30,96.413223,161.208728)"/>
<g style="fill:rgb(0%,0%,0%);fill-opacity:1;">
  <use xlink:href="#glyph2-9" x="101.277344" y="283.347656"/>
  <use xlink:href="#glyph2-10" x="114.001953" y="283.347656"/>
  <use xlink:href="#glyph2-2" x="121.21875" y="283.347656"/>
  <use xlink:href="#glyph2-3" x="133.523438" y="283.347656"/>
  <use xlink:href="#glyph2-4" x="141.365234" y="283.347656"/>
  <use xlink:href="#glyph2-11" x="154.041016" y="283.347656"/>
  <use xlink:href="#glyph2-12" x="165.876953" y="283.347656"/>
  <use xlink:href="#glyph2-10" x="171.433594" y="283.347656"/>
  <use xlink:href="#glyph2-13" x="178.650391" y="283.347656"/>
  <use xlink:href="#glyph2-14" x="190.886719" y="283.347656"/>
  <use xlink:href="#glyph2-3" x="201.882812" y="283.347656"/>
  <use xlink:href="#glyph2-5" x="209.724609" y="283.347656"/>
  <use xlink:href="#glyph2-6" x="221.980469" y="283.347656"/>
  <use xlink:href="#glyph2-2" x="234.65625" y="283.347656"/>
</g>
<g style="fill:rgb(0%,0%,0%);fill-opacity:1;">
  <use xlink:href="#glyph0-1" x="468.230469" y="241.890625"/>
</g>
<g style="fill:rgb(0%,0%,0%);fill-opacity:1;">
  <use xlink:href="#glyph0-2" x="451.320312" y="241.6875"/>
</g>
<g style="fill:rgb(0%,0%,0%);fill-opacity:1;">
  <use xlink:href="#glyph1-3" x="462.023438" y="242.582031"/>
</g>
<g style="fill:rgb(0%,0%,0%);fill-opacity:1;">
  <use xlink:href="#glyph0-1" x="442.25" y="196.890625"/>
</g>
<g style="fill:rgb(0%,0%,0%);fill-opacity:1;">
  <use xlink:href="#glyph0-2" x="425.335938" y="196.6875"/>
</g>
<g style="fill:rgb(0%,0%,0%);fill-opacity:1;">
  <use xlink:href="#glyph1-3" x="436.042969" y="197.582031"/>
</g>
<g style="fill:rgb(0%,0%,0%);fill-opacity:1;">
  <use xlink:href="#glyph0-1" x="572.152344" y="241.890625"/>
</g>
<g style="fill:rgb(0%,0%,0%);fill-opacity:1;">
  <use xlink:href="#glyph0-2" x="581.96875" y="241.6875"/>
</g>
<g style="fill:rgb(0%,0%,0%);fill-opacity:1;">
  <use xlink:href="#glyph1-3" x="592.675781" y="242.582031"/>
</g>
<g style="fill:rgb(0%,0%,0%);fill-opacity:1;">
  <use xlink:href="#glyph0-1" x="624.117188" y="181.890625"/>
</g>
<g style="fill:rgb(0%,0%,0%);fill-opacity:1;">
  <use xlink:href="#glyph0-2" x="633.929688" y="181.6875"/>
</g>
<g style="fill:rgb(0%,0%,0%);fill-opacity:1;">
  <use xlink:href="#glyph1-3" x="644.636719" y="182.582031"/>
</g>
<path style="fill:none;stroke-width:0.0433333;stroke-linecap:butt;stroke-linejoin:miter;stroke:rgb(0%,0%,0%);stroke-opacity:1;stroke-miterlimit:10;" d="M 1.207459 1.802808 L 1.742876 1.493693 " transform="matrix(30,0,0,30,447.709815,176.208727)"/>
<path style="fill:none;stroke-width:0.0433333;stroke-linecap:butt;stroke-linejoin:miter;stroke:rgb(0%,0%,0%);stroke-opacity:1;stroke-miterlimit:10;" d="M 1.732069 1.512574 L 1.732069 0.499943 " transform="matrix(30,0,0,30,447.709815,176.208727)"/>
<path style="fill:none;stroke-width:0.0433333;stroke-linecap:butt;stroke-linejoin:miter;stroke:rgb(0%,0%,0%);stroke-opacity:1;stroke-miterlimit:10;" d="M 1.732069 0.499943 L 0.855246 -0.00630652 " transform="matrix(30,0,0,30,447.709815,176.208727)"/>
<path style="fill:none;stroke-width:0.0433333;stroke-linecap:butt;stroke-linejoin:miter;stroke:rgb(0%,0%,0%);stroke-opacity:1;stroke-miterlimit:10;" d="M 0.87686 -0.00630652 L 0.341444 0.302808 " transform="matrix(30,0,0,30,447.709815,176.208727)"/>
<path style="fill:none;stroke-width:0.0433333;stroke-linecap:butt;stroke-linejoin:miter;stroke:rgb(0%,0%,0%);stroke-opacity:1;stroke-miterlimit:10;" d="M 1.732069 0.499943 L 2.608892 -0.00630652 " transform="matrix(30,0,0,30,447.709815,176.208727)"/>
<path style="fill:none;stroke-width:0.0433333;stroke-linecap:butt;stroke-linejoin:miter;stroke:rgb(0%,0%,0%);stroke-opacity:1;stroke-miterlimit:10;" d="M 2.587277 -0.00630652 L 3.4641 0.499943 " transform="matrix(30,0,0,30,447.709815,176.208727)"/>
<path style="fill:none;stroke-width:0.0433333;stroke-linecap:butt;stroke-linejoin:miter;stroke:rgb(0%,0%,0%);stroke-opacity:1;stroke-miterlimit:10;" d="M 3.4641 0.499943 L 3.4641 1.512574 " transform="matrix(30,0,0,30,447.709815,176.208727)"/>
<path style="fill:none;stroke-width:0.0433333;stroke-linecap:butt;stroke-linejoin:miter;stroke:rgb(0%,0%,0%);stroke-opacity:1;stroke-miterlimit:10;" d="M 3.453293 1.493693 L 3.988579 1.802808 " transform="matrix(30,0,0,30,447.709815,176.208727)"/>
<path style="fill:none;stroke-width:0.0433333;stroke-linecap:butt;stroke-linejoin:miter;stroke:rgb(0%,0%,0%);stroke-opacity:1;stroke-miterlimit:10;" d="M 3.4641 0.499943 L 4.340923 -0.00630652 " transform="matrix(30,0,0,30,447.709815,176.208727)"/>
<path style="fill:none;stroke-width:0.0433333;stroke-linecap:butt;stroke-linejoin:miter;stroke:rgb(0%,0%,0%);stroke-opacity:1;stroke-miterlimit:10;" d="M 4.319308 -0.00630652 L 5.206938 0.506193 " transform="matrix(30,0,0,30,447.709815,176.208727)"/>
<path style="fill:none;stroke-width:0.0433333;stroke-linecap:butt;stroke-linejoin:miter;stroke:rgb(0%,0%,0%);stroke-opacity:1;stroke-miterlimit:10;" d="M 5.185324 0.506193 L 5.720741 0.197209 " transform="matrix(30,0,0,30,447.709815,176.208727)"/>
<g style="fill:rgb(0%,0%,0%);fill-opacity:1;">
  <use xlink:href="#glyph2-9" x="446.898438" y="283.347656"/>
  <use xlink:href="#glyph2-15" x="459.623047" y="283.347656"/>
  <use xlink:href="#glyph2-16" x="465.980469" y="283.347656"/>
  <use xlink:href="#glyph2-10" x="478.705078" y="283.347656"/>
  <use xlink:href="#glyph2-17" x="485.921875" y="283.347656"/>
  <use xlink:href="#glyph2-18" x="498.617188" y="283.347656"/>
  <use xlink:href="#glyph2-2" x="504.173828" y="283.347656"/>
  <use xlink:href="#glyph2-3" x="516.478516" y="283.347656"/>
  <use xlink:href="#glyph2-4" x="524.320312" y="283.347656"/>
  <use xlink:href="#glyph2-11" x="536.996094" y="283.347656"/>
  <use xlink:href="#glyph2-12" x="548.832031" y="283.347656"/>
  <use xlink:href="#glyph2-10" x="554.388672" y="283.347656"/>
  <use xlink:href="#glyph2-13" x="561.605469" y="283.347656"/>
  <use xlink:href="#glyph2-14" x="573.841797" y="283.347656"/>
  <use xlink:href="#glyph2-3" x="584.837891" y="283.347656"/>
  <use xlink:href="#glyph2-5" x="592.679688" y="283.347656"/>
  <use xlink:href="#glyph2-6" x="604.935547" y="283.347656"/>
  <use xlink:href="#glyph2-2" x="617.611328" y="283.347656"/>
</g>
<g style="fill:rgb(0%,0%,0%);fill-opacity:1;">
  <use xlink:href="#glyph0-1" x="194.875" y="389.503906"/>
</g>
<g style="fill:rgb(0%,0%,0%);fill-opacity:1;">
  <use xlink:href="#glyph0-2" x="204.691406" y="389.300781"/>
</g>
<g style="fill:rgb(0%,0%,0%);fill-opacity:1;">
  <use xlink:href="#glyph1-3" x="215.398438" y="390.195312"/>
</g>
<g style="fill:rgb(0%,0%,0%);fill-opacity:1;">
  <use xlink:href="#glyph0-1" x="116.933594" y="374.503906"/>
</g>
<g style="fill:rgb(0%,0%,0%);fill-opacity:1;">
  <use xlink:href="#glyph0-2" x="126.75" y="374.300781"/>
</g>
<g style="fill:rgb(0%,0%,0%);fill-opacity:1;">
  <use xlink:href="#glyph1-3" x="137.453125" y="375.195312"/>
</g>
<g style="fill:rgb(0%,0%,0%);fill-opacity:1;">
  <use xlink:href="#glyph0-1" x="64.972656" y="374.503906"/>
</g>
<g style="fill:rgb(0%,0%,0%);fill-opacity:1;">
  <use xlink:href="#glyph0-2" x="74.789062" y="374.300781"/>
</g>
<g style="fill:rgb(0%,0%,0%);fill-opacity:1;">
  <use xlink:href="#glyph1-3" x="85.492188" y="375.195312"/>
</g>
<g style="fill:rgb(0%,0%,0%);fill-opacity:1;">
  <use xlink:href="#glyph0-1" x="38.992188" y="329.503906"/>
</g>
<g style="fill:rgb(0%,0%,0%);fill-opacity:1;">
  <use xlink:href="#glyph0-2" x="22.078125" y="329.300781"/>
</g>
<g style="fill:rgb(0%,0%,0%);fill-opacity:1;">
  <use xlink:href="#glyph1-3" x="32.785156" y="330.195312"/>
</g>
<g style="fill:rgb(0%,0%,0%);fill-opacity:1;">
  <use xlink:href="#glyph0-1" x="298.796875" y="329.503906"/>
</g>
<g style="fill:rgb(0%,0%,0%);fill-opacity:1;">
  <use xlink:href="#glyph0-2" x="308.613281" y="329.300781"/>
</g>
<g style="fill:rgb(0%,0%,0%);fill-opacity:1;">
  <use xlink:href="#glyph1-3" x="319.320312" y="330.195312"/>
</g>
<path style="fill:none;stroke-width:0.0433333;stroke-linecap:butt;stroke-linejoin:miter;stroke:rgb(0%,0%,0%);stroke-opacity:1;stroke-miterlimit:10;" d="M 4.85465 1.802799 L 4.319233 1.493685 " transform="matrix(30,0,0,30,44.450347,323.822267)"/>
<path style="fill:none;stroke-width:0.0433333;stroke-linecap:butt;stroke-linejoin:miter;stroke:rgb(0%,0%,0%);stroke-opacity:1;stroke-miterlimit:10;" d="M 4.330171 1.512565 L 4.330171 0.500065 " transform="matrix(30,0,0,30,44.450347,323.822267)"/>
<path style="fill:none;stroke-width:0.0433333;stroke-linecap:butt;stroke-linejoin:miter;stroke:rgb(0%,0%,0%);stroke-opacity:1;stroke-miterlimit:10;" d="M 4.330171 0.500065 L 3.453218 -0.00631516 " transform="matrix(30,0,0,30,44.450347,323.822267)"/>
<path style="fill:none;stroke-width:0.0433333;stroke-linecap:butt;stroke-linejoin:miter;stroke:rgb(0%,0%,0%);stroke-opacity:1;stroke-miterlimit:10;" d="M 3.474962 -0.00631516 L 2.598139 0.500065 " transform="matrix(30,0,0,30,44.450347,323.822267)"/>
<path style="fill:none;stroke-width:0.0433333;stroke-linecap:butt;stroke-linejoin:miter;stroke:rgb(0%,0%,0%);stroke-opacity:1;stroke-miterlimit:10;" d="M 2.598139 0.500065 L 2.598139 1.160352 " transform="matrix(30,0,0,30,44.450347,323.822267)"/>
<path style="fill:none;stroke-width:0.0433333;stroke-linecap:butt;stroke-linejoin:miter;stroke:rgb(0%,0%,0%);stroke-opacity:1;stroke-miterlimit:10;" d="M 2.598139 0.500065 L 1.721186 -0.00631516 " transform="matrix(30,0,0,30,44.450347,323.822267)"/>
<path style="fill:none;stroke-width:0.0433333;stroke-linecap:butt;stroke-linejoin:miter;stroke:rgb(0%,0%,0%);stroke-opacity:1;stroke-miterlimit:10;" d="M 1.742931 -0.00631516 L 0.865978 0.500065 " transform="matrix(30,0,0,30,44.450347,323.822267)"/>
<path style="fill:none;stroke-width:0.0433333;stroke-linecap:butt;stroke-linejoin:miter;stroke:rgb(0%,0%,0%);stroke-opacity:1;stroke-miterlimit:10;" d="M 0.865978 0.500065 L 0.865978 1.160352 " transform="matrix(30,0,0,30,44.450347,323.822267)"/>
<path style="fill:none;stroke-width:0.0433333;stroke-linecap:butt;stroke-linejoin:miter;stroke:rgb(0%,0%,0%);stroke-opacity:1;stroke-miterlimit:10;" d="M 0.865978 0.500065 L 0.341499 0.1972 " transform="matrix(30,0,0,30,44.450347,323.822267)"/>
<path style="fill:none;stroke-width:0.0433333;stroke-linecap:butt;stroke-linejoin:miter;stroke:rgb(0%,0%,0%);stroke-opacity:1;stroke-miterlimit:10;" d="M 4.330171 0.500065 L 5.206994 -0.00631516 " transform="matrix(30,0,0,30,44.450347,323.822267)"/>
<path style="fill:none;stroke-width:0.0433333;stroke-linecap:butt;stroke-linejoin:miter;stroke:rgb(0%,0%,0%);stroke-opacity:1;stroke-miterlimit:10;" d="M 5.185379 -0.00631516 L 6.073009 0.506315 " transform="matrix(30,0,0,30,44.450347,323.822267)"/>
<path style="fill:none;stroke-width:0.0433333;stroke-linecap:butt;stroke-linejoin:miter;stroke:rgb(0%,0%,0%);stroke-opacity:1;stroke-miterlimit:10;" d="M 6.051395 0.506315 L 6.939025 -0.00631516 " transform="matrix(30,0,0,30,44.450347,323.822267)"/>
<path style="fill:none;stroke-width:0.0433333;stroke-linecap:butt;stroke-linejoin:miter;stroke:rgb(0%,0%,0%);stroke-opacity:1;stroke-miterlimit:10;" d="M 6.91741 -0.00631516 L 7.805041 0.506315 " transform="matrix(30,0,0,30,44.450347,323.822267)"/>
<path style="fill:none;stroke-width:0.0433333;stroke-linecap:butt;stroke-linejoin:miter;stroke:rgb(0%,0%,0%);stroke-opacity:1;stroke-miterlimit:10;" d="M 7.783426 0.506315 L 8.318712 0.1972 " transform="matrix(30,0,0,30,44.450347,323.822267)"/>
<g style="fill:rgb(0%,0%,0%);fill-opacity:1;">
  <use xlink:href="#glyph2-9" x="20.03125" y="430.960938"/>
  <use xlink:href="#glyph2-10" x="32.755859" y="430.960938"/>
  <use xlink:href="#glyph2-19" x="39.972656" y="430.960938"/>
  <use xlink:href="#glyph2-20" x="47.775391" y="430.960938"/>
  <use xlink:href="#glyph2-15" x="60.5" y="430.960938"/>
  <use xlink:href="#glyph2-21" x="66.857422" y="430.960938"/>
  <use xlink:href="#glyph2-10" x="79.582031" y="430.960938"/>
  <use xlink:href="#glyph2-17" x="86.798828" y="430.960938"/>
  <use xlink:href="#glyph2-18" x="99.494141" y="430.960938"/>
  <use xlink:href="#glyph2-1" x="105.050781" y="430.960938"/>
  <use xlink:href="#glyph2-2" x="124.533203" y="430.960938"/>
  <use xlink:href="#glyph2-3" x="136.837891" y="430.960938"/>
  <use xlink:href="#glyph2-4" x="144.679688" y="430.960938"/>
  <use xlink:href="#glyph2-11" x="157.355469" y="430.960938"/>
  <use xlink:href="#glyph2-12" x="169.191406" y="430.960938"/>
  <use xlink:href="#glyph2-10" x="174.748047" y="430.960938"/>
  <use xlink:href="#glyph2-22" x="181.964844" y="430.960938"/>
  <use xlink:href="#glyph2-2" x="194.660156" y="430.960938"/>
  <use xlink:href="#glyph2-6" x="206.964844" y="430.960938"/>
  <use xlink:href="#glyph2-3" x="219.640625" y="430.960938"/>
  <use xlink:href="#glyph2-11" x="227.482422" y="430.960938"/>
  <use xlink:href="#glyph2-12" x="239.318359" y="430.960938"/>
  <use xlink:href="#glyph2-23" x="244.875" y="430.960938"/>
  <use xlink:href="#glyph2-10" x="252.677734" y="430.960938"/>
  <use xlink:href="#glyph2-13" x="259.894531" y="430.960938"/>
  <use xlink:href="#glyph2-14" x="272.130859" y="430.960938"/>
  <use xlink:href="#glyph2-3" x="283.126953" y="430.960938"/>
  <use xlink:href="#glyph2-5" x="290.96875" y="430.960938"/>
  <use xlink:href="#glyph2-6" x="303.224609" y="430.960938"/>
  <use xlink:href="#glyph2-2" x="315.900391" y="430.960938"/>
</g>
<path style="fill:none;stroke-width:0.0433333;stroke-linecap:butt;stroke-linejoin:miter;stroke:rgb(0%,0%,0%);stroke-opacity:1;stroke-miterlimit:10;" d="M 1.716118 0.0000649773 L 0.698149 0.0000649773 " transform="matrix(30,0,0,30,502.430527,317.916019)"/>
<path style="fill:none;stroke-width:0.0433333;stroke-linecap:butt;stroke-linejoin:miter;stroke:rgb(0%,0%,0%);stroke-opacity:1;stroke-miterlimit:10;" d="M 0.713514 -0.00631523 L -0.00640818 0.713476 " transform="matrix(30,0,0,30,502.430527,317.916019)"/>
<path style="fill:none;stroke-width:0.0433333;stroke-linecap:butt;stroke-linejoin:miter;stroke:rgb(0%,0%,0%);stroke-opacity:1;stroke-miterlimit:10;" d="M -0.0000279742 0.698112 L -0.0000279742 1.716081 " transform="matrix(30,0,0,30,502.430527,317.916019)"/>
<path style="fill:none;stroke-width:0.0433333;stroke-linecap:butt;stroke-linejoin:miter;stroke:rgb(0%,0%,0%);stroke-opacity:1;stroke-miterlimit:10;" d="M -0.00640818 1.700716 L 0.713514 2.420508 " transform="matrix(30,0,0,30,502.430527,317.916019)"/>
<path style="fill:none;stroke-width:0.0433333;stroke-linecap:butt;stroke-linejoin:miter;stroke:rgb(0%,0%,0%);stroke-opacity:1;stroke-miterlimit:10;" d="M 0.698149 2.414258 L 1.716118 2.414258 " transform="matrix(30,0,0,30,502.430527,317.916019)"/>
<path style="fill:none;stroke-width:0.0433333;stroke-linecap:butt;stroke-linejoin:miter;stroke:rgb(0%,0%,0%);stroke-opacity:1;stroke-miterlimit:10;" d="M 1.700753 2.420508 L 2.420545 1.700716 " transform="matrix(30,0,0,30,502.430527,317.916019)"/>
<path style="fill:none;stroke-width:0.0433333;stroke-linecap:butt;stroke-linejoin:miter;stroke:rgb(0%,0%,0%);stroke-opacity:1;stroke-miterlimit:10;" d="M 2.414165 1.716081 L 2.414165 0.698112 " transform="matrix(30,0,0,30,502.430527,317.916019)"/>
<path style="fill:none;stroke-width:0.0433333;stroke-linecap:butt;stroke-linejoin:miter;stroke:rgb(0%,0%,0%);stroke-opacity:1;stroke-miterlimit:10;" d="M 2.420545 0.713476 L 1.700753 -0.00631523 " transform="matrix(30,0,0,30,502.430527,317.916019)"/>
<g style="fill:rgb(0%,0%,0%);fill-opacity:1;">
  <use xlink:href="#glyph2-14" x="478.652344" y="430.960938"/>
  <use xlink:href="#glyph2-11" x="489.648438" y="430.960938"/>
  <use xlink:href="#glyph2-14" x="501.484375" y="430.960938"/>
  <use xlink:href="#glyph2-12" x="512.480469" y="430.960938"/>
  <use xlink:href="#glyph2-13" x="518.037109" y="430.960938"/>
  <use xlink:href="#glyph2-13" x="530.273438" y="430.960938"/>
  <use xlink:href="#glyph2-14" x="542.509766" y="430.960938"/>
  <use xlink:href="#glyph2-3" x="553.505859" y="430.960938"/>
  <use xlink:href="#glyph2-5" x="561.347656" y="430.960938"/>
  <use xlink:href="#glyph2-6" x="573.603516" y="430.960938"/>
  <use xlink:href="#glyph2-2" x="586.279297" y="430.960938"/>
</g>
<g style="fill:rgb(0%,0%,0%);fill-opacity:1;">
  <use xlink:href="#glyph0-1" x="105.511719" y="540.582031"/>
</g>
<g style="fill:rgb(0%,0%,0%);fill-opacity:1;">
  <use xlink:href="#glyph0-2" x="88.601562" y="540.378906"/>
</g>
<g style="fill:rgb(0%,0%,0%);fill-opacity:1;">
  <use xlink:href="#glyph1-3" x="99.304688" y="541.273438"/>
</g>
<g style="fill:rgb(0%,0%,0%);fill-opacity:1;">
  <use xlink:href="#glyph0-1" x="232.277344" y="549.4375"/>
</g>
<g style="fill:rgb(0%,0%,0%);fill-opacity:1;">
  <use xlink:href="#glyph0-2" x="242.09375" y="549.234375"/>
</g>
<g style="fill:rgb(0%,0%,0%);fill-opacity:1;">
  <use xlink:href="#glyph1-3" x="252.800781" y="550.128906"/>
</g>
<path style="fill:none;stroke-width:0.0433333;stroke-linecap:butt;stroke-linejoin:miter;stroke:rgb(0%,0%,0%);stroke-opacity:1;stroke-miterlimit:10;" d="M 1.03896 0.251033 L 0.530106 1.132673 " transform="matrix(30,0,0,30,110.971816,453.914337)"/>
<path style="fill:none;stroke-width:0.0433333;stroke-linecap:butt;stroke-linejoin:miter;stroke:rgb(0%,0%,0%);stroke-opacity:1;stroke-miterlimit:10;" d="M 0.532189 1.116137 L 0.793387 2.090746 " transform="matrix(30,0,0,30,110.971816,453.914337)"/>
<path style="fill:none;stroke-width:0.0433333;stroke-linecap:butt;stroke-linejoin:miter;stroke:rgb(0%,0%,0%);stroke-opacity:1;stroke-miterlimit:10;" d="M 0.793387 2.090746 L 0.322554 2.451944 " transform="matrix(30,0,0,30,110.971816,453.914337)"/>
<path style="fill:none;stroke-width:0.0433333;stroke-linecap:butt;stroke-linejoin:miter;stroke:rgb(0%,0%,0%);stroke-opacity:1;stroke-miterlimit:10;" d="M 0.793387 2.090746 L 1.667215 2.595303 " transform="matrix(30,0,0,30,110.971816,453.914337)"/>
<path style="fill:none;stroke-width:0.0433333;stroke-linecap:butt;stroke-linejoin:miter;stroke:rgb(0%,0%,0%);stroke-opacity:1;stroke-miterlimit:10;" d="M 1.650679 2.59309 L 2.625288 2.331892 " transform="matrix(30,0,0,30,110.971816,453.914337)"/>
<path style="fill:none;stroke-width:0.0433333;stroke-linecap:butt;stroke-linejoin:miter;stroke:rgb(0%,0%,0%);stroke-opacity:1;stroke-miterlimit:10;" d="M 2.625288 2.331892 L 3.241695 3.135277 " transform="matrix(30,0,0,30,110.971816,453.914337)"/>
<path style="fill:none;stroke-width:0.0433333;stroke-linecap:butt;stroke-linejoin:miter;stroke:rgb(0%,0%,0%);stroke-opacity:1;stroke-miterlimit:10;" d="M 3.221643 3.126944 L 3.913439 3.035928 " transform="matrix(30,0,0,30,110.971816,453.914337)"/>
<path style="fill:none;stroke-width:0.0433333;stroke-linecap:butt;stroke-linejoin:miter;stroke:rgb(0%,0%,0%);stroke-opacity:1;stroke-miterlimit:10;" d="M 2.625288 2.331892 L 3.129846 1.458194 " transform="matrix(30,0,0,30,110.971816,453.914337)"/>
<path style="fill:none;stroke-width:0.0433333;stroke-linecap:butt;stroke-linejoin:miter;stroke:rgb(0%,0%,0%);stroke-opacity:1;stroke-miterlimit:10;" d="M 3.127632 1.4746 L 2.864221 0.491267 " transform="matrix(30,0,0,30,110.971816,453.914337)"/>
<path style="fill:none;stroke-width:0.0433333;stroke-linecap:butt;stroke-linejoin:miter;stroke:rgb(0%,0%,0%);stroke-opacity:1;stroke-miterlimit:10;" d="M 2.874247 0.504548 L 1.992736 -0.00443624 " transform="matrix(30,0,0,30,110.971816,453.914337)"/>
<path style="fill:none;stroke-width:0.0433333;stroke-linecap:butt;stroke-linejoin:miter;stroke:rgb(0%,0%,0%);stroke-opacity:1;stroke-miterlimit:10;" d="M 2.009143 -0.00235291 L 1.025809 0.261189 " transform="matrix(30,0,0,30,110.971816,453.914337)"/>
<g style="fill:rgb(0%,0%,0%);fill-opacity:1;">
  <use xlink:href="#glyph2-9" x="27.039062" y="578.574219"/>
  <use xlink:href="#glyph2-10" x="39.763672" y="578.574219"/>
  <use xlink:href="#glyph2-1" x="46.980469" y="578.574219"/>
  <use xlink:href="#glyph2-2" x="66.462891" y="578.574219"/>
  <use xlink:href="#glyph2-3" x="78.767578" y="578.574219"/>
  <use xlink:href="#glyph2-4" x="86.609375" y="578.574219"/>
  <use xlink:href="#glyph2-11" x="99.285156" y="578.574219"/>
  <use xlink:href="#glyph2-12" x="111.121094" y="578.574219"/>
  <use xlink:href="#glyph2-10" x="116.677734" y="578.574219"/>
  <use xlink:href="#glyph2-16" x="123.894531" y="578.574219"/>
  <use xlink:href="#glyph2-10" x="136.619141" y="578.574219"/>
  <use xlink:href="#glyph2-2" x="143.835938" y="578.574219"/>
  <use xlink:href="#glyph2-3" x="156.140625" y="578.574219"/>
  <use xlink:href="#glyph2-4" x="163.982422" y="578.574219"/>
  <use xlink:href="#glyph2-11" x="176.658203" y="578.574219"/>
  <use xlink:href="#glyph2-12" x="188.494141" y="578.574219"/>
  <use xlink:href="#glyph2-10" x="194.050781" y="578.574219"/>
  <use xlink:href="#glyph2-14" x="201.267578" y="578.574219"/>
  <use xlink:href="#glyph2-11" x="212.263672" y="578.574219"/>
  <use xlink:href="#glyph2-14" x="224.099609" y="578.574219"/>
  <use xlink:href="#glyph2-12" x="235.095703" y="578.574219"/>
  <use xlink:href="#glyph2-13" x="240.652344" y="578.574219"/>
  <use xlink:href="#glyph2-13" x="252.888672" y="578.574219"/>
  <use xlink:href="#glyph2-14" x="265.125" y="578.574219"/>
  <use xlink:href="#glyph2-3" x="276.121094" y="578.574219"/>
  <use xlink:href="#glyph2-5" x="283.962891" y="578.574219"/>
  <use xlink:href="#glyph2-6" x="296.21875" y="578.574219"/>
  <use xlink:href="#glyph2-2" x="308.894531" y="578.574219"/>
</g>
<path style="fill:none;stroke-width:0.0433333;stroke-linecap:butt;stroke-linejoin:miter;stroke:rgb(0%,0%,0%);stroke-opacity:1;stroke-miterlimit:10;" d="M 2.371782 -0.00000915515 L 1.360193 -0.00000915515 " transform="matrix(30,0,0,30,482.662949,445.761993)"/>
<path style="fill:none;stroke-width:0.0433333;stroke-linecap:butt;stroke-linejoin:miter;stroke:rgb(0%,0%,0%);stroke-opacity:1;stroke-miterlimit:10;" d="M 2.313839 0.216658 L 1.418266 0.216658 " transform="matrix(30,0,0,30,482.662949,445.761993)"/>
<path style="fill:none;stroke-width:0.0433333;stroke-linecap:butt;stroke-linejoin:miter;stroke:rgb(0%,0%,0%);stroke-opacity:1;stroke-miterlimit:10;" d="M 1.371001 -0.00287374 L 0.494959 0.502855 " transform="matrix(30,0,0,30,482.662949,445.761993)"/>
<path style="fill:none;stroke-width:0.0433333;stroke-linecap:butt;stroke-linejoin:miter;stroke:rgb(0%,0%,0%);stroke-opacity:1;stroke-miterlimit:10;" d="M 0.502902 0.494913 L -0.00295766 1.371085 " transform="matrix(30,0,0,30,482.662949,445.761993)"/>
<path style="fill:none;stroke-width:0.0433333;stroke-linecap:butt;stroke-linejoin:miter;stroke:rgb(0%,0%,0%);stroke-opacity:1;stroke-miterlimit:10;" d="M 0.661495 0.653637 L 0.213709 1.429158 " transform="matrix(30,0,0,30,482.662949,445.761993)"/>
<path style="fill:none;stroke-width:0.0433333;stroke-linecap:butt;stroke-linejoin:miter;stroke:rgb(0%,0%,0%);stroke-opacity:1;stroke-miterlimit:10;" d="M 0.0000371298 1.360277 L 0.0000371298 2.371866 " transform="matrix(30,0,0,30,482.662949,445.761993)"/>
<path style="fill:none;stroke-width:0.0433333;stroke-linecap:butt;stroke-linejoin:miter;stroke:rgb(0%,0%,0%);stroke-opacity:1;stroke-miterlimit:10;" d="M -0.00295766 2.361059 L 0.502902 3.2371 " transform="matrix(30,0,0,30,482.662949,445.761993)"/>
<path style="fill:none;stroke-width:0.0433333;stroke-linecap:butt;stroke-linejoin:miter;stroke:rgb(0%,0%,0%);stroke-opacity:1;stroke-miterlimit:10;" d="M 0.213709 2.302986 L 0.661495 3.078506 " transform="matrix(30,0,0,30,482.662949,445.761993)"/>
<path style="fill:none;stroke-width:0.0433333;stroke-linecap:butt;stroke-linejoin:miter;stroke:rgb(0%,0%,0%);stroke-opacity:1;stroke-miterlimit:10;" d="M 0.494959 3.229158 L 1.371001 3.735017 " transform="matrix(30,0,0,30,482.662949,445.761993)"/>
<path style="fill:none;stroke-width:0.0433333;stroke-linecap:butt;stroke-linejoin:miter;stroke:rgb(0%,0%,0%);stroke-opacity:1;stroke-miterlimit:10;" d="M 1.360193 3.732022 L 2.371782 3.732022 " transform="matrix(30,0,0,30,482.662949,445.761993)"/>
<path style="fill:none;stroke-width:0.0433333;stroke-linecap:butt;stroke-linejoin:miter;stroke:rgb(0%,0%,0%);stroke-opacity:1;stroke-miterlimit:10;" d="M 1.418266 3.515355 L 2.313709 3.515355 " transform="matrix(30,0,0,30,482.662949,445.761993)"/>
<path style="fill:none;stroke-width:0.0433333;stroke-linecap:butt;stroke-linejoin:miter;stroke:rgb(0%,0%,0%);stroke-opacity:1;stroke-miterlimit:10;" d="M 2.360975 3.735017 L 3.237016 3.229158 " transform="matrix(30,0,0,30,482.662949,445.761993)"/>
<path style="fill:none;stroke-width:0.0433333;stroke-linecap:butt;stroke-linejoin:miter;stroke:rgb(0%,0%,0%);stroke-opacity:1;stroke-miterlimit:10;" d="M 3.229204 3.2371 L 3.734933 2.361059 " transform="matrix(30,0,0,30,482.662949,445.761993)"/>
<path style="fill:none;stroke-width:0.0433333;stroke-linecap:butt;stroke-linejoin:miter;stroke:rgb(0%,0%,0%);stroke-opacity:1;stroke-miterlimit:10;" d="M 3.07048 3.078506 L 3.518266 2.302986 " transform="matrix(30,0,0,30,482.662949,445.761993)"/>
<path style="fill:none;stroke-width:0.0433333;stroke-linecap:butt;stroke-linejoin:miter;stroke:rgb(0%,0%,0%);stroke-opacity:1;stroke-miterlimit:10;" d="M 3.732068 2.371866 L 3.732068 1.360277 " transform="matrix(30,0,0,30,482.662949,445.761993)"/>
<path style="fill:none;stroke-width:0.0433333;stroke-linecap:butt;stroke-linejoin:miter;stroke:rgb(0%,0%,0%);stroke-opacity:1;stroke-miterlimit:10;" d="M 3.734933 1.371085 L 3.229204 0.494913 " transform="matrix(30,0,0,30,482.662949,445.761993)"/>
<path style="fill:none;stroke-width:0.0433333;stroke-linecap:butt;stroke-linejoin:miter;stroke:rgb(0%,0%,0%);stroke-opacity:1;stroke-miterlimit:10;" d="M 3.518266 1.429158 L 3.07048 0.653637 " transform="matrix(30,0,0,30,482.662949,445.761993)"/>
<path style="fill:none;stroke-width:0.0433333;stroke-linecap:butt;stroke-linejoin:miter;stroke:rgb(0%,0%,0%);stroke-opacity:1;stroke-miterlimit:10;" d="M 3.237016 0.502855 L 2.360975 -0.00287374 " transform="matrix(30,0,0,30,482.662949,445.761993)"/>
<g style="fill:rgb(0%,0%,0%);fill-opacity:1;">
  <use xlink:href="#glyph2-14" x="365.390625" y="578.574219"/>
  <use xlink:href="#glyph2-11" x="376.386719" y="578.574219"/>
  <use xlink:href="#glyph2-14" x="388.222656" y="578.574219"/>
  <use xlink:href="#glyph2-12" x="399.21875" y="578.574219"/>
  <use xlink:href="#glyph2-13" x="404.775391" y="578.574219"/>
  <use xlink:href="#glyph2-17" x="417.011719" y="578.574219"/>
  <use xlink:href="#glyph2-13" x="429.707031" y="578.574219"/>
  <use xlink:href="#glyph2-17" x="441.943359" y="578.574219"/>
  <use xlink:href="#glyph2-2" x="454.638672" y="578.574219"/>
  <use xlink:href="#glyph2-14" x="466.943359" y="578.574219"/>
  <use xlink:href="#glyph2-5" x="477.939453" y="578.574219"/>
  <use xlink:href="#glyph2-10" x="490.195312" y="578.574219"/>
  <use xlink:href="#glyph2-24" x="497.412109" y="578.574219"/>
  <use xlink:href="#glyph2-15" x="510.136719" y="578.574219"/>
  <use xlink:href="#glyph2-9" x="516.494141" y="578.574219"/>
  <use xlink:href="#glyph2-15" x="529.21875" y="578.574219"/>
  <use xlink:href="#glyph2-16" x="535.576172" y="578.574219"/>
  <use xlink:href="#glyph2-15" x="548.300781" y="578.574219"/>
  <use xlink:href="#glyph2-25" x="554.658203" y="578.574219"/>
  <use xlink:href="#glyph2-15" x="567.382812" y="578.574219"/>
  <use xlink:href="#glyph2-26" x="573.740234" y="578.574219"/>
  <use xlink:href="#glyph2-15" x="586.464844" y="578.574219"/>
  <use xlink:href="#glyph2-24" x="592.822266" y="578.574219"/>
  <use xlink:href="#glyph2-24" x="605.546875" y="578.574219"/>
  <use xlink:href="#glyph2-10" x="618.271484" y="578.574219"/>
  <use xlink:href="#glyph2-4" x="625.488281" y="578.574219"/>
  <use xlink:href="#glyph2-2" x="638.164062" y="578.574219"/>
  <use xlink:href="#glyph2-27" x="650.46875" y="578.574219"/>
  <use xlink:href="#glyph2-5" x="662.304688" y="578.574219"/>
  <use xlink:href="#glyph2-2" x="674.560547" y="578.574219"/>
  <use xlink:href="#glyph2-6" x="686.865234" y="578.574219"/>
  <use xlink:href="#glyph2-2" x="699.541016" y="578.574219"/>
</g>
</g>
</svg>
