<?xml version="1.0" encoding="UTF-8"?>
<svg xmlns="http://www.w3.org/2000/svg" xmlns:xlink="http://www.w3.org/1999/xlink" width="1273pt" height="656pt" viewBox="0 0 1273 656" version="1.1">
<defs>
<g>
<symbol overflow="visible" id="glyph0-0">
<path style="stroke:none;" d="M 0.78125 2.75 L 0.78125 -11 L 8.578125 -11 L 8.578125 2.75 Z M 1.65625 1.890625 L 7.703125 1.890625 L 7.703125 -10.125 L 1.65625 -10.125 Z "/>
</symbol>
<symbol overflow="visible" id="glyph0-1">
<path style="stroke:none;" d="M 10.046875 -10.5 L 10.046875 -8.875 C 9.523438 -9.351562 8.96875 -9.710938 8.375 -9.953125 C 7.789062 -10.191406 7.171875 -10.3125 6.515625 -10.3125 C 5.210938 -10.3125 4.21875 -9.910156 3.53125 -9.109375 C 2.84375 -8.316406 2.5 -7.171875 2.5 -5.671875 C 2.5 -4.171875 2.84375 -3.023438 3.53125 -2.234375 C 4.21875 -1.441406 5.210938 -1.046875 6.515625 -1.046875 C 7.171875 -1.046875 7.789062 -1.164062 8.375 -1.40625 C 8.96875 -1.644531 9.523438 -2.003906 10.046875 -2.484375 L 10.046875 -0.875 C 9.503906 -0.507812 8.929688 -0.234375 8.328125 -0.046875 C 7.734375 0.128906 7.097656 0.21875 6.421875 0.21875 C 4.703125 0.21875 3.347656 -0.304688 2.359375 -1.359375 C 1.367188 -2.410156 0.875 -3.847656 0.875 -5.671875 C 0.875 -7.492188 1.367188 -8.929688 2.359375 -9.984375 C 3.347656 -11.046875 4.703125 -11.578125 6.421875 -11.578125 C 7.109375 -11.578125 7.75 -11.484375 8.34375 -11.296875 C 8.945312 -11.117188 9.515625 -10.851562 10.046875 -10.5 Z "/>
</symbol>
<symbol overflow="visible" id="glyph0-2">
<path style="stroke:none;" d="M 1.53125 -11.375 L 3.0625 -11.375 L 3.0625 -6.703125 L 8.65625 -6.703125 L 8.65625 -11.375 L 10.203125 -11.375 L 10.203125 0 L 8.65625 0 L 8.65625 -5.40625 L 3.0625 -5.40625 L 3.0625 0 L 1.53125 0 Z "/>
</symbol>
<symbol overflow="visible" id="glyph0-3">
<path style="stroke:none;" d="M 6.140625 -10.328125 C 5.023438 -10.328125 4.140625 -9.910156 3.484375 -9.078125 C 2.828125 -8.242188 2.5 -7.109375 2.5 -5.671875 C 2.5 -4.242188 2.828125 -3.113281 3.484375 -2.28125 C 4.140625 -1.445312 5.023438 -1.03125 6.140625 -1.03125 C 7.253906 -1.03125 8.140625 -1.445312 8.796875 -2.28125 C 9.453125 -3.113281 9.78125 -4.242188 9.78125 -5.671875 C 9.78125 -7.109375 9.453125 -8.242188 8.796875 -9.078125 C 8.140625 -9.910156 7.253906 -10.328125 6.140625 -10.328125 Z M 6.140625 -11.578125 C 7.734375 -11.578125 9.003906 -11.039062 9.953125 -9.96875 C 10.910156 -8.90625 11.390625 -7.472656 11.390625 -5.671875 C 11.390625 -3.878906 10.910156 -2.445312 9.953125 -1.375 C 9.003906 -0.3125 7.734375 0.21875 6.140625 0.21875 C 4.546875 0.21875 3.269531 -0.3125 2.3125 -1.375 C 1.351562 -2.445312 0.875 -3.878906 0.875 -5.671875 C 0.875 -7.472656 1.351562 -8.90625 2.3125 -9.96875 C 3.269531 -11.039062 4.546875 -11.578125 6.140625 -11.578125 Z "/>
</symbol>
<symbol overflow="visible" id="glyph0-4">
<path style="stroke:none;" d="M 1.46875 -11.84375 L 2.875 -11.84375 L 2.875 0 L 1.46875 0 Z "/>
</symbol>
<symbol overflow="visible" id="glyph0-5">
<path style="stroke:none;" d="M 8.5625 -5.140625 L 8.5625 0 L 7.15625 0 L 7.15625 -5.09375 C 7.15625 -5.90625 7 -6.507812 6.6875 -6.90625 C 6.375 -7.3125 5.898438 -7.515625 5.265625 -7.515625 C 4.515625 -7.515625 3.921875 -7.269531 3.484375 -6.78125 C 3.046875 -6.300781 2.828125 -5.644531 2.828125 -4.8125 L 2.828125 0 L 1.421875 0 L 1.421875 -11.84375 L 2.828125 -11.84375 L 2.828125 -7.203125 C 3.160156 -7.710938 3.550781 -8.09375 4 -8.34375 C 4.457031 -8.601562 4.984375 -8.734375 5.578125 -8.734375 C 6.554688 -8.734375 7.296875 -8.425781 7.796875 -7.8125 C 8.304688 -7.207031 8.5625 -6.316406 8.5625 -5.140625 Z "/>
</symbol>
<symbol overflow="visible" id="glyph0-6">
<path style="stroke:none;" d="M 1.46875 -8.53125 L 2.875 -8.53125 L 2.875 0 L 1.46875 0 Z M 1.46875 -11.84375 L 2.875 -11.84375 L 2.875 -10.078125 L 1.46875 -10.078125 Z "/>
</symbol>
<symbol overflow="visible" id="glyph0-7">
<path style="stroke:none;" d="M 6.40625 -7.21875 C 6.25 -7.3125 6.078125 -7.378906 5.890625 -7.421875 C 5.710938 -7.460938 5.507812 -7.484375 5.28125 -7.484375 C 4.488281 -7.484375 3.878906 -7.222656 3.453125 -6.703125 C 3.035156 -6.191406 2.828125 -5.457031 2.828125 -4.5 L 2.828125 0 L 1.421875 0 L 1.421875 -8.53125 L 2.828125 -8.53125 L 2.828125 -7.203125 C 3.117188 -7.722656 3.5 -8.109375 3.96875 -8.359375 C 4.445312 -8.609375 5.023438 -8.734375 5.703125 -8.734375 C 5.796875 -8.734375 5.898438 -8.726562 6.015625 -8.71875 C 6.128906 -8.707031 6.257812 -8.6875 6.40625 -8.65625 Z "/>
</symbol>
<symbol overflow="visible" id="glyph0-8">
<path style="stroke:none;" d="M 5.34375 -4.28125 C 4.207031 -4.28125 3.421875 -4.148438 2.984375 -3.890625 C 2.554688 -3.640625 2.34375 -3.203125 2.34375 -2.578125 C 2.34375 -2.078125 2.503906 -1.679688 2.828125 -1.390625 C 3.148438 -1.097656 3.597656 -0.953125 4.171875 -0.953125 C 4.941406 -0.953125 5.5625 -1.226562 6.03125 -1.78125 C 6.5 -2.332031 6.734375 -3.0625 6.734375 -3.96875 L 6.734375 -4.28125 Z M 8.140625 -4.859375 L 8.140625 0 L 6.734375 0 L 6.734375 -1.296875 C 6.421875 -0.773438 6.023438 -0.390625 5.546875 -0.140625 C 5.066406 0.0976562 4.484375 0.21875 3.796875 0.21875 C 2.921875 0.21875 2.222656 -0.0234375 1.703125 -0.515625 C 1.191406 -1.003906 0.9375 -1.660156 0.9375 -2.484375 C 0.9375 -3.441406 1.253906 -4.164062 1.890625 -4.65625 C 2.535156 -5.144531 3.5 -5.390625 4.78125 -5.390625 L 6.734375 -5.390625 L 6.734375 -5.515625 C 6.734375 -6.160156 6.519531 -6.660156 6.09375 -7.015625 C 5.675781 -7.367188 5.082031 -7.546875 4.3125 -7.546875 C 3.832031 -7.546875 3.359375 -7.488281 2.890625 -7.375 C 2.429688 -7.257812 1.988281 -7.082031 1.5625 -6.84375 L 1.5625 -8.140625 C 2.070312 -8.335938 2.566406 -8.484375 3.046875 -8.578125 C 3.535156 -8.679688 4.007812 -8.734375 4.46875 -8.734375 C 5.695312 -8.734375 6.613281 -8.410156 7.21875 -7.765625 C 7.832031 -7.128906 8.140625 -6.160156 8.140625 -4.859375 Z "/>
</symbol>
<symbol overflow="visible" id="glyph1-0">
<path style="stroke:none;" d="M 0.515625 1.84375 L 0.515625 -7.34375 L 5.71875 -7.34375 L 5.71875 1.84375 Z M 1.109375 1.265625 L 5.140625 1.265625 L 5.140625 -6.75 L 1.109375 -6.75 Z "/>
</symbol>
<symbol overflow="visible" id="glyph1-1">
<path style="stroke:none;" d="M 4.21875 -4.09375 C 4.707031 -3.988281 5.085938 -3.769531 5.359375 -3.4375 C 5.640625 -3.101562 5.78125 -2.691406 5.78125 -2.203125 C 5.78125 -1.453125 5.523438 -0.875 5.015625 -0.46875 C 4.503906 -0.0625 3.769531 0.140625 2.8125 0.140625 C 2.5 0.140625 2.171875 0.109375 1.828125 0.046875 C 1.492188 -0.015625 1.148438 -0.109375 0.796875 -0.234375 L 0.796875 -1.21875 C 1.078125 -1.050781 1.382812 -0.925781 1.71875 -0.84375 C 2.0625 -0.757812 2.421875 -0.71875 2.796875 -0.71875 C 3.429688 -0.71875 3.914062 -0.84375 4.25 -1.09375 C 4.59375 -1.351562 4.765625 -1.722656 4.765625 -2.203125 C 4.765625 -2.648438 4.609375 -3 4.296875 -3.25 C 3.984375 -3.507812 3.546875 -3.640625 2.984375 -3.640625 L 2.109375 -3.640625 L 2.109375 -4.46875 L 3.03125 -4.46875 C 3.53125 -4.46875 3.914062 -4.566406 4.1875 -4.765625 C 4.457031 -4.972656 4.59375 -5.269531 4.59375 -5.65625 C 4.59375 -6.039062 4.453125 -6.335938 4.171875 -6.546875 C 3.898438 -6.753906 3.503906 -6.859375 2.984375 -6.859375 C 2.703125 -6.859375 2.398438 -6.828125 2.078125 -6.765625 C 1.753906 -6.703125 1.398438 -6.609375 1.015625 -6.484375 L 1.015625 -7.390625 C 1.410156 -7.503906 1.773438 -7.585938 2.109375 -7.640625 C 2.453125 -7.691406 2.773438 -7.71875 3.078125 -7.71875 C 3.859375 -7.71875 4.472656 -7.539062 4.921875 -7.1875 C 5.378906 -6.832031 5.609375 -6.351562 5.609375 -5.75 C 5.609375 -5.332031 5.488281 -4.976562 5.25 -4.6875 C 5.007812 -4.40625 4.664062 -4.207031 4.21875 -4.09375 Z "/>
</symbol>
<symbol overflow="visible" id="glyph2-0">
<path style="stroke:none;" d="M 1 3.53125 L 1 -14.109375 L 11 -14.109375 L 11 3.53125 Z M 2.125 2.421875 L 9.890625 2.421875 L 9.890625 -12.984375 L 2.125 -12.984375 Z "/>
</symbol>
<symbol overflow="visible" id="glyph2-1">
<path style="stroke:none;" d="M 6.84375 -12.640625 L 4.15625 -5.375 L 9.515625 -5.375 Z M 5.71875 -14.578125 L 7.953125 -14.578125 L 13.515625 0 L 11.46875 0 L 10.140625 -3.734375 L 3.5625 -3.734375 L 2.234375 0 L 0.15625 0 Z "/>
</symbol>
<symbol overflow="visible" id="glyph2-2">
<path style="stroke:none;" d="M 2.484375 -1.65625 L 5.703125 -1.65625 L 5.703125 -12.78125 L 2.203125 -12.078125 L 2.203125 -13.875 L 5.6875 -14.578125 L 7.65625 -14.578125 L 7.65625 -1.65625 L 10.875 -1.65625 L 10.875 0 L 2.484375 0 Z "/>
</symbol>
<symbol overflow="visible" id="glyph2-3">
<path style="stroke:none;" d="M 9.203125 -12.546875 L 9.203125 -7.09375 L 14.640625 -7.09375 L 14.640625 -5.4375 L 9.203125 -5.4375 L 9.203125 0 L 7.5625 0 L 7.5625 -5.4375 L 2.125 -5.4375 L 2.125 -7.09375 L 7.5625 -7.09375 L 7.5625 -12.546875 Z "/>
</symbol>
<symbol overflow="visible" id="glyph2-4">
<path style="stroke:none;" d="M 3.9375 -6.96875 L 3.9375 -1.625 L 7.09375 -1.625 C 8.15625 -1.625 8.941406 -1.84375 9.453125 -2.28125 C 9.960938 -2.71875 10.21875 -3.390625 10.21875 -4.296875 C 10.21875 -5.210938 9.960938 -5.882812 9.453125 -6.3125 C 8.941406 -6.75 8.15625 -6.96875 7.09375 -6.96875 Z M 3.9375 -12.953125 L 3.9375 -8.5625 L 6.859375 -8.5625 C 7.816406 -8.5625 8.53125 -8.742188 9 -9.109375 C 9.476562 -9.472656 9.71875 -10.023438 9.71875 -10.765625 C 9.71875 -11.492188 9.476562 -12.039062 9 -12.40625 C 8.53125 -12.769531 7.816406 -12.953125 6.859375 -12.953125 Z M 1.96875 -14.578125 L 7 -14.578125 C 8.507812 -14.578125 9.671875 -14.265625 10.484375 -13.640625 C 11.296875 -13.015625 11.703125 -12.128906 11.703125 -10.984375 C 11.703125 -10.085938 11.492188 -9.375 11.078125 -8.84375 C 10.660156 -8.320312 10.046875 -7.992188 9.234375 -7.859375 C 10.203125 -7.648438 10.957031 -7.210938 11.5 -6.546875 C 12.039062 -5.890625 12.3125 -5.066406 12.3125 -4.078125 C 12.3125 -2.773438 11.867188 -1.769531 10.984375 -1.0625 C 10.097656 -0.351562 8.835938 0 7.203125 0 L 1.96875 0 Z "/>
</symbol>
<symbol overflow="visible" id="glyph2-5">
<path style="stroke:none;" d="M 6.203125 -15.171875 C 5.328125 -13.679688 4.675781 -12.203125 4.25 -10.734375 C 3.832031 -9.265625 3.625 -7.78125 3.625 -6.28125 C 3.625 -4.78125 3.835938 -3.289062 4.265625 -1.8125 C 4.691406 -0.332031 5.335938 1.148438 6.203125 2.640625 L 4.640625 2.640625 C 3.660156 1.109375 2.925781 -0.394531 2.4375 -1.875 C 1.957031 -3.351562 1.71875 -4.820312 1.71875 -6.28125 C 1.71875 -7.726562 1.957031 -9.1875 2.4375 -10.65625 C 2.925781 -12.132812 3.660156 -13.640625 4.640625 -15.171875 Z "/>
</symbol>
<symbol overflow="visible" id="glyph2-6">
<path style="stroke:none;" d="M 1.609375 -15.171875 L 3.171875 -15.171875 C 4.140625 -13.640625 4.863281 -12.132812 5.34375 -10.65625 C 5.832031 -9.1875 6.078125 -7.726562 6.078125 -6.28125 C 6.078125 -4.820312 5.832031 -3.351562 5.34375 -1.875 C 4.863281 -0.394531 4.140625 1.109375 3.171875 2.640625 L 1.609375 2.640625 C 2.472656 1.148438 3.117188 -0.332031 3.546875 -1.8125 C 3.972656 -3.289062 4.1875 -4.78125 4.1875 -6.28125 C 4.1875 -7.78125 3.972656 -9.265625 3.546875 -10.734375 C 3.117188 -12.203125 2.472656 -13.679688 1.609375 -15.171875 Z "/>
</symbol>
<symbol overflow="visible" id="glyph3-0">
<path style="stroke:none;" d="M 0.703125 2.46875 L 0.703125 -9.875 L 7.703125 -9.875 L 7.703125 2.46875 Z M 1.484375 1.703125 L 6.921875 1.703125 L 6.921875 -9.078125 L 1.484375 -9.078125 Z "/>
</symbol>
<symbol overflow="visible" id="glyph3-1">
<path style="stroke:none;" d="M 6.21875 -4.78125 C 6.507812 -4.6875 6.796875 -4.472656 7.078125 -4.140625 C 7.359375 -3.816406 7.640625 -3.367188 7.921875 -2.796875 L 9.328125 0 L 7.84375 0 L 6.53125 -2.625 C 6.195312 -3.300781 5.867188 -3.75 5.546875 -3.96875 C 5.234375 -4.195312 4.804688 -4.3125 4.265625 -4.3125 L 2.75 -4.3125 L 2.75 0 L 1.375 0 L 1.375 -10.203125 L 4.484375 -10.203125 C 5.648438 -10.203125 6.519531 -9.957031 7.09375 -9.46875 C 7.675781 -8.988281 7.96875 -8.253906 7.96875 -7.265625 C 7.96875 -6.617188 7.816406 -6.082031 7.515625 -5.65625 C 7.210938 -5.238281 6.78125 -4.945312 6.21875 -4.78125 Z M 2.75 -9.078125 L 2.75 -5.453125 L 4.484375 -5.453125 C 5.148438 -5.453125 5.65625 -5.601562 6 -5.90625 C 6.34375 -6.21875 6.515625 -6.671875 6.515625 -7.265625 C 6.515625 -7.859375 6.34375 -8.304688 6 -8.609375 C 5.65625 -8.921875 5.148438 -9.078125 4.484375 -9.078125 Z "/>
</symbol>
<symbol overflow="visible" id="glyph3-2">
<path style="stroke:none;" d="M 7.875 -4.140625 L 7.875 -3.53125 L 2.078125 -3.53125 C 2.140625 -2.664062 2.398438 -2.003906 2.859375 -1.546875 C 3.328125 -1.097656 3.976562 -0.875 4.8125 -0.875 C 5.300781 -0.875 5.769531 -0.929688 6.21875 -1.046875 C 6.675781 -1.160156 7.128906 -1.335938 7.578125 -1.578125 L 7.578125 -0.390625 C 7.117188 -0.203125 6.648438 -0.0546875 6.171875 0.046875 C 5.703125 0.148438 5.226562 0.203125 4.75 0.203125 C 3.519531 0.203125 2.546875 -0.148438 1.828125 -0.859375 C 1.117188 -1.578125 0.765625 -2.539062 0.765625 -3.75 C 0.765625 -5.007812 1.101562 -6.003906 1.78125 -6.734375 C 2.457031 -7.472656 3.375 -7.84375 4.53125 -7.84375 C 5.5625 -7.84375 6.375 -7.507812 6.96875 -6.84375 C 7.570312 -6.1875 7.875 -5.285156 7.875 -4.140625 Z M 6.609375 -4.515625 C 6.597656 -5.203125 6.40625 -5.75 6.03125 -6.15625 C 5.65625 -6.570312 5.160156 -6.78125 4.546875 -6.78125 C 3.835938 -6.78125 3.269531 -6.578125 2.84375 -6.171875 C 2.425781 -5.773438 2.1875 -5.21875 2.125 -4.5 Z "/>
</symbol>
<symbol overflow="visible" id="glyph3-3">
<path style="stroke:none;" d="M 6.203125 -7.4375 L 6.203125 -6.234375 C 5.847656 -6.421875 5.476562 -6.554688 5.09375 -6.640625 C 4.707031 -6.734375 4.3125 -6.78125 3.90625 -6.78125 C 3.28125 -6.78125 2.8125 -6.6875 2.5 -6.5 C 2.1875 -6.3125 2.03125 -6.023438 2.03125 -5.640625 C 2.03125 -5.347656 2.140625 -5.117188 2.359375 -4.953125 C 2.585938 -4.785156 3.039062 -4.628906 3.71875 -4.484375 L 4.140625 -4.375 C 5.035156 -4.1875 5.671875 -3.914062 6.046875 -3.5625 C 6.421875 -3.21875 6.609375 -2.734375 6.609375 -2.109375 C 6.609375 -1.398438 6.328125 -0.835938 5.765625 -0.421875 C 5.203125 -0.00390625 4.429688 0.203125 3.453125 0.203125 C 3.035156 0.203125 2.601562 0.160156 2.15625 0.078125 C 1.71875 -0.00390625 1.253906 -0.125 0.765625 -0.28125 L 0.765625 -1.578125 C 1.222656 -1.335938 1.675781 -1.15625 2.125 -1.03125 C 2.582031 -0.914062 3.03125 -0.859375 3.46875 -0.859375 C 4.0625 -0.859375 4.515625 -0.957031 4.828125 -1.15625 C 5.148438 -1.363281 5.3125 -1.648438 5.3125 -2.015625 C 5.3125 -2.359375 5.195312 -2.617188 4.96875 -2.796875 C 4.738281 -2.984375 4.234375 -3.160156 3.453125 -3.328125 L 3.015625 -3.4375 C 2.242188 -3.59375 1.679688 -3.84375 1.328125 -4.1875 C 0.984375 -4.53125 0.8125 -4.992188 0.8125 -5.578125 C 0.8125 -6.304688 1.066406 -6.863281 1.578125 -7.25 C 2.085938 -7.644531 2.8125 -7.84375 3.75 -7.84375 C 4.21875 -7.84375 4.65625 -7.804688 5.0625 -7.734375 C 5.476562 -7.671875 5.859375 -7.570312 6.203125 -7.4375 Z "/>
</symbol>
<symbol overflow="visible" id="glyph3-4">
<path style="stroke:none;" d="M 1.1875 -3.015625 L 1.1875 -7.65625 L 2.453125 -7.65625 L 2.453125 -3.0625 C 2.453125 -2.34375 2.59375 -1.800781 2.875 -1.4375 C 3.15625 -1.070312 3.578125 -0.890625 4.140625 -0.890625 C 4.816406 -0.890625 5.351562 -1.101562 5.75 -1.53125 C 6.144531 -1.96875 6.34375 -2.5625 6.34375 -3.3125 L 6.34375 -7.65625 L 7.609375 -7.65625 L 7.609375 0 L 6.34375 0 L 6.34375 -1.171875 C 6.039062 -0.710938 5.6875 -0.367188 5.28125 -0.140625 C 4.875 0.0859375 4.40625 0.203125 3.875 0.203125 C 3 0.203125 2.332031 -0.0664062 1.875 -0.609375 C 1.414062 -1.160156 1.1875 -1.960938 1.1875 -3.015625 Z M 4.359375 -7.84375 Z "/>
</symbol>
<symbol overflow="visible" id="glyph3-5">
<path style="stroke:none;" d="M 1.3125 -10.640625 L 2.578125 -10.640625 L 2.578125 0 L 1.3125 0 Z "/>
</symbol>
<symbol overflow="visible" id="glyph3-6">
<path style="stroke:none;" d="M 2.5625 -9.828125 L 2.5625 -7.65625 L 5.15625 -7.65625 L 5.15625 -6.671875 L 2.5625 -6.671875 L 2.5625 -2.515625 C 2.5625 -1.898438 2.644531 -1.5 2.8125 -1.3125 C 2.988281 -1.132812 3.335938 -1.046875 3.859375 -1.046875 L 5.15625 -1.046875 L 5.15625 0 L 3.859375 0 C 2.890625 0 2.21875 -0.179688 1.84375 -0.546875 C 1.476562 -0.910156 1.296875 -1.566406 1.296875 -2.515625 L 1.296875 -6.671875 L 0.375 -6.671875 L 0.375 -7.65625 L 1.296875 -7.65625 L 1.296875 -9.828125 Z "/>
</symbol>
</g>
</defs>
<g id="surface1709">
<g style="fill:rgb(0%,0%,0%);fill-opacity:1;">
  <use xlink:href="#glyph0-1" x="78.472656" y="120.667969"/>
</g>
<g style="fill:rgb(0%,0%,0%);fill-opacity:1;">
  <use xlink:href="#glyph0-2" x="88.289062" y="120.464844"/>
</g>
<g style="fill:rgb(0%,0%,0%);fill-opacity:1;">
  <use xlink:href="#glyph1-1" x="98.996094" y="121.359375"/>
</g>
<g style="fill:rgb(0%,0%,0%);fill-opacity:1;">
  <use xlink:href="#glyph0-3" x="51.820312" y="75.667969"/>
</g>
<g style="fill:rgb(0%,0%,0%);fill-opacity:1;">
  <use xlink:href="#glyph0-1" x="102.597656" y="75.800781"/>
  <use xlink:href="#glyph0-4" x="113.48587" y="75.800781"/>
</g>
<path style="fill:none;stroke-width:0.0433333;stroke-linecap:butt;stroke-linejoin:miter;stroke:rgb(0%,0%,0%);stroke-opacity:1;stroke-miterlimit:10;" d="M 0.866015 1.160369 L 0.866015 0.487452 " transform="matrix(30,0,0,30,57.953155,69.985811)"/>
<path style="fill:none;stroke-width:0.0433333;stroke-linecap:butt;stroke-linejoin:miter;stroke:rgb(0%,0%,0%);stroke-opacity:1;stroke-miterlimit:10;" d="M 0.974348 0.437452 L 0.412499 0.112973 " transform="matrix(30,0,0,30,57.953155,69.985811)"/>
<path style="fill:none;stroke-width:0.0433333;stroke-linecap:butt;stroke-linejoin:miter;stroke:rgb(0%,0%,0%);stroke-opacity:1;stroke-miterlimit:10;" d="M 0.866015 0.625082 L 0.304166 0.300733 " transform="matrix(30,0,0,30,57.953155,69.985811)"/>
<path style="fill:none;stroke-width:0.0433333;stroke-linecap:butt;stroke-linejoin:miter;stroke:rgb(0%,0%,0%);stroke-opacity:1;stroke-miterlimit:10;" d="M 0.855207 0.506202 L 1.342186 0.225082 " transform="matrix(30,0,0,30,57.953155,69.985811)"/>
<path style="fill:none;stroke-width:0.0625;stroke-linecap:butt;stroke-linejoin:miter;stroke:rgb(0%,0%,0%);stroke-opacity:1;stroke-miterlimit:10;" d="M -0.00000109673 0.0000172456 L 0.499999 0.0000172456 M 0.249999 -0.249983 L 0.249999 0.250017 " transform="matrix(30,0,0,30,128.359408,92.726045)"/>
<g style="fill:rgb(0%,0%,0%);fill-opacity:1;">
  <use xlink:href="#glyph0-1" x="246.640625" y="37.59375"/>
  <use xlink:href="#glyph0-5" x="257.528839" y="37.59375"/>
  <use xlink:href="#glyph0-6" x="267.411987" y="37.59375"/>
  <use xlink:href="#glyph0-7" x="271.744431" y="37.59375"/>
  <use xlink:href="#glyph0-8" x="278.155533" y="37.59375"/>
  <use xlink:href="#glyph0-4" x="287.711273" y="37.59375"/>
</g>
<g style="fill:rgb(0%,0%,0%);fill-opacity:1;">
  <use xlink:href="#glyph0-3" x="284.453125" y="107.519531"/>
</g>
<g style="fill:rgb(0%,0%,0%);fill-opacity:1;">
  <use xlink:href="#glyph0-2" x="295.613281" y="107.316406"/>
</g>
<g style="fill:rgb(0%,0%,0%);fill-opacity:1;">
  <use xlink:href="#glyph0-3" x="194.453125" y="159.480469"/>
</g>
<g style="fill:rgb(0%,0%,0%);fill-opacity:1;">
  <use xlink:href="#glyph0-2" x="183.828125" y="159.277344"/>
</g>
<g style="fill:rgb(0%,0%,0%);fill-opacity:1;">
  <use xlink:href="#glyph0-3" x="194.453125" y="55.558594"/>
</g>
<g style="fill:rgb(0%,0%,0%);fill-opacity:1;">
  <use xlink:href="#glyph0-2" x="183.828125" y="55.355469"/>
</g>
<g style="fill:rgb(0%,0%,0%);fill-opacity:1;">
  <use xlink:href="#glyph0-3" x="254.453125" y="159.480469"/>
</g>
<g style="fill:rgb(0%,0%,0%);fill-opacity:1;">
  <use xlink:href="#glyph0-2" x="265.613281" y="159.277344"/>
</g>
<g style="fill:rgb(0%,0%,0%);fill-opacity:1;">
  <use xlink:href="#glyph0-3" x="164.453125" y="107.519531"/>
</g>
<g style="fill:rgb(0%,0%,0%);fill-opacity:1;">
  <use xlink:href="#glyph0-2" x="153.828125" y="107.316406"/>
</g>
<g style="fill:rgb(0%,0%,0%);fill-opacity:1;">
  <use xlink:href="#glyph0-3" x="254.453125" y="55.558594"/>
</g>
<g style="fill:rgb(0%,0%,0%);fill-opacity:1;">
  <use xlink:href="#glyph0-2" x="265.613281" y="55.355469"/>
</g>
<path style="fill:none;stroke-width:0.0433333;stroke-linecap:butt;stroke-linejoin:miter;stroke:rgb(0%,0%,0%);stroke-opacity:1;stroke-miterlimit:10;" d="M 2.493749 2.608936 L 3.006249 1.721176 " transform="matrix(30,0,0,30,170.58597,49.876436)"/>
<path style="fill:none;stroke-width:0.0433333;stroke-linecap:butt;stroke-linejoin:miter;stroke:rgb(0%,0%,0%);stroke-opacity:1;stroke-miterlimit:10;" d="M 1.487499 2.598129 L 2.512499 2.598129 " transform="matrix(30,0,0,30,170.58597,49.876436)"/>
<path style="fill:none;stroke-width:0.0433333;stroke-linecap:butt;stroke-linejoin:miter;stroke:rgb(0%,0%,0%);stroke-opacity:1;stroke-miterlimit:10;" d="M 0.993749 1.721176 L 1.506249 2.608936 " transform="matrix(30,0,0,30,170.58597,49.876436)"/>
<path style="fill:none;stroke-width:0.0433333;stroke-linecap:butt;stroke-linejoin:miter;stroke:rgb(0%,0%,0%);stroke-opacity:1;stroke-miterlimit:10;" d="M 1.506249 0.85516 L 0.993749 1.742921 " transform="matrix(30,0,0,30,170.58597,49.876436)"/>
<path style="fill:none;stroke-width:0.0433333;stroke-linecap:butt;stroke-linejoin:miter;stroke:rgb(0%,0%,0%);stroke-opacity:1;stroke-miterlimit:10;" d="M 2.512499 0.865968 L 1.487499 0.865968 " transform="matrix(30,0,0,30,170.58597,49.876436)"/>
<path style="fill:none;stroke-width:0.0433333;stroke-linecap:butt;stroke-linejoin:miter;stroke:rgb(0%,0%,0%);stroke-opacity:1;stroke-miterlimit:10;" d="M 2.493749 0.85516 L 3.006249 1.742921 " transform="matrix(30,0,0,30,170.58597,49.876436)"/>
<path style=" stroke:none;fill-rule:nonzero;fill:rgb(0%,0%,0%);fill-opacity:1;" d="M 260.585938 102.488281 L 281.039062 105.089844 L 281.039062 98.589844 L 260.585938 101.1875 "/>
<path style=" stroke:none;fill-rule:nonzero;fill:rgb(0%,0%,0%);fill-opacity:1;" d="M 215.023438 127.492188 L 204.09375 141.222656 L 209.722656 144.472656 L 216.148438 128.144531 "/>
<path style=" stroke:none;fill-rule:nonzero;fill:rgb(0%,0%,0%);fill-opacity:1;" d="M 216.148438 75.53125 L 209.722656 59.203125 L 204.09375 62.453125 L 215.023438 76.183594 "/>
<path style="fill:none;stroke-width:0.0433333;stroke-linecap:butt;stroke-linejoin:miter;stroke:rgb(0%,0%,0%);stroke-opacity:1;stroke-miterlimit:10;" d="M 2.516926 2.699692 L 2.579426 2.663494 M 2.552603 2.790317 L 2.640233 2.739796 M 2.58828 2.881072 L 2.70091 2.816098 M 2.624087 2.971827 L 2.761587 2.8924 M 2.659765 3.062452 L 2.822395 2.968572 M 2.695442 3.153207 L 2.883072 3.044874 " transform="matrix(30,0,0,30,170.58597,49.876436)"/>
<path style="fill:none;stroke-width:0.0433333;stroke-linecap:butt;stroke-linejoin:miter;stroke:rgb(0%,0%,0%);stroke-opacity:1;stroke-miterlimit:10;" d="M 0.902603 1.697999 L 0.902603 1.766098 M 0.805207 1.685629 L 0.805207 1.778468 M 0.707811 1.673259 L 0.707811 1.790838 M 0.610416 1.66089 L 0.610416 1.803207 M 0.51302 1.64852 L 0.51302 1.815577 M 0.415624 1.63615 L 0.415624 1.827947 M 0.318228 1.62378 L 0.318228 1.840447 " transform="matrix(30,0,0,30,170.58597,49.876436)"/>
<path style="fill:none;stroke-width:0.0433333;stroke-linecap:butt;stroke-linejoin:miter;stroke:rgb(0%,0%,0%);stroke-opacity:1;stroke-miterlimit:10;" d="M 2.579426 0.800603 L 2.516926 0.764535 M 2.640233 0.724301 L 2.552603 0.67378 M 2.70091 0.647999 L 2.58828 0.583025 M 2.761587 0.571827 L 2.624087 0.49227 M 2.822395 0.495525 L 2.659765 0.401645 M 2.883072 0.419223 L 2.695442 0.31089 " transform="matrix(30,0,0,30,170.58597,49.876436)"/>
<path style=" stroke:none;fill-rule:nonzero;fill:rgb(0%,0%,0%);fill-opacity:1;" d="M 317.816406 93.664062 L 355.316406 93.664062 L 355.316406 96.476562 L 362.816406 92.726562 L 355.316406 88.976562 L 355.316406 91.789062 L 317.816406 91.789062 "/>
<g style="fill:rgb(0%,0%,0%);fill-opacity:1;">
  <use xlink:href="#glyph0-1" x="516.710938" y="37.59375"/>
  <use xlink:href="#glyph0-5" x="527.599152" y="37.59375"/>
  <use xlink:href="#glyph0-6" x="537.4823" y="37.59375"/>
  <use xlink:href="#glyph0-7" x="541.814743" y="37.59375"/>
  <use xlink:href="#glyph0-8" x="548.225845" y="37.59375"/>
  <use xlink:href="#glyph0-4" x="557.781586" y="37.59375"/>
</g>
<g style="fill:rgb(0%,0%,0%);fill-opacity:1;">
  <use xlink:href="#glyph0-3" x="434.523438" y="55.558594"/>
</g>
<g style="fill:rgb(0%,0%,0%);fill-opacity:1;">
  <use xlink:href="#glyph0-3" x="434.523438" y="107.519531"/>
</g>
<g style="fill:rgb(0%,0%,0%);fill-opacity:1;">
  <use xlink:href="#glyph0-1" x="390.195312" y="81.539062"/>
</g>
<g style="fill:rgb(0%,0%,0%);fill-opacity:1;">
  <use xlink:href="#glyph0-2" x="373.285156" y="81.335938"/>
</g>
<g style="fill:rgb(0%,0%,0%);fill-opacity:1;">
  <use xlink:href="#glyph1-1" x="383.992188" y="82.230469"/>
</g>
<g style="fill:rgb(0%,0%,0%);fill-opacity:1;">
  <use xlink:href="#glyph0-3" x="524.523438" y="159.480469"/>
</g>
<g style="fill:rgb(0%,0%,0%);fill-opacity:1;">
  <use xlink:href="#glyph0-2" x="535.683594" y="159.277344"/>
</g>
<g style="fill:rgb(0%,0%,0%);fill-opacity:1;">
  <use xlink:href="#glyph0-3" x="524.523438" y="55.558594"/>
</g>
<g style="fill:rgb(0%,0%,0%);fill-opacity:1;">
  <use xlink:href="#glyph0-2" x="535.683594" y="55.355469"/>
</g>
<g style="fill:rgb(0%,0%,0%);fill-opacity:1;">
  <use xlink:href="#glyph0-3" x="464.523438" y="159.480469"/>
</g>
<g style="fill:rgb(0%,0%,0%);fill-opacity:1;">
  <use xlink:href="#glyph0-2" x="453.898438" y="159.277344"/>
</g>
<g style="fill:rgb(0%,0%,0%);fill-opacity:1;">
  <use xlink:href="#glyph0-3" x="554.523438" y="107.519531"/>
</g>
<g style="fill:rgb(0%,0%,0%);fill-opacity:1;">
  <use xlink:href="#glyph0-2" x="565.683594" y="107.316406"/>
</g>
<g style="fill:rgb(0%,0%,0%);fill-opacity:1;">
  <use xlink:href="#glyph0-3" x="464.523438" y="55.558594"/>
</g>
<g style="fill:rgb(0%,0%,0%);fill-opacity:1;">
  <use xlink:href="#glyph0-2" x="464.789062" y="42.679688"/>
</g>
<path style="fill:none;stroke-width:0.0433333;stroke-linecap:butt;stroke-linejoin:miter;stroke:rgb(0%,0%,0%);stroke-opacity:1;stroke-miterlimit:10;" d="M 2.402603 1.697999 L 2.402603 1.766098 M 2.305207 1.685629 L 2.305207 1.778468 M 2.207811 1.673259 L 2.207811 1.790838 M 2.110415 1.66089 L 2.110415 1.803207 M 2.013019 1.64852 L 2.013019 1.815577 M 1.915624 1.63615 L 1.915624 1.827947 M 1.818228 1.62378 L 1.818228 1.840447 " transform="matrix(30,0,0,30,395.656295,49.876436)"/>
<path style="fill:none;stroke-width:0.0433333;stroke-linecap:butt;stroke-linejoin:miter;stroke:rgb(0%,0%,0%);stroke-opacity:1;stroke-miterlimit:10;" d="M 1.062499 0.974301 L 1.383071 0.419223 " transform="matrix(30,0,0,30,395.656295,49.876436)"/>
<path style="fill:none;stroke-width:0.0433333;stroke-linecap:butt;stroke-linejoin:miter;stroke:rgb(0%,0%,0%);stroke-opacity:1;stroke-miterlimit:10;" d="M 0.874868 0.865968 L 1.195441 0.31089 " transform="matrix(30,0,0,30,395.656295,49.876436)"/>
<path style="fill:none;stroke-width:0.0433333;stroke-linecap:butt;stroke-linejoin:miter;stroke:rgb(0%,0%,0%);stroke-opacity:1;stroke-miterlimit:10;" d="M 0.993749 0.85516 L 1.289191 1.367009 " transform="matrix(30,0,0,30,395.656295,49.876436)"/>
<path style="fill:none;stroke-width:0.0433333;stroke-linecap:butt;stroke-linejoin:miter;stroke:rgb(0%,0%,0%);stroke-opacity:1;stroke-miterlimit:10;" d="M 3.006249 2.608936 L 2.493749 1.721176 " transform="matrix(30,0,0,30,395.656295,49.876436)"/>
<path style="fill:none;stroke-width:0.0433333;stroke-linecap:butt;stroke-linejoin:miter;stroke:rgb(0%,0%,0%);stroke-opacity:1;stroke-miterlimit:10;" d="M 4.012499 2.598129 L 2.987499 2.598129 " transform="matrix(30,0,0,30,395.656295,49.876436)"/>
<path style="fill:none;stroke-width:0.0433333;stroke-linecap:butt;stroke-linejoin:miter;stroke:rgb(0%,0%,0%);stroke-opacity:1;stroke-miterlimit:10;" d="M 4.506249 1.721176 L 3.993749 2.608936 " transform="matrix(30,0,0,30,395.656295,49.876436)"/>
<path style="fill:none;stroke-width:0.0433333;stroke-linecap:butt;stroke-linejoin:miter;stroke:rgb(0%,0%,0%);stroke-opacity:1;stroke-miterlimit:10;" d="M 3.993749 0.85516 L 4.506249 1.742921 " transform="matrix(30,0,0,30,395.656295,49.876436)"/>
<path style="fill:none;stroke-width:0.0433333;stroke-linecap:butt;stroke-linejoin:miter;stroke:rgb(0%,0%,0%);stroke-opacity:1;stroke-miterlimit:10;" d="M 2.987499 0.865968 L 4.012499 0.865968 " transform="matrix(30,0,0,30,395.656295,49.876436)"/>
<path style="fill:none;stroke-width:0.0433333;stroke-linecap:butt;stroke-linejoin:miter;stroke:rgb(0%,0%,0%);stroke-opacity:1;stroke-miterlimit:10;" d="M 3.006249 0.85516 L 2.493749 1.742921 " transform="matrix(30,0,0,30,395.656295,49.876436)"/>
<path style="fill:none;stroke-width:0.0433333;stroke-linecap:butt;stroke-linejoin:miter;stroke:rgb(0%,0%,0%);stroke-opacity:1;stroke-miterlimit:10;" d="M 4.016926 2.699692 L 4.079426 2.663494 M 4.052603 2.790317 L 4.140233 2.739796 M 4.08828 2.881072 L 4.20091 2.816098 M 4.124087 2.971827 L 4.261587 2.8924 M 4.159764 3.062452 L 4.322394 2.968572 M 4.195441 3.153207 L 4.383071 3.044874 " transform="matrix(30,0,0,30,395.656295,49.876436)"/>
<path style="fill:none;stroke-width:0.0433333;stroke-linecap:butt;stroke-linejoin:miter;stroke:rgb(0%,0%,0%);stroke-opacity:1;stroke-miterlimit:10;" d="M 4.079426 0.800603 L 4.016926 0.764535 M 4.140233 0.724301 L 4.052603 0.67378 M 4.20091 0.647999 L 4.08828 0.583025 M 4.261587 0.571827 L 4.124087 0.49227 M 4.322394 0.495525 L 4.159764 0.401645 M 4.383071 0.419223 L 4.195441 0.31089 " transform="matrix(30,0,0,30,395.656295,49.876436)"/>
<path style=" stroke:none;fill-rule:nonzero;fill:rgb(0%,0%,0%);fill-opacity:1;" d="M 485.09375 127.492188 L 474.164062 141.222656 L 479.792969 144.472656 L 486.21875 128.144531 "/>
<path style=" stroke:none;fill-rule:nonzero;fill:rgb(0%,0%,0%);fill-opacity:1;" d="M 530.65625 102.488281 L 551.109375 105.089844 L 551.109375 98.589844 L 530.65625 101.1875 "/>
<path style=" stroke:none;fill-rule:nonzero;fill:rgb(0%,0%,0%);fill-opacity:1;" d="M 486.21875 75.53125 L 479.792969 59.203125 L 474.164062 62.453125 L 485.09375 76.183594 "/>
<path style="fill:none;stroke-width:0.0433333;stroke-linecap:butt;stroke-linejoin:miter;stroke:rgb(0%,0%,0%);stroke-opacity:1;stroke-miterlimit:10;" d="M 1.012499 0.865968 L 0.295832 0.865968 " transform="matrix(30,0,0,30,395.656295,49.876436)"/>
<g style="fill:rgb(0%,0%,0%);fill-opacity:1;">
  <use xlink:href="#glyph2-1" x="280.332031" y="204.238281"/>
  <use xlink:href="#glyph2-2" x="294.013672" y="204.238281"/>
  <use xlink:href="#glyph2-3" x="306.738281" y="204.238281"/>
  <use xlink:href="#glyph2-4" x="323.496094" y="204.238281"/>
  <use xlink:href="#glyph2-2" x="337.216797" y="204.238281"/>
</g>
<g style="fill:rgb(0%,0%,0%);fill-opacity:1;">
  <use xlink:href="#glyph0-1" x="673.355469" y="120.667969"/>
</g>
<g style="fill:rgb(0%,0%,0%);fill-opacity:1;">
  <use xlink:href="#glyph0-2" x="683.171875" y="120.464844"/>
</g>
<g style="fill:rgb(0%,0%,0%);fill-opacity:1;">
  <use xlink:href="#glyph1-1" x="693.878906" y="121.359375"/>
</g>
<g style="fill:rgb(0%,0%,0%);fill-opacity:1;">
  <use xlink:href="#glyph0-3" x="646.703125" y="75.667969"/>
</g>
<g style="fill:rgb(0%,0%,0%);fill-opacity:1;">
  <use xlink:href="#glyph0-1" x="697.476562" y="75.800781"/>
  <use xlink:href="#glyph0-4" x="708.364777" y="75.800781"/>
</g>
<path style="fill:none;stroke-width:0.0433333;stroke-linecap:butt;stroke-linejoin:miter;stroke:rgb(0%,0%,0%);stroke-opacity:1;stroke-miterlimit:10;" d="M 0.866082 1.160369 L 0.866082 0.487452 " transform="matrix(30,0,0,30,652.833954,69.98581)"/>
<path style="fill:none;stroke-width:0.0433333;stroke-linecap:butt;stroke-linejoin:miter;stroke:rgb(0%,0%,0%);stroke-opacity:1;stroke-miterlimit:10;" d="M 0.974415 0.437452 L 0.412436 0.112973 " transform="matrix(30,0,0,30,652.833954,69.98581)"/>
<path style="fill:none;stroke-width:0.0433333;stroke-linecap:butt;stroke-linejoin:miter;stroke:rgb(0%,0%,0%);stroke-opacity:1;stroke-miterlimit:10;" d="M 0.866082 0.625082 L 0.304103 0.300733 " transform="matrix(30,0,0,30,652.833954,69.98581)"/>
<path style="fill:none;stroke-width:0.0433333;stroke-linecap:butt;stroke-linejoin:miter;stroke:rgb(0%,0%,0%);stroke-opacity:1;stroke-miterlimit:10;" d="M 0.855144 0.506202 L 1.342254 0.225082 " transform="matrix(30,0,0,30,652.833954,69.98581)"/>
<path style="fill:none;stroke-width:0.0625;stroke-linecap:butt;stroke-linejoin:miter;stroke:rgb(0%,0%,0%);stroke-opacity:1;stroke-miterlimit:10;" d="M -0.0000641664 0.0000172774 L 0.499936 0.0000172774 M 0.249936 -0.249983 L 0.249936 0.250017 " transform="matrix(30,0,0,30,723.240206,92.726044)"/>
<g style="fill:rgb(0%,0%,0%);fill-opacity:1;">
  <use xlink:href="#glyph0-1" x="892.132812" y="37.59375"/>
  <use xlink:href="#glyph0-5" x="903.021027" y="37.59375"/>
  <use xlink:href="#glyph0-6" x="912.904175" y="37.59375"/>
  <use xlink:href="#glyph0-7" x="917.236618" y="37.59375"/>
  <use xlink:href="#glyph0-8" x="923.64772" y="37.59375"/>
  <use xlink:href="#glyph0-4" x="933.203461" y="37.59375"/>
</g>
<g style="fill:rgb(0%,0%,0%);fill-opacity:1;">
  <use xlink:href="#glyph0-3" x="809.949219" y="55.558594"/>
</g>
<g style="fill:rgb(0%,0%,0%);fill-opacity:1;">
  <use xlink:href="#glyph0-3" x="809.949219" y="107.519531"/>
</g>
<g style="fill:rgb(0%,0%,0%);fill-opacity:1;">
  <use xlink:href="#glyph0-1" x="765.621094" y="81.539062"/>
</g>
<g style="fill:rgb(0%,0%,0%);fill-opacity:1;">
  <use xlink:href="#glyph0-2" x="748.707031" y="81.335938"/>
</g>
<g style="fill:rgb(0%,0%,0%);fill-opacity:1;">
  <use xlink:href="#glyph1-1" x="759.414062" y="82.230469"/>
</g>
<g style="fill:rgb(0%,0%,0%);fill-opacity:1;">
  <use xlink:href="#glyph0-3" x="899.949219" y="159.480469"/>
</g>
<g style="fill:rgb(0%,0%,0%);fill-opacity:1;">
  <use xlink:href="#glyph0-2" x="911.109375" y="159.277344"/>
</g>
<g style="fill:rgb(0%,0%,0%);fill-opacity:1;">
  <use xlink:href="#glyph0-3" x="899.949219" y="55.558594"/>
</g>
<g style="fill:rgb(0%,0%,0%);fill-opacity:1;">
  <use xlink:href="#glyph0-2" x="911.109375" y="55.355469"/>
</g>
<g style="fill:rgb(0%,0%,0%);fill-opacity:1;">
  <use xlink:href="#glyph0-3" x="839.949219" y="159.480469"/>
</g>
<g style="fill:rgb(0%,0%,0%);fill-opacity:1;">
  <use xlink:href="#glyph0-2" x="829.320312" y="159.277344"/>
</g>
<g style="fill:rgb(0%,0%,0%);fill-opacity:1;">
  <use xlink:href="#glyph0-3" x="929.949219" y="107.519531"/>
</g>
<g style="fill:rgb(0%,0%,0%);fill-opacity:1;">
  <use xlink:href="#glyph0-2" x="941.109375" y="107.316406"/>
</g>
<g style="fill:rgb(0%,0%,0%);fill-opacity:1;">
  <use xlink:href="#glyph0-3" x="839.949219" y="55.558594"/>
</g>
<g style="fill:rgb(0%,0%,0%);fill-opacity:1;">
  <use xlink:href="#glyph0-2" x="840.214844" y="42.679688"/>
</g>
<path style="fill:none;stroke-width:0.0433333;stroke-linecap:butt;stroke-linejoin:miter;stroke:rgb(0%,0%,0%);stroke-opacity:1;stroke-miterlimit:10;" d="M 2.40267 1.697999 L 2.40267 1.766098 M 2.305274 1.685629 L 2.305274 1.778468 M 2.207879 1.673259 L 2.207879 1.790838 M 2.110483 1.66089 L 2.110483 1.803207 M 2.013087 1.64852 L 2.013087 1.815577 M 1.915691 1.63615 L 1.915691 1.827947 M 1.818295 1.62378 L 1.818295 1.840447 " transform="matrix(30,0,0,30,771.080049,49.876436)"/>
<path style="fill:none;stroke-width:0.0433333;stroke-linecap:butt;stroke-linejoin:miter;stroke:rgb(0%,0%,0%);stroke-opacity:1;stroke-miterlimit:10;" d="M 1.062566 0.974301 L 1.383009 0.419223 " transform="matrix(30,0,0,30,771.080049,49.876436)"/>
<path style="fill:none;stroke-width:0.0433333;stroke-linecap:butt;stroke-linejoin:miter;stroke:rgb(0%,0%,0%);stroke-opacity:1;stroke-miterlimit:10;" d="M 0.874936 0.865968 L 1.195379 0.31089 " transform="matrix(30,0,0,30,771.080049,49.876436)"/>
<path style="fill:none;stroke-width:0.0433333;stroke-linecap:butt;stroke-linejoin:miter;stroke:rgb(0%,0%,0%);stroke-opacity:1;stroke-miterlimit:10;" d="M 0.993686 0.85516 L 1.289259 1.367009 " transform="matrix(30,0,0,30,771.080049,49.876436)"/>
<path style="fill:none;stroke-width:0.0433333;stroke-linecap:butt;stroke-linejoin:miter;stroke:rgb(0%,0%,0%);stroke-opacity:1;stroke-miterlimit:10;" d="M 3.006316 2.608937 L 2.493686 1.721176 " transform="matrix(30,0,0,30,771.080049,49.876436)"/>
<path style="fill:none;stroke-width:0.0433333;stroke-linecap:butt;stroke-linejoin:miter;stroke:rgb(0%,0%,0%);stroke-opacity:1;stroke-miterlimit:10;" d="M 4.012566 2.598129 L 2.987436 2.598129 " transform="matrix(30,0,0,30,771.080049,49.876436)"/>
<path style="fill:none;stroke-width:0.0433333;stroke-linecap:butt;stroke-linejoin:miter;stroke:rgb(0%,0%,0%);stroke-opacity:1;stroke-miterlimit:10;" d="M 4.506316 1.721176 L 3.993686 2.608937 " transform="matrix(30,0,0,30,771.080049,49.876436)"/>
<path style="fill:none;stroke-width:0.0433333;stroke-linecap:butt;stroke-linejoin:miter;stroke:rgb(0%,0%,0%);stroke-opacity:1;stroke-miterlimit:10;" d="M 3.993686 0.85516 L 4.506316 1.742921 " transform="matrix(30,0,0,30,771.080049,49.876436)"/>
<path style="fill:none;stroke-width:0.0433333;stroke-linecap:butt;stroke-linejoin:miter;stroke:rgb(0%,0%,0%);stroke-opacity:1;stroke-miterlimit:10;" d="M 2.987436 0.865968 L 4.012566 0.865968 " transform="matrix(30,0,0,30,771.080049,49.876436)"/>
<path style="fill:none;stroke-width:0.0433333;stroke-linecap:butt;stroke-linejoin:miter;stroke:rgb(0%,0%,0%);stroke-opacity:1;stroke-miterlimit:10;" d="M 3.006316 0.85516 L 2.493686 1.742921 " transform="matrix(30,0,0,30,771.080049,49.876436)"/>
<path style="fill:none;stroke-width:0.0433333;stroke-linecap:butt;stroke-linejoin:miter;stroke:rgb(0%,0%,0%);stroke-opacity:1;stroke-miterlimit:10;" d="M 4.016993 2.699692 L 4.079493 2.663494 M 4.05267 2.790317 L 4.14017 2.739796 M 4.088347 2.881072 L 4.200847 2.816098 M 4.124024 2.971827 L 4.261655 2.8924 M 4.159702 3.062452 L 4.322332 2.968572 M 4.195379 3.153207 L 4.383009 3.044874 " transform="matrix(30,0,0,30,771.080049,49.876436)"/>
<path style="fill:none;stroke-width:0.0433333;stroke-linecap:butt;stroke-linejoin:miter;stroke:rgb(0%,0%,0%);stroke-opacity:1;stroke-miterlimit:10;" d="M 4.079493 0.800603 L 4.016993 0.764535 M 4.14017 0.724301 L 4.05267 0.67378 M 4.200847 0.647999 L 4.088347 0.583025 M 4.261655 0.571827 L 4.124024 0.49227 M 4.322332 0.495525 L 4.159702 0.401645 M 4.383009 0.419223 L 4.195379 0.31089 " transform="matrix(30,0,0,30,771.080049,49.876436)"/>
<path style=" stroke:none;fill-rule:nonzero;fill:rgb(0%,0%,0%);fill-opacity:1;" d="M 860.515625 127.492188 L 849.589844 141.222656 L 855.21875 144.472656 L 861.644531 128.144531 "/>
<path style=" stroke:none;fill-rule:nonzero;fill:rgb(0%,0%,0%);fill-opacity:1;" d="M 906.078125 102.488281 L 926.53125 105.089844 L 926.53125 98.589844 L 906.078125 101.1875 "/>
<path style=" stroke:none;fill-rule:nonzero;fill:rgb(0%,0%,0%);fill-opacity:1;" d="M 861.644531 75.53125 L 855.21875 59.203125 L 849.589844 62.453125 L 860.515625 76.183594 "/>
<path style="fill:none;stroke-width:0.0433333;stroke-linecap:butt;stroke-linejoin:miter;stroke:rgb(0%,0%,0%);stroke-opacity:1;stroke-miterlimit:10;" d="M 1.012566 0.865968 L 0.295899 0.865968 " transform="matrix(30,0,0,30,771.080049,49.876436)"/>
<path style=" stroke:none;fill-rule:nonzero;fill:rgb(0%,0%,0%);fill-opacity:1;" d="M 963.308594 93.664062 L 1000.808594 93.664062 L 1000.808594 96.476562 L 1008.308594 92.726562 L 1000.808594 88.976562 L 1000.808594 91.789062 L 963.308594 91.789062 "/>
<g style="fill:rgb(0%,0%,0%);fill-opacity:1;">
  <use xlink:href="#glyph0-1" x="1205.050781" y="29.558594"/>
  <use xlink:href="#glyph0-5" x="1215.938995" y="29.558594"/>
  <use xlink:href="#glyph0-6" x="1225.822144" y="29.558594"/>
  <use xlink:href="#glyph0-7" x="1230.154587" y="29.558594"/>
  <use xlink:href="#glyph0-8" x="1236.565689" y="29.558594"/>
  <use xlink:href="#glyph0-4" x="1246.121429" y="29.558594"/>
</g>
<g style="fill:rgb(0%,0%,0%);fill-opacity:1;">
  <use xlink:href="#glyph0-3" x="1061" y="92.519531"/>
</g>
<g style="fill:rgb(0%,0%,0%);fill-opacity:1;">
  <use xlink:href="#glyph0-3" x="1086.980469" y="137.519531"/>
</g>
<g style="fill:rgb(0%,0%,0%);fill-opacity:1;">
  <use xlink:href="#glyph0-1" x="1035.691406" y="137.519531"/>
</g>
<g style="fill:rgb(0%,0%,0%);fill-opacity:1;">
  <use xlink:href="#glyph0-2" x="1018.777344" y="137.316406"/>
</g>
<g style="fill:rgb(0%,0%,0%);fill-opacity:1;">
  <use xlink:href="#glyph1-1" x="1029.484375" y="138.210938"/>
</g>
<g style="fill:rgb(0%,0%,0%);fill-opacity:1;">
  <use xlink:href="#glyph0-3" x="1216.882812" y="92.519531"/>
</g>
<g style="fill:rgb(0%,0%,0%);fill-opacity:1;">
  <use xlink:href="#glyph0-3" x="1190.902344" y="137.519531"/>
</g>
<g style="fill:rgb(0%,0%,0%);fill-opacity:1;">
  <use xlink:href="#glyph0-1" x="1243.535156" y="137.519531"/>
</g>
<g style="fill:rgb(0%,0%,0%);fill-opacity:1;">
  <use xlink:href="#glyph0-2" x="1253.351562" y="137.316406"/>
</g>
<g style="fill:rgb(0%,0%,0%);fill-opacity:1;">
  <use xlink:href="#glyph1-1" x="1264.058594" y="138.210938"/>
</g>
<g style="fill:rgb(0%,0%,0%);fill-opacity:1;">
  <use xlink:href="#glyph0-3" x="1138.941406" y="47.519531"/>
</g>
<g style="fill:rgb(0%,0%,0%);fill-opacity:1;">
  <use xlink:href="#glyph0-2" x="1150.101563" y="47.316406"/>
</g>
<g style="fill:rgb(0%,0%,0%);fill-opacity:1;">
  <use xlink:href="#glyph0-3" x="1138.941406" y="167.519531"/>
</g>
<g style="fill:rgb(0%,0%,0%);fill-opacity:1;">
  <use xlink:href="#glyph0-2" x="1150.101563" y="167.316406"/>
</g>
<g style="fill:rgb(0%,0%,0%);fill-opacity:1;">
  <use xlink:href="#glyph0-3" x="1086.980469" y="77.519531"/>
</g>
<g style="fill:rgb(0%,0%,0%);fill-opacity:1;">
  <use xlink:href="#glyph0-2" x="1087.246094" y="64.640625"/>
</g>
<g style="fill:rgb(0%,0%,0%);fill-opacity:1;">
  <use xlink:href="#glyph0-3" x="1190.902344" y="77.519531"/>
</g>
<g style="fill:rgb(0%,0%,0%);fill-opacity:1;">
  <use xlink:href="#glyph0-2" x="1202.0625" y="77.316406"/>
</g>
<path style=" stroke:none;fill-rule:nonzero;fill:rgb(0%,0%,0%);fill-opacity:1;" d="M 1118.769531 116.277344 L 1102.234375 122.820312 L 1105.484375 128.449219 L 1119.417969 117.402344 "/>
<path style="fill:none;stroke-width:0.0433333;stroke-linecap:butt;stroke-linejoin:miter;stroke:rgb(0%,0%,0%);stroke-opacity:1;stroke-miterlimit:10;" d="M 0.974415 2.562517 L 0.974415 1.839601 " transform="matrix(30,0,0,30,1041.150363,41.839321)"/>
<path style="fill:none;stroke-width:0.0433333;stroke-linecap:butt;stroke-linejoin:miter;stroke:rgb(0%,0%,0%);stroke-opacity:1;stroke-miterlimit:10;" d="M 0.757748 2.562517 L 0.757748 1.839601 " transform="matrix(30,0,0,30,1041.150363,41.839321)"/>
<path style="fill:none;stroke-width:0.0433333;stroke-linecap:butt;stroke-linejoin:miter;stroke:rgb(0%,0%,0%);stroke-opacity:1;stroke-miterlimit:10;" d="M 0.855144 2.493767 L 1.373764 2.793116 " transform="matrix(30,0,0,30,1041.150363,41.839321)"/>
<path style=" stroke:none;fill-rule:nonzero;fill:rgb(0%,0%,0%);fill-opacity:1;" d="M 1170.730469 117.402344 L 1184.660156 128.449219 L 1187.910156 122.820312 L 1171.378906 116.277344 "/>
<path style="fill:none;stroke-width:0.0433333;stroke-linecap:butt;stroke-linejoin:miter;stroke:rgb(0%,0%,0%);stroke-opacity:1;stroke-miterlimit:10;" d="M 6.170509 2.562517 L 6.170509 1.839601 " transform="matrix(30,0,0,30,1041.150363,41.839321)"/>
<path style="fill:none;stroke-width:0.0433333;stroke-linecap:butt;stroke-linejoin:miter;stroke:rgb(0%,0%,0%);stroke-opacity:1;stroke-miterlimit:10;" d="M 5.953842 2.562517 L 5.953842 1.839601 " transform="matrix(30,0,0,30,1041.150363,41.839321)"/>
<path style="fill:none;stroke-width:0.0433333;stroke-linecap:butt;stroke-linejoin:miter;stroke:rgb(0%,0%,0%);stroke-opacity:1;stroke-miterlimit:10;" d="M 6.072983 2.493767 L 5.554493 2.793116 " transform="matrix(30,0,0,30,1041.150363,41.839321)"/>
<path style="fill:none;stroke-width:0.0433333;stroke-linecap:butt;stroke-linejoin:miter;stroke:rgb(0%,0%,0%);stroke-opacity:1;stroke-miterlimit:10;" d="M 3.453321 3.006267 L 4.340951 2.493767 " transform="matrix(30,0,0,30,1041.150363,41.839321)"/>
<path style="fill:none;stroke-width:0.0433333;stroke-linecap:butt;stroke-linejoin:miter;stroke:rgb(0%,0%,0%);stroke-opacity:1;stroke-miterlimit:10;" d="M 2.587306 2.493767 L 3.474936 3.006267 " transform="matrix(30,0,0,30,1041.150363,41.839321)"/>
<path style="fill:none;stroke-width:0.0433333;stroke-linecap:butt;stroke-linejoin:miter;stroke:rgb(0%,0%,0%);stroke-opacity:1;stroke-miterlimit:10;" d="M 2.598113 1.487517 L 2.598113 2.512517 " transform="matrix(30,0,0,30,1041.150363,41.839321)"/>
<path style="fill:none;stroke-width:0.0433333;stroke-linecap:butt;stroke-linejoin:miter;stroke:rgb(0%,0%,0%);stroke-opacity:1;stroke-miterlimit:10;" d="M 3.474936 0.993767 L 2.587306 1.506267 " transform="matrix(30,0,0,30,1041.150363,41.839321)"/>
<path style="fill:none;stroke-width:0.0433333;stroke-linecap:butt;stroke-linejoin:miter;stroke:rgb(0%,0%,0%);stroke-opacity:1;stroke-miterlimit:10;" d="M 4.340951 1.506267 L 3.453321 0.993767 " transform="matrix(30,0,0,30,1041.150363,41.839321)"/>
<path style="fill:none;stroke-width:0.0433333;stroke-linecap:butt;stroke-linejoin:miter;stroke:rgb(0%,0%,0%);stroke-opacity:1;stroke-miterlimit:10;" d="M 4.330144 1.487517 L 4.330144 2.512517 " transform="matrix(30,0,0,30,1041.150363,41.839321)"/>
<path style=" stroke:none;fill-rule:nonzero;fill:rgb(0%,0%,0%);fill-opacity:1;" d="M 1145.722656 71.839844 L 1148.324219 52.027344 L 1141.824219 52.027344 L 1144.421875 71.839844 "/>
<path style="fill:none;stroke-width:0.0433333;stroke-linecap:butt;stroke-linejoin:miter;stroke:rgb(0%,0%,0%);stroke-opacity:1;stroke-miterlimit:10;" d="M 3.430014 3.094288 L 3.498113 3.094288 M 3.417644 3.188689 L 3.510483 3.188689 M 3.405274 3.28296 L 3.522852 3.28296 M 3.392905 3.377361 L 3.535352 3.377361 M 3.380535 3.471762 L 3.547722 3.471762 M 3.368165 3.566033 L 3.560092 3.566033 M 3.355795 3.660434 L 3.572462 3.660434 " transform="matrix(30,0,0,30,1041.150363,41.839321)"/>
<path style="fill:none;stroke-width:0.0433333;stroke-linecap:butt;stroke-linejoin:miter;stroke:rgb(0%,0%,0%);stroke-opacity:1;stroke-miterlimit:10;" d="M 2.531446 1.419809 L 2.495379 1.482439 M 2.454102 1.358481 L 2.403582 1.446111 M 2.376759 1.297153 L 2.311655 1.409783 M 2.299285 1.235825 L 2.219858 1.373325 M 2.221941 1.174366 L 2.128061 1.336997 M 2.144467 1.113038 L 2.036134 1.300668 " transform="matrix(30,0,0,30,1041.150363,41.839321)"/>
<path style="fill:none;stroke-width:0.0433333;stroke-linecap:butt;stroke-linejoin:miter;stroke:rgb(0%,0%,0%);stroke-opacity:1;stroke-miterlimit:10;" d="M 4.432748 1.482439 L 4.396681 1.419809 M 4.524675 1.446111 L 4.474155 1.358481 M 4.616472 1.409783 L 4.551498 1.297153 M 4.708399 1.373325 L 4.628842 1.235825 M 4.800196 1.336997 L 4.706316 1.174366 M 4.891993 1.300668 L 4.78366 1.113038 " transform="matrix(30,0,0,30,1041.150363,41.839321)"/>
<path style="fill:none;stroke-width:0.0433333;stroke-linecap:butt;stroke-linejoin:miter;stroke:rgb(0%,0%,0%);stroke-opacity:1;stroke-miterlimit:10;" d="M 6.051368 2.493767 L 6.586785 2.802882 " transform="matrix(30,0,0,30,1041.150363,41.839321)"/>
<path style="fill:none;stroke-width:0.0433333;stroke-linecap:butt;stroke-linejoin:miter;stroke:rgb(0%,0%,0%);stroke-opacity:1;stroke-miterlimit:10;" d="M 0.876889 2.493767 L 0.341472 2.802882 " transform="matrix(30,0,0,30,1041.150363,41.839321)"/>
<g style="fill:rgb(0%,0%,0%);fill-opacity:1;">
  <use xlink:href="#glyph2-1" x="895.300781" y="203.214844"/>
  <use xlink:href="#glyph2-2" x="908.982422" y="203.214844"/>
  <use xlink:href="#glyph2-3" x="921.707031" y="203.214844"/>
  <use xlink:href="#glyph2-5" x="938.464844" y="203.214844"/>
  <use xlink:href="#glyph2-1" x="946.267578" y="203.214844"/>
  <use xlink:href="#glyph2-2" x="959.949219" y="203.214844"/>
  <use xlink:href="#glyph2-3" x="972.673828" y="203.214844"/>
  <use xlink:href="#glyph2-4" x="989.431641" y="203.214844"/>
  <use xlink:href="#glyph2-2" x="1003.152344" y="203.214844"/>
  <use xlink:href="#glyph2-6" x="1015.876953" y="203.214844"/>
</g>
<g style="fill:rgb(0%,0%,0%);fill-opacity:1;">
  <use xlink:href="#glyph0-1" x="70.714844" y="334.117187"/>
</g>
<g style="fill:rgb(0%,0%,0%);fill-opacity:1;">
  <use xlink:href="#glyph0-2" x="80.53125" y="333.914062"/>
</g>
<g style="fill:rgb(0%,0%,0%);fill-opacity:1;">
  <use xlink:href="#glyph1-1" x="91.238281" y="334.808594"/>
</g>
<g style="fill:rgb(0%,0%,0%);fill-opacity:1;">
  <use xlink:href="#glyph0-3" x="44.0625" y="289.117187"/>
</g>
<g style="fill:rgb(0%,0%,0%);fill-opacity:1;">
  <use xlink:href="#glyph0-1" x="94.835938" y="289.25"/>
  <use xlink:href="#glyph0-4" x="105.724152" y="289.25"/>
</g>
<path style="fill:none;stroke-width:0.0433333;stroke-linecap:butt;stroke-linejoin:miter;stroke:rgb(0%,0%,0%);stroke-opacity:1;stroke-miterlimit:10;" d="M 0.86608 1.160352 L 0.86608 0.487435 " transform="matrix(30,0,0,30,50.19339,283.435548)"/>
<path style="fill:none;stroke-width:0.0433333;stroke-linecap:butt;stroke-linejoin:miter;stroke:rgb(0%,0%,0%);stroke-opacity:1;stroke-miterlimit:10;" d="M 0.974413 0.437435 L 0.412434 0.113086 " transform="matrix(30,0,0,30,50.19339,283.435548)"/>
<path style="fill:none;stroke-width:0.0433333;stroke-linecap:butt;stroke-linejoin:miter;stroke:rgb(0%,0%,0%);stroke-opacity:1;stroke-miterlimit:10;" d="M 0.86608 0.625065 L 0.304101 0.300716 " transform="matrix(30,0,0,30,50.19339,283.435548)"/>
<path style="fill:none;stroke-width:0.0433333;stroke-linecap:butt;stroke-linejoin:miter;stroke:rgb(0%,0%,0%);stroke-opacity:1;stroke-miterlimit:10;" d="M 0.855142 0.506315 L 1.342252 0.225065 " transform="matrix(30,0,0,30,50.19339,283.435548)"/>
<path style="fill:none;stroke-width:0.0625;stroke-linecap:butt;stroke-linejoin:miter;stroke:rgb(0%,0%,0%);stroke-opacity:1;stroke-miterlimit:10;" d="M 0.0000640074 -0.0000000317891 L 0.500064 -0.0000000317891 M 0.250064 -0.25 L 0.250064 0.25 " transform="matrix(30,0,0,30,120.599642,306.175782)"/>
<g style="fill:rgb(0%,0%,0%);fill-opacity:1;">
  <use xlink:href="#glyph0-1" x="289.492188" y="251.046875"/>
  <use xlink:href="#glyph0-5" x="300.380402" y="251.046875"/>
  <use xlink:href="#glyph0-6" x="310.26355" y="251.046875"/>
  <use xlink:href="#glyph0-7" x="314.595993" y="251.046875"/>
  <use xlink:href="#glyph0-8" x="321.007095" y="251.046875"/>
  <use xlink:href="#glyph0-4" x="330.562836" y="251.046875"/>
</g>
<g style="fill:rgb(0%,0%,0%);fill-opacity:1;">
  <use xlink:href="#glyph0-3" x="207.308594" y="269.007812"/>
</g>
<g style="fill:rgb(0%,0%,0%);fill-opacity:1;">
  <use xlink:href="#glyph0-3" x="207.308594" y="320.96875"/>
</g>
<g style="fill:rgb(0%,0%,0%);fill-opacity:1;">
  <use xlink:href="#glyph0-1" x="162.980469" y="294.988281"/>
</g>
<g style="fill:rgb(0%,0%,0%);fill-opacity:1;">
  <use xlink:href="#glyph0-2" x="146.066406" y="294.785156"/>
</g>
<g style="fill:rgb(0%,0%,0%);fill-opacity:1;">
  <use xlink:href="#glyph1-1" x="156.773438" y="295.679687"/>
</g>
<g style="fill:rgb(0%,0%,0%);fill-opacity:1;">
  <use xlink:href="#glyph0-3" x="297.308594" y="372.929688"/>
</g>
<g style="fill:rgb(0%,0%,0%);fill-opacity:1;">
  <use xlink:href="#glyph0-2" x="308.46875" y="372.726562"/>
</g>
<g style="fill:rgb(0%,0%,0%);fill-opacity:1;">
  <use xlink:href="#glyph0-3" x="297.308594" y="269.007812"/>
</g>
<g style="fill:rgb(0%,0%,0%);fill-opacity:1;">
  <use xlink:href="#glyph0-2" x="308.46875" y="268.804688"/>
</g>
<g style="fill:rgb(0%,0%,0%);fill-opacity:1;">
  <use xlink:href="#glyph0-3" x="237.308594" y="372.929688"/>
</g>
<g style="fill:rgb(0%,0%,0%);fill-opacity:1;">
  <use xlink:href="#glyph0-2" x="226.679688" y="372.726562"/>
</g>
<g style="fill:rgb(0%,0%,0%);fill-opacity:1;">
  <use xlink:href="#glyph0-3" x="327.308594" y="320.96875"/>
</g>
<g style="fill:rgb(0%,0%,0%);fill-opacity:1;">
  <use xlink:href="#glyph0-2" x="338.46875" y="320.765625"/>
</g>
<g style="fill:rgb(0%,0%,0%);fill-opacity:1;">
  <use xlink:href="#glyph0-3" x="237.308594" y="269.007812"/>
</g>
<g style="fill:rgb(0%,0%,0%);fill-opacity:1;">
  <use xlink:href="#glyph0-2" x="237.574219" y="256.128906"/>
</g>
<path style="fill:none;stroke-width:0.0433333;stroke-linecap:butt;stroke-linejoin:miter;stroke:rgb(0%,0%,0%);stroke-opacity:1;stroke-miterlimit:10;" d="M 2.402668 1.697982 L 2.402668 1.766081 M 2.305272 1.685612 L 2.305272 1.77845 M 2.207877 1.673242 L 2.207877 1.79082 M 2.110481 1.660872 L 2.110481 1.80319 M 2.013085 1.648503 L 2.013085 1.81556 M 1.915689 1.636133 L 1.915689 1.82806 M 1.818293 1.623763 L 1.818293 1.84043 " transform="matrix(30,0,0,30,168.439485,263.326174)"/>
<path style="fill:none;stroke-width:0.0433333;stroke-linecap:butt;stroke-linejoin:miter;stroke:rgb(0%,0%,0%);stroke-opacity:1;stroke-miterlimit:10;" d="M 1.062564 0.974414 L 1.383007 0.419206 " transform="matrix(30,0,0,30,168.439485,263.326174)"/>
<path style="fill:none;stroke-width:0.0433333;stroke-linecap:butt;stroke-linejoin:miter;stroke:rgb(0%,0%,0%);stroke-opacity:1;stroke-miterlimit:10;" d="M 0.874934 0.866081 L 1.195377 0.310872 " transform="matrix(30,0,0,30,168.439485,263.326174)"/>
<path style="fill:none;stroke-width:0.0433333;stroke-linecap:butt;stroke-linejoin:miter;stroke:rgb(0%,0%,0%);stroke-opacity:1;stroke-miterlimit:10;" d="M 0.993684 0.855143 L 1.289257 1.366992 " transform="matrix(30,0,0,30,168.439485,263.326174)"/>
<path style="fill:none;stroke-width:0.0433333;stroke-linecap:butt;stroke-linejoin:miter;stroke:rgb(0%,0%,0%);stroke-opacity:1;stroke-miterlimit:10;" d="M 3.006314 2.608919 L 2.493684 1.721159 " transform="matrix(30,0,0,30,168.439485,263.326174)"/>
<path style="fill:none;stroke-width:0.0433333;stroke-linecap:butt;stroke-linejoin:miter;stroke:rgb(0%,0%,0%);stroke-opacity:1;stroke-miterlimit:10;" d="M 4.012564 2.598112 L 2.987434 2.598112 " transform="matrix(30,0,0,30,168.439485,263.326174)"/>
<path style="fill:none;stroke-width:0.0433333;stroke-linecap:butt;stroke-linejoin:miter;stroke:rgb(0%,0%,0%);stroke-opacity:1;stroke-miterlimit:10;" d="M 4.506314 1.721159 L 3.993684 2.608919 " transform="matrix(30,0,0,30,168.439485,263.326174)"/>
<path style="fill:none;stroke-width:0.0433333;stroke-linecap:butt;stroke-linejoin:miter;stroke:rgb(0%,0%,0%);stroke-opacity:1;stroke-miterlimit:10;" d="M 3.993684 0.855143 L 4.506314 1.742904 " transform="matrix(30,0,0,30,168.439485,263.326174)"/>
<path style="fill:none;stroke-width:0.0433333;stroke-linecap:butt;stroke-linejoin:miter;stroke:rgb(0%,0%,0%);stroke-opacity:1;stroke-miterlimit:10;" d="M 2.987434 0.866081 L 4.012564 0.866081 " transform="matrix(30,0,0,30,168.439485,263.326174)"/>
<path style="fill:none;stroke-width:0.0433333;stroke-linecap:butt;stroke-linejoin:miter;stroke:rgb(0%,0%,0%);stroke-opacity:1;stroke-miterlimit:10;" d="M 3.006314 0.855143 L 2.493684 1.742904 " transform="matrix(30,0,0,30,168.439485,263.326174)"/>
<path style="fill:none;stroke-width:0.0433333;stroke-linecap:butt;stroke-linejoin:miter;stroke:rgb(0%,0%,0%);stroke-opacity:1;stroke-miterlimit:10;" d="M 4.016991 2.699674 L 4.079491 2.663477 M 4.052668 2.790299 L 4.140168 2.739779 M 4.088345 2.881055 L 4.200976 2.816081 M 4.124022 2.97181 L 4.261653 2.892383 M 4.159699 3.062565 L 4.32233 2.968555 M 4.195377 3.15319 L 4.383007 3.044857 " transform="matrix(30,0,0,30,168.439485,263.326174)"/>
<path style="fill:none;stroke-width:0.0433333;stroke-linecap:butt;stroke-linejoin:miter;stroke:rgb(0%,0%,0%);stroke-opacity:1;stroke-miterlimit:10;" d="M 4.079491 0.800586 L 4.016991 0.764518 M 4.140168 0.724284 L 4.052668 0.673763 M 4.200976 0.647982 L 4.088345 0.583008 M 4.261653 0.57181 L 4.124022 0.492383 M 4.32233 0.495508 L 4.159699 0.401628 M 4.383007 0.419206 L 4.195377 0.310872 " transform="matrix(30,0,0,30,168.439485,263.326174)"/>
<path style=" stroke:none;fill-rule:nonzero;fill:rgb(0%,0%,0%);fill-opacity:1;" d="M 257.875 340.945312 L 246.949219 354.671875 L 252.578125 357.921875 L 259.003906 341.59375 "/>
<path style=" stroke:none;fill-rule:nonzero;fill:rgb(0%,0%,0%);fill-opacity:1;" d="M 303.441406 315.9375 L 323.890625 318.539062 L 323.890625 312.039062 L 303.441406 314.636719 "/>
<path style=" stroke:none;fill-rule:nonzero;fill:rgb(0%,0%,0%);fill-opacity:1;" d="M 259.003906 288.980469 L 252.578125 272.652344 L 246.949219 275.902344 L 257.875 289.632812 "/>
<path style="fill:none;stroke-width:0.0433333;stroke-linecap:butt;stroke-linejoin:miter;stroke:rgb(0%,0%,0%);stroke-opacity:1;stroke-miterlimit:10;" d="M 1.012564 0.866081 L 0.295897 0.866081 " transform="matrix(30,0,0,30,168.439485,263.326174)"/>
<path style=" stroke:none;fill-rule:nonzero;fill:rgb(0%,0%,0%);fill-opacity:1;" d="M 360.671875 307.113281 L 398.171875 307.113281 L 398.171875 309.925781 L 405.671875 306.175781 L 398.171875 302.425781 L 398.171875 305.238281 L 360.671875 305.238281 "/>
<g style="fill:rgb(0%,0%,0%);fill-opacity:1;">
  <use xlink:href="#glyph0-1" x="524.46875" y="227.703125"/>
  <use xlink:href="#glyph0-5" x="535.356964" y="227.703125"/>
  <use xlink:href="#glyph0-6" x="545.240112" y="227.703125"/>
  <use xlink:href="#glyph0-7" x="549.572556" y="227.703125"/>
  <use xlink:href="#glyph0-8" x="555.983658" y="227.703125"/>
  <use xlink:href="#glyph0-4" x="565.539398" y="227.703125"/>
</g>
<g style="fill:rgb(0%,0%,0%);fill-opacity:1;">
  <use xlink:href="#glyph0-3" x="484.339844" y="395.664062"/>
</g>
<g style="fill:rgb(0%,0%,0%);fill-opacity:1;">
  <use xlink:href="#glyph0-3" x="458.359375" y="350.664062"/>
</g>
<g style="fill:rgb(0%,0%,0%);fill-opacity:1;">
  <use xlink:href="#glyph0-1" x="433.050781" y="395.664062"/>
</g>
<g style="fill:rgb(0%,0%,0%);fill-opacity:1;">
  <use xlink:href="#glyph0-2" x="416.136719" y="395.460938"/>
</g>
<g style="fill:rgb(0%,0%,0%);fill-opacity:1;">
  <use xlink:href="#glyph1-1" x="426.84375" y="396.355469"/>
</g>
<g style="fill:rgb(0%,0%,0%);fill-opacity:1;">
  <use xlink:href="#glyph0-3" x="484.339844" y="245.664063"/>
</g>
<g style="fill:rgb(0%,0%,0%);fill-opacity:1;">
  <use xlink:href="#glyph0-3" x="458.359375" y="290.664062"/>
</g>
<g style="fill:rgb(0%,0%,0%);fill-opacity:1;">
  <use xlink:href="#glyph0-1" x="433.050781" y="245.664063"/>
</g>
<g style="fill:rgb(0%,0%,0%);fill-opacity:1;">
  <use xlink:href="#glyph0-2" x="416.136719" y="245.460938"/>
</g>
<g style="fill:rgb(0%,0%,0%);fill-opacity:1;">
  <use xlink:href="#glyph1-1" x="426.84375" y="246.355469"/>
</g>
<g style="fill:rgb(0%,0%,0%);fill-opacity:1;">
  <use xlink:href="#glyph0-3" x="510.320313" y="380.664062"/>
</g>
<g style="fill:rgb(0%,0%,0%);fill-opacity:1;">
  <use xlink:href="#glyph0-2" x="521.480469" y="380.460938"/>
</g>
<g style="fill:rgb(0%,0%,0%);fill-opacity:1;">
  <use xlink:href="#glyph0-3" x="562.28125" y="290.664062"/>
</g>
<g style="fill:rgb(0%,0%,0%);fill-opacity:1;">
  <use xlink:href="#glyph0-2" x="573.441406" y="290.460938"/>
</g>
<g style="fill:rgb(0%,0%,0%);fill-opacity:1;">
  <use xlink:href="#glyph0-3" x="562.28125" y="350.664062"/>
</g>
<g style="fill:rgb(0%,0%,0%);fill-opacity:1;">
  <use xlink:href="#glyph0-2" x="573.441406" y="350.460938"/>
</g>
<g style="fill:rgb(0%,0%,0%);fill-opacity:1;">
  <use xlink:href="#glyph0-3" x="510.320313" y="260.664062"/>
</g>
<g style="fill:rgb(0%,0%,0%);fill-opacity:1;">
  <use xlink:href="#glyph0-2" x="521.480469" y="260.460938"/>
</g>
<path style=" stroke:none;fill-rule:nonzero;fill:rgb(0%,0%,0%);fill-opacity:1;" d="M 490.144531 329.417969 L 473.613281 335.960938 L 476.863281 341.589844 L 490.796875 330.546875 "/>
<path style="fill:none;stroke-width:0.0433333;stroke-linecap:butt;stroke-linejoin:miter;stroke:rgb(0%,0%,0%);stroke-opacity:1;stroke-miterlimit:10;" d="M 0.757746 4.562565 L 1.319595 4.886914 " transform="matrix(30,0,0,30,438.509799,239.982422)"/>
<path style="fill:none;stroke-width:0.0433333;stroke-linecap:butt;stroke-linejoin:miter;stroke:rgb(0%,0%,0%);stroke-opacity:1;stroke-miterlimit:10;" d="M 0.86608 4.374935 L 1.427929 4.699284 " transform="matrix(30,0,0,30,438.509799,239.982422)"/>
<path style="fill:none;stroke-width:0.0433333;stroke-linecap:butt;stroke-linejoin:miter;stroke:rgb(0%,0%,0%);stroke-opacity:1;stroke-miterlimit:10;" d="M 0.86608 4.512565 L 0.86608 3.839648 " transform="matrix(30,0,0,30,438.509799,239.982422)"/>
<path style="fill:none;stroke-width:0.0433333;stroke-linecap:butt;stroke-linejoin:miter;stroke:rgb(0%,0%,0%);stroke-opacity:1;stroke-miterlimit:10;" d="M 1.665429 1.919857 L 1.629361 1.982357 M 1.588085 1.858529 L 1.537564 1.946029 M 1.510741 1.79707 L 1.445637 1.909701 M 1.433267 1.735742 L 1.35384 1.873372 M 1.355923 1.674414 L 1.262043 1.837044 M 1.278449 1.613086 L 1.170116 1.800716 " transform="matrix(30,0,0,30,438.509799,239.982422)"/>
<path style="fill:none;stroke-width:0.0433333;stroke-linecap:butt;stroke-linejoin:miter;stroke:rgb(0%,0%,0%);stroke-opacity:1;stroke-miterlimit:10;" d="M 0.86608 0.625065 L 1.427929 0.300716 " transform="matrix(30,0,0,30,438.509799,239.982422)"/>
<path style="fill:none;stroke-width:0.0433333;stroke-linecap:butt;stroke-linejoin:miter;stroke:rgb(0%,0%,0%);stroke-opacity:1;stroke-miterlimit:10;" d="M 0.757746 0.437435 L 1.319595 0.113086 " transform="matrix(30,0,0,30,438.509799,239.982422)"/>
<path style="fill:none;stroke-width:0.0433333;stroke-linecap:butt;stroke-linejoin:miter;stroke:rgb(0%,0%,0%);stroke-opacity:1;stroke-miterlimit:10;" d="M 0.86608 0.487435 L 0.86608 1.160352 " transform="matrix(30,0,0,30,438.509799,239.982422)"/>
<path style="fill:none;stroke-width:0.0433333;stroke-linecap:butt;stroke-linejoin:miter;stroke:rgb(0%,0%,0%);stroke-opacity:1;stroke-miterlimit:10;" d="M 1.732095 3.012565 L 1.732095 1.987435 " transform="matrix(30,0,0,30,438.509799,239.982422)"/>
<path style="fill:none;stroke-width:0.0433333;stroke-linecap:butt;stroke-linejoin:miter;stroke:rgb(0%,0%,0%);stroke-opacity:1;stroke-miterlimit:10;" d="M 2.608918 3.506315 L 1.721158 2.993685 " transform="matrix(30,0,0,30,438.509799,239.982422)"/>
<path style="fill:none;stroke-width:0.0433333;stroke-linecap:butt;stroke-linejoin:miter;stroke:rgb(0%,0%,0%);stroke-opacity:1;stroke-miterlimit:10;" d="M 3.474934 2.993685 L 2.587304 3.506315 " transform="matrix(30,0,0,30,438.509799,239.982422)"/>
<path style="fill:none;stroke-width:0.0433333;stroke-linecap:butt;stroke-linejoin:miter;stroke:rgb(0%,0%,0%);stroke-opacity:1;stroke-miterlimit:10;" d="M 3.464126 1.987435 L 3.464126 3.012565 " transform="matrix(30,0,0,30,438.509799,239.982422)"/>
<path style="fill:none;stroke-width:0.0433333;stroke-linecap:butt;stroke-linejoin:miter;stroke:rgb(0%,0%,0%);stroke-opacity:1;stroke-miterlimit:10;" d="M 2.587304 1.493685 L 3.474934 2.006315 " transform="matrix(30,0,0,30,438.509799,239.982422)"/>
<path style="fill:none;stroke-width:0.0433333;stroke-linecap:butt;stroke-linejoin:miter;stroke:rgb(0%,0%,0%);stroke-opacity:1;stroke-miterlimit:10;" d="M 2.608918 1.493685 L 1.721158 2.006315 " transform="matrix(30,0,0,30,438.509799,239.982422)"/>
<path style="fill:none;stroke-width:0.0433333;stroke-linecap:butt;stroke-linejoin:miter;stroke:rgb(0%,0%,0%);stroke-opacity:1;stroke-miterlimit:10;" d="M 2.563996 3.594336 L 2.632095 3.594336 M 2.551626 3.688737 L 2.644465 3.688737 M 2.539257 3.783008 L 2.656835 3.783008 M 2.526887 3.877409 L 2.669205 3.877409 M 2.514517 3.97168 L 2.681705 3.97168 M 2.502147 4.066081 L 2.694074 4.066081 M 2.489778 4.160352 L 2.706444 4.160352 " transform="matrix(30,0,0,30,438.509799,239.982422)"/>
<path style="fill:none;stroke-width:0.0433333;stroke-linecap:butt;stroke-linejoin:miter;stroke:rgb(0%,0%,0%);stroke-opacity:1;stroke-miterlimit:10;" d="M 3.566731 1.982357 L 3.530663 1.919857 M 3.658658 1.946029 L 3.608137 1.858529 M 3.750455 1.909701 L 3.685481 1.79707 M 3.842382 1.873372 L 3.762824 1.735742 M 3.934179 1.837044 L 3.840298 1.674414 M 4.025975 1.800716 L 3.917642 1.613086 " transform="matrix(30,0,0,30,438.509799,239.982422)"/>
<path style=" stroke:none;fill-rule:nonzero;fill:rgb(0%,0%,0%);fill-opacity:1;" d="M 542.109375 330.546875 L 556.039062 341.589844 L 559.289062 335.960938 L 542.757812 329.417969 "/>
<path style=" stroke:none;fill-rule:nonzero;fill:rgb(0%,0%,0%);fill-opacity:1;" d="M 517.101562 284.984375 L 519.703125 265.171875 L 513.203125 265.171875 L 515.800781 284.984375 "/>
<path style="fill:none;stroke-width:0.0433333;stroke-linecap:butt;stroke-linejoin:miter;stroke:rgb(0%,0%,0%);stroke-opacity:1;stroke-miterlimit:10;" d="M 0.876887 0.506315 L 0.34147 0.197201 " transform="matrix(30,0,0,30,438.509799,239.982422)"/>
<path style="fill:none;stroke-width:0.0433333;stroke-linecap:butt;stroke-linejoin:miter;stroke:rgb(0%,0%,0%);stroke-opacity:1;stroke-miterlimit:10;" d="M 0.876887 4.493685 L 0.34147 4.802799 " transform="matrix(30,0,0,30,438.509799,239.982422)"/>
<g style="fill:rgb(0%,0%,0%);fill-opacity:1;">
  <use xlink:href="#glyph2-1" x="250.882812" y="416.664062"/>
  <use xlink:href="#glyph2-2" x="264.564453" y="416.664062"/>
  <use xlink:href="#glyph2-3" x="277.289062" y="416.664062"/>
  <use xlink:href="#glyph2-5" x="294.046875" y="416.664062"/>
  <use xlink:href="#glyph2-1" x="301.849609" y="416.664062"/>
  <use xlink:href="#glyph2-2" x="315.53125" y="416.664062"/>
  <use xlink:href="#glyph2-3" x="328.255859" y="416.664062"/>
  <use xlink:href="#glyph2-4" x="345.013672" y="416.664062"/>
  <use xlink:href="#glyph2-2" x="358.734375" y="416.664062"/>
  <use xlink:href="#glyph2-6" x="371.458984" y="416.664062"/>
</g>
<g style="fill:rgb(0%,0%,0%);fill-opacity:1;">
  <use xlink:href="#glyph0-1" x="672.277344" y="334.117187"/>
</g>
<g style="fill:rgb(0%,0%,0%);fill-opacity:1;">
  <use xlink:href="#glyph0-2" x="682.09375" y="333.914062"/>
</g>
<g style="fill:rgb(0%,0%,0%);fill-opacity:1;">
  <use xlink:href="#glyph1-1" x="692.800781" y="334.808594"/>
</g>
<g style="fill:rgb(0%,0%,0%);fill-opacity:1;">
  <use xlink:href="#glyph0-3" x="645.625" y="289.117187"/>
</g>
<g style="fill:rgb(0%,0%,0%);fill-opacity:1;">
  <use xlink:href="#glyph0-1" x="696.402344" y="289.25"/>
  <use xlink:href="#glyph0-4" x="707.290558" y="289.25"/>
</g>
<path style="fill:none;stroke-width:0.0433333;stroke-linecap:butt;stroke-linejoin:miter;stroke:rgb(0%,0%,0%);stroke-opacity:1;stroke-miterlimit:10;" d="M 0.866016 1.160352 L 0.866016 0.487435 " transform="matrix(30,0,0,30,651.757812,283.435548)"/>
<path style="fill:none;stroke-width:0.0433333;stroke-linecap:butt;stroke-linejoin:miter;stroke:rgb(0%,0%,0%);stroke-opacity:1;stroke-miterlimit:10;" d="M 0.974349 0.437435 L 0.4125 0.113086 " transform="matrix(30,0,0,30,651.757812,283.435548)"/>
<path style="fill:none;stroke-width:0.0433333;stroke-linecap:butt;stroke-linejoin:miter;stroke:rgb(0%,0%,0%);stroke-opacity:1;stroke-miterlimit:10;" d="M 0.866016 0.625065 L 0.304167 0.300716 " transform="matrix(30,0,0,30,651.757812,283.435548)"/>
<path style="fill:none;stroke-width:0.0433333;stroke-linecap:butt;stroke-linejoin:miter;stroke:rgb(0%,0%,0%);stroke-opacity:1;stroke-miterlimit:10;" d="M 0.855208 0.506315 L 1.342188 0.225065 " transform="matrix(30,0,0,30,651.757812,283.435548)"/>
<path style="fill:none;stroke-width:0.0625;stroke-linecap:butt;stroke-linejoin:miter;stroke:rgb(0%,0%,0%);stroke-opacity:1;stroke-miterlimit:10;" d="M -0.0000000794729 -0.0000000317891 L 0.5 -0.0000000317891 M 0.25 -0.25 L 0.25 0.25 " transform="matrix(30,0,0,30,722.164065,306.175782)"/>
<g style="fill:rgb(0%,0%,0%);fill-opacity:1;">
  <use xlink:href="#glyph0-1" x="891.058594" y="251.046875"/>
  <use xlink:href="#glyph0-5" x="901.946808" y="251.046875"/>
  <use xlink:href="#glyph0-6" x="911.829956" y="251.046875"/>
  <use xlink:href="#glyph0-7" x="916.162399" y="251.046875"/>
  <use xlink:href="#glyph0-8" x="922.573502" y="251.046875"/>
  <use xlink:href="#glyph0-4" x="932.129242" y="251.046875"/>
</g>
<g style="fill:rgb(0%,0%,0%);fill-opacity:1;">
  <use xlink:href="#glyph0-3" x="808.871094" y="269.007812"/>
</g>
<g style="fill:rgb(0%,0%,0%);fill-opacity:1;">
  <use xlink:href="#glyph0-3" x="808.871094" y="320.96875"/>
</g>
<g style="fill:rgb(0%,0%,0%);fill-opacity:1;">
  <use xlink:href="#glyph0-1" x="764.542969" y="294.988281"/>
</g>
<g style="fill:rgb(0%,0%,0%);fill-opacity:1;">
  <use xlink:href="#glyph0-2" x="747.632812" y="294.785156"/>
</g>
<g style="fill:rgb(0%,0%,0%);fill-opacity:1;">
  <use xlink:href="#glyph1-1" x="758.339844" y="295.679687"/>
</g>
<g style="fill:rgb(0%,0%,0%);fill-opacity:1;">
  <use xlink:href="#glyph0-3" x="898.871094" y="372.929688"/>
</g>
<g style="fill:rgb(0%,0%,0%);fill-opacity:1;">
  <use xlink:href="#glyph0-2" x="910.03125" y="372.726562"/>
</g>
<g style="fill:rgb(0%,0%,0%);fill-opacity:1;">
  <use xlink:href="#glyph0-3" x="898.871094" y="269.007812"/>
</g>
<g style="fill:rgb(0%,0%,0%);fill-opacity:1;">
  <use xlink:href="#glyph0-2" x="910.03125" y="268.804688"/>
</g>
<g style="fill:rgb(0%,0%,0%);fill-opacity:1;">
  <use xlink:href="#glyph0-3" x="838.871094" y="372.929688"/>
</g>
<g style="fill:rgb(0%,0%,0%);fill-opacity:1;">
  <use xlink:href="#glyph0-2" x="828.246094" y="372.726562"/>
</g>
<g style="fill:rgb(0%,0%,0%);fill-opacity:1;">
  <use xlink:href="#glyph0-3" x="928.871094" y="320.96875"/>
</g>
<g style="fill:rgb(0%,0%,0%);fill-opacity:1;">
  <use xlink:href="#glyph0-2" x="940.03125" y="320.765625"/>
</g>
<g style="fill:rgb(0%,0%,0%);fill-opacity:1;">
  <use xlink:href="#glyph0-3" x="838.871094" y="269.007812"/>
</g>
<g style="fill:rgb(0%,0%,0%);fill-opacity:1;">
  <use xlink:href="#glyph0-2" x="839.136719" y="256.128906"/>
</g>
<path style="fill:none;stroke-width:0.0433333;stroke-linecap:butt;stroke-linejoin:miter;stroke:rgb(0%,0%,0%);stroke-opacity:1;stroke-miterlimit:10;" d="M 2.402604 1.697982 L 2.402604 1.766081 M 2.305208 1.685612 L 2.305208 1.77845 M 2.207812 1.673242 L 2.207812 1.79082 M 2.110417 1.660872 L 2.110417 1.80319 M 2.013021 1.648503 L 2.013021 1.81556 M 1.915625 1.636133 L 1.915625 1.82806 M 1.818229 1.623763 L 1.818229 1.84043 " transform="matrix(30,0,0,30,770.003907,263.326174)"/>
<path style="fill:none;stroke-width:0.0433333;stroke-linecap:butt;stroke-linejoin:miter;stroke:rgb(0%,0%,0%);stroke-opacity:1;stroke-miterlimit:10;" d="M 1.0625 0.974414 L 1.383073 0.419206 " transform="matrix(30,0,0,30,770.003907,263.326174)"/>
<path style="fill:none;stroke-width:0.0433333;stroke-linecap:butt;stroke-linejoin:miter;stroke:rgb(0%,0%,0%);stroke-opacity:1;stroke-miterlimit:10;" d="M 0.87487 0.866081 L 1.195443 0.310872 " transform="matrix(30,0,0,30,770.003907,263.326174)"/>
<path style="fill:none;stroke-width:0.0433333;stroke-linecap:butt;stroke-linejoin:miter;stroke:rgb(0%,0%,0%);stroke-opacity:1;stroke-miterlimit:10;" d="M 0.99375 0.855143 L 1.289193 1.366992 " transform="matrix(30,0,0,30,770.003907,263.326174)"/>
<path style="fill:none;stroke-width:0.0433333;stroke-linecap:butt;stroke-linejoin:miter;stroke:rgb(0%,0%,0%);stroke-opacity:1;stroke-miterlimit:10;" d="M 3.00625 2.608919 L 2.49375 1.721159 " transform="matrix(30,0,0,30,770.003907,263.326174)"/>
<path style="fill:none;stroke-width:0.0433333;stroke-linecap:butt;stroke-linejoin:miter;stroke:rgb(0%,0%,0%);stroke-opacity:1;stroke-miterlimit:10;" d="M 4.0125 2.598112 L 2.9875 2.598112 " transform="matrix(30,0,0,30,770.003907,263.326174)"/>
<path style="fill:none;stroke-width:0.0433333;stroke-linecap:butt;stroke-linejoin:miter;stroke:rgb(0%,0%,0%);stroke-opacity:1;stroke-miterlimit:10;" d="M 4.50625 1.721159 L 3.99375 2.608919 " transform="matrix(30,0,0,30,770.003907,263.326174)"/>
<path style="fill:none;stroke-width:0.0433333;stroke-linecap:butt;stroke-linejoin:miter;stroke:rgb(0%,0%,0%);stroke-opacity:1;stroke-miterlimit:10;" d="M 3.99375 0.855143 L 4.50625 1.742904 " transform="matrix(30,0,0,30,770.003907,263.326174)"/>
<path style="fill:none;stroke-width:0.0433333;stroke-linecap:butt;stroke-linejoin:miter;stroke:rgb(0%,0%,0%);stroke-opacity:1;stroke-miterlimit:10;" d="M 2.9875 0.866081 L 4.0125 0.866081 " transform="matrix(30,0,0,30,770.003907,263.326174)"/>
<path style="fill:none;stroke-width:0.0433333;stroke-linecap:butt;stroke-linejoin:miter;stroke:rgb(0%,0%,0%);stroke-opacity:1;stroke-miterlimit:10;" d="M 3.00625 0.855143 L 2.49375 1.742904 " transform="matrix(30,0,0,30,770.003907,263.326174)"/>
<path style="fill:none;stroke-width:0.0433333;stroke-linecap:butt;stroke-linejoin:miter;stroke:rgb(0%,0%,0%);stroke-opacity:1;stroke-miterlimit:10;" d="M 4.016927 2.699674 L 4.079427 2.663477 M 4.052604 2.790299 L 4.140234 2.739779 M 4.088281 2.881055 L 4.200911 2.816081 M 4.124089 2.97181 L 4.261589 2.892383 M 4.159766 3.062565 L 4.322396 2.968555 M 4.195443 3.15319 L 4.383073 3.044857 " transform="matrix(30,0,0,30,770.003907,263.326174)"/>
<path style="fill:none;stroke-width:0.0433333;stroke-linecap:butt;stroke-linejoin:miter;stroke:rgb(0%,0%,0%);stroke-opacity:1;stroke-miterlimit:10;" d="M 4.079427 0.800586 L 4.016927 0.764518 M 4.140234 0.724284 L 4.052604 0.673763 M 4.200911 0.647982 L 4.088281 0.583008 M 4.261589 0.57181 L 4.124089 0.492383 M 4.322396 0.495508 L 4.159766 0.401628 M 4.383073 0.419206 L 4.195443 0.310872 " transform="matrix(30,0,0,30,770.003907,263.326174)"/>
<path style=" stroke:none;fill-rule:nonzero;fill:rgb(0%,0%,0%);fill-opacity:1;" d="M 859.441406 340.945312 L 848.511719 354.671875 L 854.140625 357.921875 L 860.566406 341.59375 "/>
<path style=" stroke:none;fill-rule:nonzero;fill:rgb(0%,0%,0%);fill-opacity:1;" d="M 905.003906 315.9375 L 925.457031 318.539062 L 925.457031 312.039062 L 905.003906 314.636719 "/>
<path style=" stroke:none;fill-rule:nonzero;fill:rgb(0%,0%,0%);fill-opacity:1;" d="M 860.566406 288.980469 L 854.140625 272.652344 L 848.511719 275.902344 L 859.441406 289.632812 "/>
<path style="fill:none;stroke-width:0.0433333;stroke-linecap:butt;stroke-linejoin:miter;stroke:rgb(0%,0%,0%);stroke-opacity:1;stroke-miterlimit:10;" d="M 1.0125 0.866081 L 0.295833 0.866081 " transform="matrix(30,0,0,30,770.003907,263.326174)"/>
<path style=" stroke:none;fill-rule:nonzero;fill:rgb(0%,0%,0%);fill-opacity:1;" d="M 962.234375 307.113281 L 999.734375 307.113281 L 999.734375 309.925781 L 1007.234375 306.175781 L 999.734375 302.425781 L 999.734375 305.238281 L 962.234375 305.238281 "/>
<g style="fill:rgb(0%,0%,0%);fill-opacity:1;">
  <use xlink:href="#glyph0-1" x="1206.128906" y="244.707031"/>
  <use xlink:href="#glyph0-5" x="1217.01712" y="244.707031"/>
  <use xlink:href="#glyph0-6" x="1226.900269" y="244.707031"/>
  <use xlink:href="#glyph0-7" x="1231.232712" y="244.707031"/>
  <use xlink:href="#glyph0-8" x="1237.643814" y="244.707031"/>
  <use xlink:href="#glyph0-4" x="1247.199554" y="244.707031"/>
</g>
<g style="fill:rgb(0%,0%,0%);fill-opacity:1;">
  <use xlink:href="#glyph0-3" x="1078.941406" y="366.59375"/>
</g>
<g style="fill:rgb(0%,0%,0%);fill-opacity:1;">
  <use xlink:href="#glyph0-3" x="1078.941406" y="314.632812"/>
</g>
<g style="fill:rgb(0%,0%,0%);fill-opacity:1;">
  <use xlink:href="#glyph0-1" x="1034.613281" y="340.613281"/>
</g>
<g style="fill:rgb(0%,0%,0%);fill-opacity:1;">
  <use xlink:href="#glyph0-2" x="1017.703125" y="340.410156"/>
</g>
<g style="fill:rgb(0%,0%,0%);fill-opacity:1;">
  <use xlink:href="#glyph1-1" x="1028.410156" y="341.304688"/>
</g>
<g style="fill:rgb(0%,0%,0%);fill-opacity:1;">
  <use xlink:href="#glyph0-3" x="1198.941406" y="262.671875"/>
</g>
<g style="fill:rgb(0%,0%,0%);fill-opacity:1;">
  <use xlink:href="#glyph0-3" x="1198.941406" y="314.632812"/>
</g>
<g style="fill:rgb(0%,0%,0%);fill-opacity:1;">
  <use xlink:href="#glyph0-1" x="1244.613281" y="288.652344"/>
</g>
<g style="fill:rgb(0%,0%,0%);fill-opacity:1;">
  <use xlink:href="#glyph0-2" x="1254.429688" y="288.449219"/>
</g>
<g style="fill:rgb(0%,0%,0%);fill-opacity:1;">
  <use xlink:href="#glyph1-1" x="1265.136719" y="289.34375"/>
</g>
<g style="fill:rgb(0%,0%,0%);fill-opacity:1;">
  <use xlink:href="#glyph0-3" x="1108.941406" y="366.59375"/>
</g>
<g style="fill:rgb(0%,0%,0%);fill-opacity:1;">
  <use xlink:href="#glyph0-2" x="1109.207031" y="379.488281"/>
</g>
<g style="fill:rgb(0%,0%,0%);fill-opacity:1;">
  <use xlink:href="#glyph0-3" x="1108.941406" y="262.671875"/>
</g>
<g style="fill:rgb(0%,0%,0%);fill-opacity:1;">
  <use xlink:href="#glyph0-2" x="1098.316406" y="262.46875"/>
</g>
<g style="fill:rgb(0%,0%,0%);fill-opacity:1;">
  <use xlink:href="#glyph0-3" x="1168.941406" y="366.59375"/>
</g>
<g style="fill:rgb(0%,0%,0%);fill-opacity:1;">
  <use xlink:href="#glyph0-2" x="1180.101563" y="366.390625"/>
</g>
<g style="fill:rgb(0%,0%,0%);fill-opacity:1;">
  <use xlink:href="#glyph0-3" x="1168.941406" y="262.671875"/>
</g>
<g style="fill:rgb(0%,0%,0%);fill-opacity:1;">
  <use xlink:href="#glyph0-2" x="1169.207031" y="249.792969"/>
</g>
<path style="fill:none;stroke-width:0.0433333;stroke-linecap:butt;stroke-linejoin:miter;stroke:rgb(0%,0%,0%);stroke-opacity:1;stroke-miterlimit:10;" d="M 2.402604 1.697982 L 2.402604 1.766081 M 2.305208 1.685612 L 2.305208 1.778451 M 2.207812 1.673242 L 2.207812 1.79082 M 2.110417 1.660873 L 2.110417 1.80319 M 2.013021 1.648503 L 2.013021 1.81556 M 1.915625 1.636133 L 1.915625 1.82806 M 1.818229 1.623763 L 1.818229 1.84043 " transform="matrix(30,0,0,30,1040.074221,256.990231)"/>
<path style="fill:none;stroke-width:0.0433333;stroke-linecap:butt;stroke-linejoin:miter;stroke:rgb(0%,0%,0%);stroke-opacity:1;stroke-miterlimit:10;" d="M 0.87487 2.598112 L 1.195443 3.15319 " transform="matrix(30,0,0,30,1040.074221,256.990231)"/>
<path style="fill:none;stroke-width:0.0433333;stroke-linecap:butt;stroke-linejoin:miter;stroke:rgb(0%,0%,0%);stroke-opacity:1;stroke-miterlimit:10;" d="M 1.0625 2.489779 L 1.383073 3.044857 " transform="matrix(30,0,0,30,1040.074221,256.990231)"/>
<path style="fill:none;stroke-width:0.0433333;stroke-linecap:butt;stroke-linejoin:miter;stroke:rgb(0%,0%,0%);stroke-opacity:1;stroke-miterlimit:10;" d="M 0.99375 2.608919 L 1.289193 2.09707 " transform="matrix(30,0,0,30,1040.074221,256.990231)"/>
<path style=" stroke:none;fill-rule:nonzero;fill:rgb(0%,0%,0%);fill-opacity:1;" d="M 1175.074219 309.601562 L 1195.527344 312.203125 L 1195.527344 305.703125 L 1175.074219 308.300781 "/>
<path style="fill:none;stroke-width:0.0433333;stroke-linecap:butt;stroke-linejoin:miter;stroke:rgb(0%,0%,0%);stroke-opacity:1;stroke-miterlimit:10;" d="M 6.12513 0.866081 L 5.804557 0.310873 " transform="matrix(30,0,0,30,1040.074221,256.990231)"/>
<path style="fill:none;stroke-width:0.0433333;stroke-linecap:butt;stroke-linejoin:miter;stroke:rgb(0%,0%,0%);stroke-opacity:1;stroke-miterlimit:10;" d="M 5.9375 0.974414 L 5.616927 0.419206 " transform="matrix(30,0,0,30,1040.074221,256.990231)"/>
<path style="fill:none;stroke-width:0.0433333;stroke-linecap:butt;stroke-linejoin:miter;stroke:rgb(0%,0%,0%);stroke-opacity:1;stroke-miterlimit:10;" d="M 6.00625 0.855143 L 5.710807 1.366992 " transform="matrix(30,0,0,30,1040.074221,256.990231)"/>
<path style="fill:none;stroke-width:0.0433333;stroke-linecap:butt;stroke-linejoin:miter;stroke:rgb(0%,0%,0%);stroke-opacity:1;stroke-miterlimit:10;" d="M 3.99375 2.608919 L 4.50625 1.721159 " transform="matrix(30,0,0,30,1040.074221,256.990231)"/>
<path style="fill:none;stroke-width:0.0433333;stroke-linecap:butt;stroke-linejoin:miter;stroke:rgb(0%,0%,0%);stroke-opacity:1;stroke-miterlimit:10;" d="M 2.9875 2.598112 L 4.0125 2.598112 " transform="matrix(30,0,0,30,1040.074221,256.990231)"/>
<path style="fill:none;stroke-width:0.0433333;stroke-linecap:butt;stroke-linejoin:miter;stroke:rgb(0%,0%,0%);stroke-opacity:1;stroke-miterlimit:10;" d="M 2.49375 1.721159 L 3.00625 2.608919 " transform="matrix(30,0,0,30,1040.074221,256.990231)"/>
<path style="fill:none;stroke-width:0.0433333;stroke-linecap:butt;stroke-linejoin:miter;stroke:rgb(0%,0%,0%);stroke-opacity:1;stroke-miterlimit:10;" d="M 3.00625 0.855143 L 2.49375 1.742904 " transform="matrix(30,0,0,30,1040.074221,256.990231)"/>
<path style="fill:none;stroke-width:0.0433333;stroke-linecap:butt;stroke-linejoin:miter;stroke:rgb(0%,0%,0%);stroke-opacity:1;stroke-miterlimit:10;" d="M 4.0125 0.866081 L 2.9875 0.866081 " transform="matrix(30,0,0,30,1040.074221,256.990231)"/>
<path style="fill:none;stroke-width:0.0433333;stroke-linecap:butt;stroke-linejoin:miter;stroke:rgb(0%,0%,0%);stroke-opacity:1;stroke-miterlimit:10;" d="M 3.99375 0.855143 L 4.50625 1.742904 " transform="matrix(30,0,0,30,1040.074221,256.990231)"/>
<path style=" stroke:none;fill-rule:nonzero;fill:rgb(0%,0%,0%);fill-opacity:1;" d="M 1129.511719 334.609375 L 1118.582031 348.335938 L 1124.210938 351.585938 L 1130.636719 335.257812 "/>
<path style=" stroke:none;fill-rule:nonzero;fill:rgb(0%,0%,0%);fill-opacity:1;" d="M 1130.636719 282.644531 L 1124.210938 266.316406 L 1118.582031 269.566406 L 1129.511719 283.296875 "/>
<path style="fill:none;stroke-width:0.0433333;stroke-linecap:butt;stroke-linejoin:miter;stroke:rgb(0%,0%,0%);stroke-opacity:1;stroke-miterlimit:10;" d="M 4.016927 2.699675 L 4.079427 2.663477 M 4.052604 2.7903 L 4.140234 2.739779 M 4.088281 2.881055 L 4.200911 2.816081 M 4.124088 2.97181 L 4.261588 2.892383 M 4.159766 3.062565 L 4.322396 2.968555 M 4.195443 3.15319 L 4.383073 3.044857 " transform="matrix(30,0,0,30,1040.074221,256.990231)"/>
<path style="fill:none;stroke-width:0.0433333;stroke-linecap:butt;stroke-linejoin:miter;stroke:rgb(0%,0%,0%);stroke-opacity:1;stroke-miterlimit:10;" d="M 4.079427 0.800586 L 4.016927 0.764518 M 4.140234 0.724284 L 4.052604 0.673763 M 4.200911 0.647982 L 4.088281 0.583008 M 4.261588 0.57181 L 4.124088 0.492383 M 4.322396 0.495508 L 4.159766 0.401628 M 4.383073 0.419206 L 4.195443 0.310873 " transform="matrix(30,0,0,30,1040.074221,256.990231)"/>
<path style="fill:none;stroke-width:0.0433333;stroke-linecap:butt;stroke-linejoin:miter;stroke:rgb(0%,0%,0%);stroke-opacity:1;stroke-miterlimit:10;" d="M 5.9875 0.866081 L 6.704167 0.866081 " transform="matrix(30,0,0,30,1040.074221,256.990231)"/>
<path style="fill:none;stroke-width:0.0433333;stroke-linecap:butt;stroke-linejoin:miter;stroke:rgb(0%,0%,0%);stroke-opacity:1;stroke-miterlimit:10;" d="M 1.0125 2.598112 L 0.295833 2.598112 " transform="matrix(30,0,0,30,1040.074221,256.990231)"/>
<g style="fill:rgb(0%,0%,0%);fill-opacity:1;">
  <use xlink:href="#glyph2-1" x="895.300781" y="416.664062"/>
  <use xlink:href="#glyph2-2" x="908.982422" y="416.664062"/>
  <use xlink:href="#glyph2-3" x="921.707031" y="416.664062"/>
  <use xlink:href="#glyph2-5" x="938.464844" y="416.664062"/>
  <use xlink:href="#glyph2-1" x="946.267578" y="416.664062"/>
  <use xlink:href="#glyph2-2" x="959.949219" y="416.664062"/>
  <use xlink:href="#glyph2-3" x="972.673828" y="416.664062"/>
  <use xlink:href="#glyph2-4" x="989.431641" y="416.664062"/>
  <use xlink:href="#glyph2-2" x="1003.152344" y="416.664062"/>
  <use xlink:href="#glyph2-6" x="1015.876953" y="416.664062"/>
</g>
<g style="fill:rgb(0%,0%,0%);fill-opacity:1;">
  <use xlink:href="#glyph0-1" x="57.859375" y="547.566406"/>
</g>
<g style="fill:rgb(0%,0%,0%);fill-opacity:1;">
  <use xlink:href="#glyph0-2" x="67.675781" y="547.363281"/>
</g>
<g style="fill:rgb(0%,0%,0%);fill-opacity:1;">
  <use xlink:href="#glyph1-1" x="78.382812" y="548.257812"/>
</g>
<g style="fill:rgb(0%,0%,0%);fill-opacity:1;">
  <use xlink:href="#glyph0-3" x="31.207031" y="502.566406"/>
</g>
<g style="fill:rgb(0%,0%,0%);fill-opacity:1;">
  <use xlink:href="#glyph0-1" x="81.984375" y="502.699219"/>
  <use xlink:href="#glyph0-4" x="92.872589" y="502.699219"/>
</g>
<path style="fill:none;stroke-width:0.0433333;stroke-linecap:butt;stroke-linejoin:miter;stroke:rgb(0%,0%,0%);stroke-opacity:1;stroke-miterlimit:10;" d="M 0.866015 1.160334 L 0.866015 0.487548 " transform="matrix(30,0,0,30,37.339874,496.885286)"/>
<path style="fill:none;stroke-width:0.0433333;stroke-linecap:butt;stroke-linejoin:miter;stroke:rgb(0%,0%,0%);stroke-opacity:1;stroke-miterlimit:10;" d="M 0.974348 0.437418 L 0.412499 0.113069 " transform="matrix(30,0,0,30,37.339874,496.885286)"/>
<path style="fill:none;stroke-width:0.0433333;stroke-linecap:butt;stroke-linejoin:miter;stroke:rgb(0%,0%,0%);stroke-opacity:1;stroke-miterlimit:10;" d="M 0.866015 0.625048 L 0.304166 0.300699 " transform="matrix(30,0,0,30,37.339874,496.885286)"/>
<path style="fill:none;stroke-width:0.0433333;stroke-linecap:butt;stroke-linejoin:miter;stroke:rgb(0%,0%,0%);stroke-opacity:1;stroke-miterlimit:10;" d="M 0.855207 0.506298 L 1.342186 0.225048 " transform="matrix(30,0,0,30,37.339874,496.885286)"/>
<path style="fill:none;stroke-width:0.0625;stroke-linecap:butt;stroke-linejoin:miter;stroke:rgb(0%,0%,0%);stroke-opacity:1;stroke-miterlimit:10;" d="M -0.00000109673 -0.0000173251 L 0.499999 -0.0000173251 M 0.249999 -0.250017 L 0.249999 0.249983 " transform="matrix(30,0,0,30,107.746127,519.62552)"/>
<g style="fill:rgb(0%,0%,0%);fill-opacity:1;">
  <use xlink:href="#glyph0-1" x="276.640625" y="464.496094"/>
  <use xlink:href="#glyph0-5" x="287.528839" y="464.496094"/>
  <use xlink:href="#glyph0-6" x="297.411987" y="464.496094"/>
  <use xlink:href="#glyph0-7" x="301.744431" y="464.496094"/>
  <use xlink:href="#glyph0-8" x="308.155533" y="464.496094"/>
  <use xlink:href="#glyph0-4" x="317.711273" y="464.496094"/>
</g>
<g style="fill:rgb(0%,0%,0%);fill-opacity:1;">
  <use xlink:href="#glyph0-3" x="194.453125" y="482.457031"/>
</g>
<g style="fill:rgb(0%,0%,0%);fill-opacity:1;">
  <use xlink:href="#glyph0-3" x="194.453125" y="534.417969"/>
</g>
<g style="fill:rgb(0%,0%,0%);fill-opacity:1;">
  <use xlink:href="#glyph0-1" x="150.125" y="508.4375"/>
</g>
<g style="fill:rgb(0%,0%,0%);fill-opacity:1;">
  <use xlink:href="#glyph0-2" x="133.214844" y="508.234375"/>
</g>
<g style="fill:rgb(0%,0%,0%);fill-opacity:1;">
  <use xlink:href="#glyph1-1" x="143.921875" y="509.128906"/>
</g>
<g style="fill:rgb(0%,0%,0%);fill-opacity:1;">
  <use xlink:href="#glyph0-3" x="284.453125" y="586.378906"/>
</g>
<g style="fill:rgb(0%,0%,0%);fill-opacity:1;">
  <use xlink:href="#glyph0-2" x="295.613281" y="586.175781"/>
</g>
<g style="fill:rgb(0%,0%,0%);fill-opacity:1;">
  <use xlink:href="#glyph0-3" x="284.453125" y="482.457031"/>
</g>
<g style="fill:rgb(0%,0%,0%);fill-opacity:1;">
  <use xlink:href="#glyph0-2" x="295.613281" y="482.253906"/>
</g>
<g style="fill:rgb(0%,0%,0%);fill-opacity:1;">
  <use xlink:href="#glyph0-3" x="224.453125" y="586.378906"/>
</g>
<g style="fill:rgb(0%,0%,0%);fill-opacity:1;">
  <use xlink:href="#glyph0-2" x="213.828125" y="586.175781"/>
</g>
<g style="fill:rgb(0%,0%,0%);fill-opacity:1;">
  <use xlink:href="#glyph0-3" x="314.453125" y="534.417969"/>
</g>
<g style="fill:rgb(0%,0%,0%);fill-opacity:1;">
  <use xlink:href="#glyph0-2" x="325.613281" y="534.214844"/>
</g>
<g style="fill:rgb(0%,0%,0%);fill-opacity:1;">
  <use xlink:href="#glyph0-3" x="224.453125" y="482.457031"/>
</g>
<g style="fill:rgb(0%,0%,0%);fill-opacity:1;">
  <use xlink:href="#glyph0-2" x="224.71875" y="469.578125"/>
</g>
<path style="fill:none;stroke-width:0.0433333;stroke-linecap:butt;stroke-linejoin:miter;stroke:rgb(0%,0%,0%);stroke-opacity:1;stroke-miterlimit:10;" d="M 2.402603 1.697964 L 2.402603 1.766063 M 2.305207 1.685595 L 2.305207 1.778433 M 2.207811 1.673225 L 2.207811 1.790803 M 2.110416 1.660855 L 2.110416 1.803303 M 2.01302 1.648485 L 2.01302 1.815673 M 1.915624 1.636115 L 1.915624 1.828043 M 1.818228 1.623746 L 1.818228 1.840412 " transform="matrix(30,0,0,30,155.585969,476.775911)"/>
<path style="fill:none;stroke-width:0.0433333;stroke-linecap:butt;stroke-linejoin:miter;stroke:rgb(0%,0%,0%);stroke-opacity:1;stroke-miterlimit:10;" d="M 1.062499 0.974397 L 1.383072 0.419188 " transform="matrix(30,0,0,30,155.585969,476.775911)"/>
<path style="fill:none;stroke-width:0.0433333;stroke-linecap:butt;stroke-linejoin:miter;stroke:rgb(0%,0%,0%);stroke-opacity:1;stroke-miterlimit:10;" d="M 0.874869 0.866063 L 1.195442 0.310855 " transform="matrix(30,0,0,30,155.585969,476.775911)"/>
<path style="fill:none;stroke-width:0.0433333;stroke-linecap:butt;stroke-linejoin:miter;stroke:rgb(0%,0%,0%);stroke-opacity:1;stroke-miterlimit:10;" d="M 0.993749 0.855256 L 1.289192 1.366975 " transform="matrix(30,0,0,30,155.585969,476.775911)"/>
<path style="fill:none;stroke-width:0.0433333;stroke-linecap:butt;stroke-linejoin:miter;stroke:rgb(0%,0%,0%);stroke-opacity:1;stroke-miterlimit:10;" d="M 3.006249 2.608902 L 2.493749 1.721272 " transform="matrix(30,0,0,30,155.585969,476.775911)"/>
<path style="fill:none;stroke-width:0.0433333;stroke-linecap:butt;stroke-linejoin:miter;stroke:rgb(0%,0%,0%);stroke-opacity:1;stroke-miterlimit:10;" d="M 4.012499 2.598095 L 2.987499 2.598095 " transform="matrix(30,0,0,30,155.585969,476.775911)"/>
<path style="fill:none;stroke-width:0.0433333;stroke-linecap:butt;stroke-linejoin:miter;stroke:rgb(0%,0%,0%);stroke-opacity:1;stroke-miterlimit:10;" d="M 4.506249 1.721272 L 3.993749 2.608902 " transform="matrix(30,0,0,30,155.585969,476.775911)"/>
<path style="fill:none;stroke-width:0.0433333;stroke-linecap:butt;stroke-linejoin:miter;stroke:rgb(0%,0%,0%);stroke-opacity:1;stroke-miterlimit:10;" d="M 3.993749 0.855256 L 4.506249 1.742886 " transform="matrix(30,0,0,30,155.585969,476.775911)"/>
<path style="fill:none;stroke-width:0.0433333;stroke-linecap:butt;stroke-linejoin:miter;stroke:rgb(0%,0%,0%);stroke-opacity:1;stroke-miterlimit:10;" d="M 2.987499 0.866063 L 4.012499 0.866063 " transform="matrix(30,0,0,30,155.585969,476.775911)"/>
<path style="fill:none;stroke-width:0.0433333;stroke-linecap:butt;stroke-linejoin:miter;stroke:rgb(0%,0%,0%);stroke-opacity:1;stroke-miterlimit:10;" d="M 3.006249 0.855256 L 2.493749 1.742886 " transform="matrix(30,0,0,30,155.585969,476.775911)"/>
<path style="fill:none;stroke-width:0.0433333;stroke-linecap:butt;stroke-linejoin:miter;stroke:rgb(0%,0%,0%);stroke-opacity:1;stroke-miterlimit:10;" d="M 4.016926 2.699657 L 4.079426 2.663459 M 4.052603 2.790282 L 4.140233 2.739761 M 4.08828 2.881037 L 4.20091 2.816063 M 4.124087 2.971793 L 4.261587 2.892365 M 4.159765 3.062548 L 4.322395 2.968668 M 4.195442 3.153173 L 4.383072 3.044839 " transform="matrix(30,0,0,30,155.585969,476.775911)"/>
<path style="fill:none;stroke-width:0.0433333;stroke-linecap:butt;stroke-linejoin:miter;stroke:rgb(0%,0%,0%);stroke-opacity:1;stroke-miterlimit:10;" d="M 4.079426 0.800569 L 4.016926 0.764501 M 4.140233 0.724267 L 4.052603 0.673746 M 4.20091 0.648095 L 4.08828 0.58299 M 4.261587 0.571793 L 4.124087 0.492365 M 4.322395 0.49549 L 4.159765 0.40161 M 4.383072 0.419188 L 4.195442 0.310855 " transform="matrix(30,0,0,30,155.585969,476.775911)"/>
<path style=" stroke:none;fill-rule:nonzero;fill:rgb(0%,0%,0%);fill-opacity:1;" d="M 245.023438 554.394531 L 234.09375 568.121094 L 239.722656 571.371094 L 246.148438 555.042969 "/>
<path style=" stroke:none;fill-rule:nonzero;fill:rgb(0%,0%,0%);fill-opacity:1;" d="M 290.585938 529.386719 L 311.039062 531.988281 L 311.039062 525.488281 L 290.585938 528.085938 "/>
<path style=" stroke:none;fill-rule:nonzero;fill:rgb(0%,0%,0%);fill-opacity:1;" d="M 246.148438 502.433594 L 239.722656 486.101562 L 234.09375 489.351562 L 245.023438 503.082031 "/>
<path style="fill:none;stroke-width:0.0433333;stroke-linecap:butt;stroke-linejoin:miter;stroke:rgb(0%,0%,0%);stroke-opacity:1;stroke-miterlimit:10;" d="M 1.012499 0.866063 L 0.295832 0.866063 " transform="matrix(30,0,0,30,155.585969,476.775911)"/>
<path style=" stroke:none;fill-rule:nonzero;fill:rgb(0%,0%,0%);fill-opacity:1;" d="M 347.816406 520.5625 L 385.316406 520.5625 L 385.316406 523.375 L 392.816406 519.625 L 385.316406 515.875 L 385.316406 518.6875 L 347.816406 518.6875 "/>
<g style="fill:rgb(0%,0%,0%);fill-opacity:1;">
  <use xlink:href="#glyph0-1" x="531.710938" y="451.503906"/>
  <use xlink:href="#glyph0-5" x="542.599152" y="451.503906"/>
  <use xlink:href="#glyph0-6" x="552.4823" y="451.503906"/>
  <use xlink:href="#glyph0-7" x="556.814743" y="451.503906"/>
  <use xlink:href="#glyph0-8" x="563.225845" y="451.503906"/>
  <use xlink:href="#glyph0-4" x="572.781586" y="451.503906"/>
</g>
<g style="fill:rgb(0%,0%,0%);fill-opacity:1;">
  <use xlink:href="#glyph0-3" x="419.523438" y="521.429688"/>
</g>
<g style="fill:rgb(0%,0%,0%);fill-opacity:1;">
  <use xlink:href="#glyph0-3" x="464.523438" y="495.449219"/>
</g>
<g style="fill:rgb(0%,0%,0%);fill-opacity:1;">
  <use xlink:href="#glyph0-1" x="420.195312" y="469.464844"/>
</g>
<g style="fill:rgb(0%,0%,0%);fill-opacity:1;">
  <use xlink:href="#glyph0-2" x="403.285156" y="469.261719"/>
</g>
<g style="fill:rgb(0%,0%,0%);fill-opacity:1;">
  <use xlink:href="#glyph1-1" x="413.992187" y="470.15625"/>
</g>
<g style="fill:rgb(0%,0%,0%);fill-opacity:1;">
  <use xlink:href="#glyph0-3" x="569.523438" y="521.429688"/>
</g>
<g style="fill:rgb(0%,0%,0%);fill-opacity:1;">
  <use xlink:href="#glyph0-3" x="524.523438" y="495.449219"/>
</g>
<g style="fill:rgb(0%,0%,0%);fill-opacity:1;">
  <use xlink:href="#glyph0-1" x="570.195312" y="469.464844"/>
</g>
<g style="fill:rgb(0%,0%,0%);fill-opacity:1;">
  <use xlink:href="#glyph0-2" x="580.011719" y="469.261719"/>
</g>
<g style="fill:rgb(0%,0%,0%);fill-opacity:1;">
  <use xlink:href="#glyph1-1" x="590.71875" y="470.15625"/>
</g>
<g style="fill:rgb(0%,0%,0%);fill-opacity:1;">
  <use xlink:href="#glyph0-3" x="524.523438" y="599.371094"/>
</g>
<g style="fill:rgb(0%,0%,0%);fill-opacity:1;">
  <use xlink:href="#glyph0-2" x="535.683594" y="599.167969"/>
</g>
<g style="fill:rgb(0%,0%,0%);fill-opacity:1;">
  <use xlink:href="#glyph0-3" x="434.523438" y="547.410156"/>
</g>
<g style="fill:rgb(0%,0%,0%);fill-opacity:1;">
  <use xlink:href="#glyph0-2" x="423.898437" y="547.207031"/>
</g>
<g style="fill:rgb(0%,0%,0%);fill-opacity:1;">
  <use xlink:href="#glyph0-3" x="554.523438" y="547.410156"/>
</g>
<g style="fill:rgb(0%,0%,0%);fill-opacity:1;">
  <use xlink:href="#glyph0-2" x="565.683594" y="547.207031"/>
</g>
<g style="fill:rgb(0%,0%,0%);fill-opacity:1;">
  <use xlink:href="#glyph0-3" x="464.523438" y="599.371094"/>
</g>
<g style="fill:rgb(0%,0%,0%);fill-opacity:1;">
  <use xlink:href="#glyph0-2" x="453.898437" y="599.167969"/>
</g>
<path style="fill:none;stroke-width:0.0433333;stroke-linecap:butt;stroke-linejoin:miter;stroke:rgb(0%,0%,0%);stroke-opacity:1;stroke-miterlimit:10;" d="M 1.983072 1.630452 L 1.920572 1.666649 M 1.947395 1.539827 L 1.859765 1.590347 M 1.911718 1.449071 L 1.799087 1.514045 M 1.87591 1.358316 L 1.73841 1.437743 M 1.840233 1.267691 L 1.677603 1.361571 M 1.804556 1.176936 L 1.616926 1.285269 " transform="matrix(30,0,0,30,425.656283,463.785672)"/>
<path style="fill:none;stroke-width:0.0433333;stroke-linecap:butt;stroke-linejoin:miter;stroke:rgb(0%,0%,0%);stroke-opacity:1;stroke-miterlimit:10;" d="M 0.437499 0.757665 L 0.116926 1.312873 " transform="matrix(30,0,0,30,425.656283,463.785672)"/>
<path style="fill:none;stroke-width:0.0433333;stroke-linecap:butt;stroke-linejoin:miter;stroke:rgb(0%,0%,0%);stroke-opacity:1;stroke-miterlimit:10;" d="M 0.625129 0.865998 L 0.304556 1.421207 " transform="matrix(30,0,0,30,425.656283,463.785672)"/>
<path style="fill:none;stroke-width:0.0433333;stroke-linecap:butt;stroke-linejoin:miter;stroke:rgb(0%,0%,0%);stroke-opacity:1;stroke-miterlimit:10;" d="M 0.487499 0.865998 L 1.18177 0.865998 " transform="matrix(30,0,0,30,425.656283,463.785672)"/>
<path style=" stroke:none;fill-rule:nonzero;fill:rgb(0%,0%,0%);fill-opacity:1;" d="M 516.21875 516.070312 L 527.148438 502.34375 L 521.519531 499.09375 L 515.09375 515.421875 "/>
<path style="fill:none;stroke-width:0.0433333;stroke-linecap:butt;stroke-linejoin:miter;stroke:rgb(0%,0%,0%);stroke-opacity:1;stroke-miterlimit:10;" d="M 4.374869 0.865998 L 4.695442 1.421207 " transform="matrix(30,0,0,30,425.656283,463.785672)"/>
<path style="fill:none;stroke-width:0.0433333;stroke-linecap:butt;stroke-linejoin:miter;stroke:rgb(0%,0%,0%);stroke-opacity:1;stroke-miterlimit:10;" d="M 4.562499 0.757665 L 4.883072 1.312873 " transform="matrix(30,0,0,30,425.656283,463.785672)"/>
<path style="fill:none;stroke-width:0.0433333;stroke-linecap:butt;stroke-linejoin:miter;stroke:rgb(0%,0%,0%);stroke-opacity:1;stroke-miterlimit:10;" d="M 4.512499 0.865998 L 3.818228 0.865998 " transform="matrix(30,0,0,30,425.656283,463.785672)"/>
<path style="fill:none;stroke-width:0.0433333;stroke-linecap:butt;stroke-linejoin:miter;stroke:rgb(0%,0%,0%);stroke-opacity:1;stroke-miterlimit:10;" d="M 3.506249 2.608967 L 2.993749 1.721207 " transform="matrix(30,0,0,30,425.656283,463.785672)"/>
<path style="fill:none;stroke-width:0.0433333;stroke-linecap:butt;stroke-linejoin:miter;stroke:rgb(0%,0%,0%);stroke-opacity:1;stroke-miterlimit:10;" d="M 2.993749 3.474983 L 3.506249 2.587222 " transform="matrix(30,0,0,30,425.656283,463.785672)"/>
<path style="fill:none;stroke-width:0.0433333;stroke-linecap:butt;stroke-linejoin:miter;stroke:rgb(0%,0%,0%);stroke-opacity:1;stroke-miterlimit:10;" d="M 1.987499 3.464045 L 3.012499 3.464045 " transform="matrix(30,0,0,30,425.656283,463.785672)"/>
<path style="fill:none;stroke-width:0.0433333;stroke-linecap:butt;stroke-linejoin:miter;stroke:rgb(0%,0%,0%);stroke-opacity:1;stroke-miterlimit:10;" d="M 1.493749 2.587222 L 2.006249 3.474983 " transform="matrix(30,0,0,30,425.656283,463.785672)"/>
<path style="fill:none;stroke-width:0.0433333;stroke-linecap:butt;stroke-linejoin:miter;stroke:rgb(0%,0%,0%);stroke-opacity:1;stroke-miterlimit:10;" d="M 2.006249 1.721207 L 1.493749 2.608967 " transform="matrix(30,0,0,30,425.656283,463.785672)"/>
<path style="fill:none;stroke-width:0.0433333;stroke-linecap:butt;stroke-linejoin:miter;stroke:rgb(0%,0%,0%);stroke-opacity:1;stroke-miterlimit:10;" d="M 1.987499 1.732014 L 3.012499 1.732014 " transform="matrix(30,0,0,30,425.656283,463.785672)"/>
<path style=" stroke:none;fill-rule:nonzero;fill:rgb(0%,0%,0%);fill-opacity:1;" d="M 515.09375 568.035156 L 521.519531 584.363281 L 527.148438 581.113281 L 516.21875 567.382812 "/>
<path style=" stroke:none;fill-rule:nonzero;fill:rgb(0%,0%,0%);fill-opacity:1;" d="M 470.65625 541.078125 L 450.203125 538.476562 L 450.203125 544.976562 L 470.65625 542.378906 "/>
<path style="fill:none;stroke-width:0.0433333;stroke-linecap:butt;stroke-linejoin:miter;stroke:rgb(0%,0%,0%);stroke-opacity:1;stroke-miterlimit:10;" d="M 3.597395 2.632144 L 3.597395 2.564045 M 3.694791 2.644514 L 3.694791 2.551676 M 3.792186 2.656884 L 3.792186 2.539306 M 3.889582 2.669254 L 3.889582 2.526936 M 3.986978 2.681623 L 3.986978 2.514566 M 4.084374 2.693993 L 4.084374 2.502066 M 4.18177 2.706363 L 4.18177 2.489696 " transform="matrix(30,0,0,30,425.656283,463.785672)"/>
<path style="fill:none;stroke-width:0.0433333;stroke-linecap:butt;stroke-linejoin:miter;stroke:rgb(0%,0%,0%);stroke-opacity:1;stroke-miterlimit:10;" d="M 1.920572 3.52954 L 1.983072 3.565608 M 1.859765 3.605842 L 1.947395 3.656363 M 1.799087 3.682144 L 1.911718 3.747118 M 1.73841 3.758316 L 1.87591 3.837873 M 1.677603 3.834618 L 1.840233 3.928498 M 1.616926 3.91092 L 1.804556 4.019254 " transform="matrix(30,0,0,30,425.656283,463.785672)"/>
<path style="fill:none;stroke-width:0.0433333;stroke-linecap:butt;stroke-linejoin:miter;stroke:rgb(0%,0%,0%);stroke-opacity:1;stroke-miterlimit:10;" d="M 4.493749 0.876806 L 4.794791 0.355321 " transform="matrix(30,0,0,30,425.656283,463.785672)"/>
<path style="fill:none;stroke-width:0.0433333;stroke-linecap:butt;stroke-linejoin:miter;stroke:rgb(0%,0%,0%);stroke-opacity:1;stroke-miterlimit:10;" d="M 0.506249 0.876806 L 0.205207 0.355321 " transform="matrix(30,0,0,30,425.656283,463.785672)"/>
<g style="fill:rgb(0%,0%,0%);fill-opacity:1;">
  <use xlink:href="#glyph2-1" x="250.882812" y="630.117188"/>
  <use xlink:href="#glyph2-2" x="264.564453" y="630.117188"/>
  <use xlink:href="#glyph2-3" x="277.289062" y="630.117188"/>
  <use xlink:href="#glyph2-5" x="294.046875" y="630.117188"/>
  <use xlink:href="#glyph2-1" x="301.849609" y="630.117188"/>
  <use xlink:href="#glyph2-2" x="315.53125" y="630.117188"/>
  <use xlink:href="#glyph2-3" x="328.255859" y="630.117188"/>
  <use xlink:href="#glyph2-4" x="345.013672" y="630.117188"/>
  <use xlink:href="#glyph2-2" x="358.734375" y="630.117188"/>
  <use xlink:href="#glyph2-6" x="371.458984" y="630.117188"/>
</g>
<g style="fill:rgb(0%,0%,0%);fill-opacity:1;">
  <use xlink:href="#glyph3-1" x="610.5625" y="643.804688"/>
  <use xlink:href="#glyph3-2" x="620.290039" y="643.804688"/>
  <use xlink:href="#glyph3-3" x="628.90332" y="643.804688"/>
  <use xlink:href="#glyph3-4" x="636.197266" y="643.804688"/>
  <use xlink:href="#glyph3-5" x="645.070312" y="643.804688"/>
  <use xlink:href="#glyph3-6" x="648.959961" y="643.804688"/>
  <use xlink:href="#glyph3-3" x="654.449219" y="643.804688"/>
</g>
</g>
</svg>
