<?xml version="1.0" encoding="UTF-8"?>
<svg xmlns="http://www.w3.org/2000/svg" xmlns:xlink="http://www.w3.org/1999/xlink" width="254pt" height="113pt" viewBox="0 0 254 113" version="1.1">
<defs>
<g>
<symbol overflow="visible" id="glyph0-0">
<path style="stroke:none;" d="M 0.515625 1.84375 L 0.515625 -7.34375 L 5.71875 -7.34375 L 5.71875 1.84375 Z M 1.109375 1.265625 L 5.140625 1.265625 L 5.140625 -6.75 L 1.109375 -6.75 Z "/>
</symbol>
<symbol overflow="visible" id="glyph0-1">
<path style="stroke:none;" d="M 3.5625 -2.859375 C 2.8125 -2.859375 2.289062 -2.769531 2 -2.59375 C 1.707031 -2.425781 1.5625 -2.132812 1.5625 -1.71875 C 1.5625 -1.382812 1.671875 -1.117188 1.890625 -0.921875 C 2.109375 -0.734375 2.40625 -0.640625 2.78125 -0.640625 C 3.300781 -0.640625 3.71875 -0.820312 4.03125 -1.1875 C 4.34375 -1.550781 4.5 -2.039062 4.5 -2.65625 L 4.5 -2.859375 Z M 5.4375 -3.25 L 5.4375 0 L 4.5 0 L 4.5 -0.859375 C 4.28125 -0.515625 4.007812 -0.257812 3.6875 -0.09375 C 3.375 0.0625 2.988281 0.140625 2.53125 0.140625 C 1.945312 0.140625 1.484375 -0.0195312 1.140625 -0.34375 C 0.796875 -0.664062 0.625 -1.101562 0.625 -1.65625 C 0.625 -2.289062 0.835938 -2.769531 1.265625 -3.09375 C 1.691406 -3.425781 2.332031 -3.59375 3.1875 -3.59375 L 4.5 -3.59375 L 4.5 -3.6875 C 4.5 -4.113281 4.351562 -4.441406 4.0625 -4.671875 C 3.78125 -4.910156 3.382812 -5.03125 2.875 -5.03125 C 2.550781 -5.03125 2.234375 -4.988281 1.921875 -4.90625 C 1.617188 -4.832031 1.328125 -4.71875 1.046875 -4.5625 L 1.046875 -5.4375 C 1.390625 -5.5625 1.71875 -5.65625 2.03125 -5.71875 C 2.351562 -5.789062 2.671875 -5.828125 2.984375 -5.828125 C 3.804688 -5.828125 4.421875 -5.613281 4.828125 -5.1875 C 5.234375 -4.757812 5.4375 -4.113281 5.4375 -3.25 Z "/>
</symbol>
<symbol overflow="visible" id="glyph0-2">
<path style="stroke:none;" d="M 5.0625 -2.84375 C 5.0625 -3.53125 4.921875 -4.066406 4.640625 -4.453125 C 4.359375 -4.847656 3.96875 -5.046875 3.46875 -5.046875 C 2.976562 -5.046875 2.59375 -4.847656 2.3125 -4.453125 C 2.03125 -4.066406 1.890625 -3.53125 1.890625 -2.84375 C 1.890625 -2.15625 2.03125 -1.613281 2.3125 -1.21875 C 2.59375 -0.832031 2.976562 -0.640625 3.46875 -0.640625 C 3.96875 -0.640625 4.359375 -0.832031 4.640625 -1.21875 C 4.921875 -1.613281 5.0625 -2.15625 5.0625 -2.84375 Z M 1.890625 -4.828125 C 2.085938 -5.160156 2.332031 -5.410156 2.625 -5.578125 C 2.925781 -5.742188 3.285156 -5.828125 3.703125 -5.828125 C 4.390625 -5.828125 4.945312 -5.550781 5.375 -5 C 5.8125 -4.457031 6.03125 -3.738281 6.03125 -2.84375 C 6.03125 -1.945312 5.8125 -1.222656 5.375 -0.671875 C 4.945312 -0.128906 4.390625 0.140625 3.703125 0.140625 C 3.285156 0.140625 2.925781 0.0625 2.625 -0.09375 C 2.332031 -0.257812 2.085938 -0.515625 1.890625 -0.859375 L 1.890625 0 L 0.9375 0 L 0.9375 -7.90625 L 1.890625 -7.90625 Z "/>
</symbol>
<symbol overflow="visible" id="glyph0-3">
<path style="stroke:none;" d="M 4.609375 -5.515625 L 4.609375 -4.640625 C 4.347656 -4.773438 4.070312 -4.875 3.78125 -4.9375 C 3.5 -5.007812 3.207031 -5.046875 2.90625 -5.046875 C 2.4375 -5.046875 2.085938 -4.972656 1.859375 -4.828125 C 1.628906 -4.691406 1.515625 -4.476562 1.515625 -4.1875 C 1.515625 -3.96875 1.59375 -3.796875 1.75 -3.671875 C 1.914062 -3.554688 2.253906 -3.441406 2.765625 -3.328125 L 3.078125 -3.25 C 3.742188 -3.113281 4.210938 -2.914062 4.484375 -2.65625 C 4.765625 -2.394531 4.90625 -2.03125 4.90625 -1.5625 C 4.90625 -1.039062 4.695312 -0.625 4.28125 -0.3125 C 3.863281 -0.0078125 3.289062 0.140625 2.5625 0.140625 C 2.257812 0.140625 1.941406 0.109375 1.609375 0.046875 C 1.273438 -0.00390625 0.925781 -0.0859375 0.5625 -0.203125 L 0.5625 -1.171875 C 0.90625 -0.992188 1.242188 -0.859375 1.578125 -0.765625 C 1.921875 -0.679688 2.253906 -0.640625 2.578125 -0.640625 C 3.015625 -0.640625 3.351562 -0.710938 3.59375 -0.859375 C 3.832031 -1.015625 3.953125 -1.226562 3.953125 -1.5 C 3.953125 -1.75 3.863281 -1.941406 3.6875 -2.078125 C 3.519531 -2.210938 3.148438 -2.34375 2.578125 -2.46875 L 2.25 -2.546875 C 1.664062 -2.671875 1.242188 -2.859375 0.984375 -3.109375 C 0.734375 -3.359375 0.609375 -3.707031 0.609375 -4.15625 C 0.609375 -4.6875 0.796875 -5.097656 1.171875 -5.390625 C 1.554688 -5.679688 2.097656 -5.828125 2.796875 -5.828125 C 3.140625 -5.828125 3.460938 -5.800781 3.765625 -5.75 C 4.066406 -5.695312 4.347656 -5.617188 4.609375 -5.515625 Z "/>
</symbol>
<symbol overflow="visible" id="glyph0-4">
<path style="stroke:none;" d="M 5.71875 -3.4375 L 5.71875 0 L 4.78125 0 L 4.78125 -3.40625 C 4.78125 -3.945312 4.671875 -4.347656 4.453125 -4.609375 C 4.242188 -4.878906 3.929688 -5.015625 3.515625 -5.015625 C 3.015625 -5.015625 2.617188 -4.851562 2.328125 -4.53125 C 2.035156 -4.207031 1.890625 -3.769531 1.890625 -3.21875 L 1.890625 0 L 0.9375 0 L 0.9375 -5.6875 L 1.890625 -5.6875 L 1.890625 -4.8125 C 2.109375 -5.144531 2.367188 -5.394531 2.671875 -5.5625 C 2.972656 -5.738281 3.320312 -5.828125 3.71875 -5.828125 C 4.375 -5.828125 4.867188 -5.625 5.203125 -5.21875 C 5.546875 -4.8125 5.71875 -4.21875 5.71875 -3.4375 Z "/>
</symbol>
<symbol overflow="visible" id="glyph0-5">
<path style="stroke:none;" d="M 4.71875 -4.828125 L 4.71875 -7.90625 L 5.65625 -7.90625 L 5.65625 0 L 4.71875 0 L 4.71875 -0.859375 C 4.53125 -0.515625 4.285156 -0.257812 3.984375 -0.09375 C 3.679688 0.0625 3.320312 0.140625 2.90625 0.140625 C 2.21875 0.140625 1.65625 -0.128906 1.21875 -0.671875 C 0.789062 -1.222656 0.578125 -1.945312 0.578125 -2.84375 C 0.578125 -3.738281 0.789062 -4.457031 1.21875 -5 C 1.65625 -5.550781 2.21875 -5.828125 2.90625 -5.828125 C 3.320312 -5.828125 3.679688 -5.742188 3.984375 -5.578125 C 4.285156 -5.410156 4.53125 -5.160156 4.71875 -4.828125 Z M 1.546875 -2.84375 C 1.546875 -2.15625 1.6875 -1.613281 1.96875 -1.21875 C 2.25 -0.832031 2.632812 -0.640625 3.125 -0.640625 C 3.625 -0.640625 4.015625 -0.832031 4.296875 -1.21875 C 4.578125 -1.613281 4.71875 -2.15625 4.71875 -2.84375 C 4.71875 -3.53125 4.578125 -4.066406 4.296875 -4.453125 C 4.015625 -4.847656 3.625 -5.046875 3.125 -5.046875 C 2.632812 -5.046875 2.25 -4.847656 1.96875 -4.453125 C 1.6875 -4.066406 1.546875 -3.53125 1.546875 -2.84375 Z "/>
</symbol>
<symbol overflow="visible" id="glyph0-6">
<path style="stroke:none;" d="M 1.296875 -0.859375 L 2.96875 -0.859375 L 2.96875 -6.65625 L 1.140625 -6.28125 L 1.140625 -7.21875 L 2.953125 -7.59375 L 3.984375 -7.59375 L 3.984375 -0.859375 L 5.65625 -0.859375 L 5.65625 0 L 1.296875 0 Z "/>
</symbol>
<symbol overflow="visible" id="glyph0-7">
<path style="stroke:none;" d="M 2 -0.859375 L 5.578125 -0.859375 L 5.578125 0 L 0.765625 0 L 0.765625 -0.859375 C 1.148438 -1.265625 1.675781 -1.804688 2.34375 -2.484375 C 3.019531 -3.160156 3.445312 -3.597656 3.625 -3.796875 C 3.945312 -4.171875 4.171875 -4.484375 4.296875 -4.734375 C 4.429688 -4.992188 4.5 -5.25 4.5 -5.5 C 4.5 -5.894531 4.359375 -6.21875 4.078125 -6.46875 C 3.796875 -6.726562 3.429688 -6.859375 2.984375 -6.859375 C 2.660156 -6.859375 2.316406 -6.800781 1.953125 -6.6875 C 1.597656 -6.582031 1.21875 -6.414062 0.8125 -6.1875 L 0.8125 -7.21875 C 1.226562 -7.382812 1.613281 -7.507812 1.96875 -7.59375 C 2.332031 -7.675781 2.660156 -7.71875 2.953125 -7.71875 C 3.742188 -7.71875 4.367188 -7.519531 4.828125 -7.125 C 5.296875 -6.738281 5.53125 -6.21875 5.53125 -5.5625 C 5.53125 -5.25 5.472656 -4.953125 5.359375 -4.671875 C 5.242188 -4.390625 5.03125 -4.0625 4.71875 -3.6875 C 4.632812 -3.582031 4.363281 -3.296875 3.90625 -2.828125 C 3.457031 -2.359375 2.820312 -1.703125 2 -0.859375 Z "/>
</symbol>
<symbol overflow="visible" id="glyph0-8">
<path style="stroke:none;" d="M 4.21875 -4.09375 C 4.707031 -3.988281 5.085938 -3.769531 5.359375 -3.4375 C 5.640625 -3.101562 5.78125 -2.691406 5.78125 -2.203125 C 5.78125 -1.453125 5.523438 -0.875 5.015625 -0.46875 C 4.503906 -0.0625 3.769531 0.140625 2.8125 0.140625 C 2.5 0.140625 2.171875 0.109375 1.828125 0.046875 C 1.492188 -0.015625 1.148438 -0.109375 0.796875 -0.234375 L 0.796875 -1.21875 C 1.078125 -1.050781 1.382812 -0.925781 1.71875 -0.84375 C 2.0625 -0.757812 2.421875 -0.71875 2.796875 -0.71875 C 3.429688 -0.71875 3.914062 -0.84375 4.25 -1.09375 C 4.59375 -1.351562 4.765625 -1.722656 4.765625 -2.203125 C 4.765625 -2.648438 4.609375 -3 4.296875 -3.25 C 3.984375 -3.507812 3.546875 -3.640625 2.984375 -3.640625 L 2.109375 -3.640625 L 2.109375 -4.46875 L 3.03125 -4.46875 C 3.53125 -4.46875 3.914062 -4.566406 4.1875 -4.765625 C 4.457031 -4.972656 4.59375 -5.269531 4.59375 -5.65625 C 4.59375 -6.039062 4.453125 -6.335938 4.171875 -6.546875 C 3.898438 -6.753906 3.503906 -6.859375 2.984375 -6.859375 C 2.703125 -6.859375 2.398438 -6.828125 2.078125 -6.765625 C 1.753906 -6.703125 1.398438 -6.609375 1.015625 -6.484375 L 1.015625 -7.390625 C 1.410156 -7.503906 1.773438 -7.585938 2.109375 -7.640625 C 2.453125 -7.691406 2.773438 -7.71875 3.078125 -7.71875 C 3.859375 -7.71875 4.472656 -7.539062 4.921875 -7.1875 C 5.378906 -6.832031 5.609375 -6.351562 5.609375 -5.75 C 5.609375 -5.332031 5.488281 -4.976562 5.25 -4.6875 C 5.007812 -4.40625 4.664062 -4.207031 4.21875 -4.09375 Z "/>
</symbol>
<symbol overflow="visible" id="glyph1-0">
<path style="stroke:none;" d="M 0.78125 2.75 L 0.78125 -11 L 8.578125 -11 L 8.578125 2.75 Z M 1.65625 1.890625 L 7.703125 1.890625 L 7.703125 -10.125 L 1.65625 -10.125 Z "/>
</symbol>
<symbol overflow="visible" id="glyph1-1">
<path style="stroke:none;" d="M 10.046875 -10.5 L 10.046875 -8.875 C 9.523438 -9.351562 8.96875 -9.710938 8.375 -9.953125 C 7.789062 -10.191406 7.171875 -10.3125 6.515625 -10.3125 C 5.210938 -10.3125 4.21875 -9.910156 3.53125 -9.109375 C 2.84375 -8.316406 2.5 -7.171875 2.5 -5.671875 C 2.5 -4.171875 2.84375 -3.023438 3.53125 -2.234375 C 4.21875 -1.441406 5.210938 -1.046875 6.515625 -1.046875 C 7.171875 -1.046875 7.789062 -1.164062 8.375 -1.40625 C 8.96875 -1.644531 9.523438 -2.003906 10.046875 -2.484375 L 10.046875 -0.875 C 9.503906 -0.507812 8.929688 -0.234375 8.328125 -0.046875 C 7.734375 0.128906 7.097656 0.21875 6.421875 0.21875 C 4.703125 0.21875 3.347656 -0.304688 2.359375 -1.359375 C 1.367188 -2.410156 0.875 -3.847656 0.875 -5.671875 C 0.875 -7.492188 1.367188 -8.929688 2.359375 -9.984375 C 3.347656 -11.046875 4.703125 -11.578125 6.421875 -11.578125 C 7.109375 -11.578125 7.75 -11.484375 8.34375 -11.296875 C 8.945312 -11.117188 9.515625 -10.851562 10.046875 -10.5 Z "/>
</symbol>
<symbol overflow="visible" id="glyph1-2">
<path style="stroke:none;" d="M 1.53125 -11.375 L 3.0625 -11.375 L 3.0625 -6.703125 L 8.65625 -6.703125 L 8.65625 -11.375 L 10.203125 -11.375 L 10.203125 0 L 8.65625 0 L 8.65625 -5.40625 L 3.0625 -5.40625 L 3.0625 0 L 1.53125 0 Z "/>
</symbol>
<symbol overflow="visible" id="glyph2-0">
<path style="stroke:none;" d="M 0.703125 2.46875 L 0.703125 -9.875 L 7.703125 -9.875 L 7.703125 2.46875 Z M 1.484375 1.703125 L 6.921875 1.703125 L 6.921875 -9.078125 L 1.484375 -9.078125 Z "/>
</symbol>
<symbol overflow="visible" id="glyph2-1">
<path style="stroke:none;" d="M 2.75 -4.875 L 2.75 -1.140625 L 4.96875 -1.140625 C 5.707031 -1.140625 6.253906 -1.289062 6.609375 -1.59375 C 6.972656 -1.90625 7.15625 -2.378906 7.15625 -3.015625 C 7.15625 -3.648438 6.972656 -4.117188 6.609375 -4.421875 C 6.253906 -4.722656 5.707031 -4.875 4.96875 -4.875 Z M 2.75 -9.078125 L 2.75 -6 L 4.796875 -6 C 5.472656 -6 5.972656 -6.125 6.296875 -6.375 C 6.628906 -6.625 6.796875 -7.007812 6.796875 -7.53125 C 6.796875 -8.050781 6.628906 -8.4375 6.296875 -8.6875 C 5.972656 -8.945312 5.472656 -9.078125 4.796875 -9.078125 Z M 1.375 -10.203125 L 4.90625 -10.203125 C 5.957031 -10.203125 6.765625 -9.984375 7.328125 -9.546875 C 7.898438 -9.109375 8.1875 -8.488281 8.1875 -7.6875 C 8.1875 -7.0625 8.039062 -6.5625 7.75 -6.1875 C 7.457031 -5.820312 7.03125 -5.59375 6.46875 -5.5 C 7.144531 -5.351562 7.671875 -5.046875 8.046875 -4.578125 C 8.421875 -4.117188 8.609375 -3.546875 8.609375 -2.859375 C 8.609375 -1.941406 8.296875 -1.234375 7.671875 -0.734375 C 7.054688 -0.242188 6.175781 0 5.03125 0 L 1.375 0 Z "/>
</symbol>
<symbol overflow="visible" id="glyph2-2">
<path style="stroke:none;" d="M 7.875 -4.140625 L 7.875 -3.53125 L 2.078125 -3.53125 C 2.140625 -2.664062 2.398438 -2.003906 2.859375 -1.546875 C 3.328125 -1.097656 3.976562 -0.875 4.8125 -0.875 C 5.300781 -0.875 5.769531 -0.929688 6.21875 -1.046875 C 6.675781 -1.160156 7.128906 -1.335938 7.578125 -1.578125 L 7.578125 -0.390625 C 7.117188 -0.203125 6.648438 -0.0546875 6.171875 0.046875 C 5.703125 0.148438 5.226562 0.203125 4.75 0.203125 C 3.519531 0.203125 2.546875 -0.148438 1.828125 -0.859375 C 1.117188 -1.578125 0.765625 -2.539062 0.765625 -3.75 C 0.765625 -5.007812 1.101562 -6.003906 1.78125 -6.734375 C 2.457031 -7.472656 3.375 -7.84375 4.53125 -7.84375 C 5.5625 -7.84375 6.375 -7.507812 6.96875 -6.84375 C 7.570312 -6.1875 7.875 -5.285156 7.875 -4.140625 Z M 6.609375 -4.515625 C 6.597656 -5.203125 6.40625 -5.75 6.03125 -6.15625 C 5.65625 -6.570312 5.160156 -6.78125 4.546875 -6.78125 C 3.835938 -6.78125 3.269531 -6.578125 2.84375 -6.171875 C 2.425781 -5.773438 2.1875 -5.21875 2.125 -4.5 Z "/>
</symbol>
<symbol overflow="visible" id="glyph2-3">
<path style="stroke:none;" d="M 5.203125 -10.640625 L 5.203125 -9.59375 L 4 -9.59375 C 3.539062 -9.59375 3.222656 -9.5 3.046875 -9.3125 C 2.878906 -9.132812 2.796875 -8.804688 2.796875 -8.328125 L 2.796875 -7.65625 L 4.859375 -7.65625 L 4.859375 -6.671875 L 2.796875 -6.671875 L 2.796875 0 L 1.53125 0 L 1.53125 -6.671875 L 0.328125 -6.671875 L 0.328125 -7.65625 L 1.53125 -7.65625 L 1.53125 -8.1875 C 1.53125 -9.039062 1.726562 -9.660156 2.125 -10.046875 C 2.519531 -10.441406 3.144531 -10.640625 4 -10.640625 Z "/>
</symbol>
<symbol overflow="visible" id="glyph2-4">
<path style="stroke:none;" d="M 4.28125 -6.78125 C 3.613281 -6.78125 3.082031 -6.515625 2.6875 -5.984375 C 2.289062 -5.460938 2.09375 -4.742188 2.09375 -3.828125 C 2.09375 -2.910156 2.285156 -2.1875 2.671875 -1.65625 C 3.066406 -1.132812 3.601562 -0.875 4.28125 -0.875 C 4.957031 -0.875 5.488281 -1.132812 5.875 -1.65625 C 6.269531 -2.1875 6.46875 -2.910156 6.46875 -3.828125 C 6.46875 -4.734375 6.269531 -5.453125 5.875 -5.984375 C 5.488281 -6.515625 4.957031 -6.78125 4.28125 -6.78125 Z M 4.28125 -7.84375 C 5.375 -7.84375 6.234375 -7.484375 6.859375 -6.765625 C 7.484375 -6.054688 7.796875 -5.078125 7.796875 -3.828125 C 7.796875 -2.566406 7.484375 -1.578125 6.859375 -0.859375 C 6.234375 -0.148438 5.375 0.203125 4.28125 0.203125 C 3.1875 0.203125 2.328125 -0.148438 1.703125 -0.859375 C 1.078125 -1.578125 0.765625 -2.566406 0.765625 -3.828125 C 0.765625 -5.078125 1.078125 -6.054688 1.703125 -6.765625 C 2.328125 -7.484375 3.1875 -7.84375 4.28125 -7.84375 Z "/>
</symbol>
<symbol overflow="visible" id="glyph2-5">
<path style="stroke:none;" d="M 5.75 -6.484375 C 5.613281 -6.566406 5.460938 -6.625 5.296875 -6.65625 C 5.128906 -6.695312 4.945312 -6.71875 4.75 -6.71875 C 4.03125 -6.71875 3.476562 -6.484375 3.09375 -6.015625 C 2.71875 -5.554688 2.53125 -4.894531 2.53125 -4.03125 L 2.53125 0 L 1.265625 0 L 1.265625 -7.65625 L 2.53125 -7.65625 L 2.53125 -6.46875 C 2.800781 -6.9375 3.144531 -7.28125 3.5625 -7.5 C 3.988281 -7.726562 4.503906 -7.84375 5.109375 -7.84375 C 5.203125 -7.84375 5.300781 -7.835938 5.40625 -7.828125 C 5.507812 -7.816406 5.625 -7.796875 5.75 -7.765625 Z "/>
</symbol>
</g>
</defs>
<g id="surface3153">
<g style="fill:rgb(0%,0%,0%);fill-opacity:1;">
  <use xlink:href="#glyph0-1" x="65.890625" y="53.429688"/>
  <use xlink:href="#glyph0-2" x="72.267502" y="53.429688"/>
  <use xlink:href="#glyph0-3" x="78.873032" y="53.429688"/>
</g>
<g style="fill:rgb(0%,0%,0%);fill-opacity:1;">
  <use xlink:href="#glyph0-1" x="88.125" y="44.066406"/>
  <use xlink:href="#glyph0-4" x="94.501877" y="44.066406"/>
  <use xlink:href="#glyph0-5" x="101.097244" y="44.066406"/>
  <use xlink:href="#glyph0-6" x="107.702774" y="44.066406"/>
</g>
<g style="fill:rgb(0%,0%,0%);fill-opacity:1;">
  <use xlink:href="#glyph0-1" x="166.105469" y="55.230469"/>
  <use xlink:href="#glyph0-4" x="172.482346" y="55.230469"/>
  <use xlink:href="#glyph0-5" x="179.077713" y="55.230469"/>
  <use xlink:href="#glyph0-7" x="185.683243" y="55.230469"/>
</g>
<g style="fill:rgb(0%,0%,0%);fill-opacity:1;">
  <use xlink:href="#glyph1-1" x="225.429688" y="43.714844"/>
</g>
<g style="fill:rgb(0%,0%,0%);fill-opacity:1;">
  <use xlink:href="#glyph1-2" x="235.246094" y="43.511719"/>
</g>
<g style="fill:rgb(0%,0%,0%);fill-opacity:1;">
  <use xlink:href="#glyph0-8" x="245.949219" y="44.402344"/>
</g>
<g style="fill:rgb(0%,0%,0%);fill-opacity:1;">
  <use xlink:href="#glyph1-1" x="69.59375" y="14.109375"/>
</g>
<g style="fill:rgb(0%,0%,0%);fill-opacity:1;">
  <use xlink:href="#glyph1-2" x="79.410156" y="13.90625"/>
</g>
<g style="fill:rgb(0%,0%,0%);fill-opacity:1;">
  <use xlink:href="#glyph0-8" x="90.117188" y="14.800781"/>
</g>
<g style="fill:rgb(0%,0%,0%);fill-opacity:1;">
  <use xlink:href="#glyph1-1" x="95.6875" y="89.109375"/>
</g>
<g style="fill:rgb(0%,0%,0%);fill-opacity:1;">
  <use xlink:href="#glyph1-2" x="105.503906" y="88.90625"/>
</g>
<g style="fill:rgb(0%,0%,0%);fill-opacity:1;">
  <use xlink:href="#glyph0-8" x="116.210938" y="89.796875"/>
</g>
<g style="fill:rgb(0%,0%,0%);fill-opacity:1;">
  <use xlink:href="#glyph1-1" x="173.441406" y="13.804688"/>
</g>
<g style="fill:rgb(0%,0%,0%);fill-opacity:1;">
  <use xlink:href="#glyph1-2" x="183.253906" y="13.601562"/>
</g>
<g style="fill:rgb(0%,0%,0%);fill-opacity:1;">
  <use xlink:href="#glyph0-8" x="193.960937" y="14.496094"/>
</g>
<g style="fill:rgb(0%,0%,0%);fill-opacity:1;">
  <use xlink:href="#glyph1-1" x="17.648438" y="44.199219"/>
</g>
<g style="fill:rgb(0%,0%,0%);fill-opacity:1;">
  <use xlink:href="#glyph1-2" x="0.738281" y="43.996094"/>
</g>
<g style="fill:rgb(0%,0%,0%);fill-opacity:1;">
  <use xlink:href="#glyph0-8" x="11.445312" y="44.890625"/>
</g>
<path style="fill:none;stroke-width:0.0433333;stroke-linecap:butt;stroke-linejoin:miter;stroke:rgb(0%,0%,0%);stroke-opacity:1;stroke-miterlimit:10;" d="M 0.857552 1.519392 L 1.744531 1.005851 " transform="matrix(30,0,0,30,23.109374,8.125259)"/>
<path style="fill:none;stroke-width:0.0433333;stroke-linecap:butt;stroke-linejoin:miter;stroke:rgb(0%,0%,0%);stroke-opacity:1;stroke-miterlimit:10;" d="M 5.184375 0.995694 L 6.071484 1.504158 " transform="matrix(30,0,0,30,23.109374,8.125259)"/>
<path style="fill:none;stroke-width:0.0433333;stroke-linecap:butt;stroke-linejoin:miter;stroke:rgb(0%,0%,0%);stroke-opacity:1;stroke-miterlimit:10;" d="M 2.588281 1.514314 L 3.47526 1.000773 " transform="matrix(30,0,0,30,23.109374,8.125259)"/>
<path style="fill:none;stroke-width:0.0433333;stroke-linecap:butt;stroke-linejoin:miter;stroke:rgb(0%,0%,0%);stroke-opacity:1;stroke-miterlimit:10;" d="M 6.04987 1.504158 L 6.584635 1.194523 " transform="matrix(30,0,0,30,23.109374,8.125259)"/>
<path style=" stroke:none;fill-rule:nonzero;fill:rgb(0%,0%,0%);fill-opacity:1;" d="M 75.769531 38.488281 L 78.328125 18.617188 L 71.828125 18.632812 L 74.472656 38.488281 "/>
<path style="fill:none;stroke-width:0.0433333;stroke-linecap:butt;stroke-linejoin:miter;stroke:rgb(0%,0%,0%);stroke-opacity:1;stroke-miterlimit:10;" d="M 3.453646 1.000773 L 4.340755 1.509106 " transform="matrix(30,0,0,30,23.109374,8.125259)"/>
<path style=" stroke:none;fill-rule:nonzero;fill:rgb(0%,0%,0%);fill-opacity:1;" d="M 100.433594 53.367188 L 97.875 73.234375 L 104.375 73.222656 L 101.734375 53.363281 "/>
<path style="fill:none;stroke-width:0.0433333;stroke-linecap:butt;stroke-linejoin:miter;stroke:rgb(0%,0%,0%);stroke-opacity:1;stroke-miterlimit:10;" d="M 1.722917 1.005851 L 2.610026 1.514184 " transform="matrix(30,0,0,30,23.109374,8.125259)"/>
<path style=" stroke:none;fill-rule:nonzero;fill:rgb(0%,0%,0%);fill-opacity:1;" d="M 179.617188 38.183594 L 182.171875 18.316406 L 175.671875 18.332031 L 178.316406 38.183594 "/>
<path style="fill:none;stroke-width:0.0433333;stroke-linecap:butt;stroke-linejoin:miter;stroke:rgb(0%,0%,0%);stroke-opacity:1;stroke-miterlimit:10;" d="M 4.319141 1.509236 L 5.20599 0.995694 " transform="matrix(30,0,0,30,23.109374,8.125259)"/>
<path style="fill:none;stroke-width:0.0433333;stroke-linecap:butt;stroke-linejoin:miter;stroke:rgb(0%,0%,0%);stroke-opacity:1;stroke-miterlimit:10;" d="M 0.879167 1.519392 L 0.341536 1.209757 " transform="matrix(30,0,0,30,23.109374,8.125259)"/>
<g style="fill:rgb(0%,0%,0%);fill-opacity:1;">
  <use xlink:href="#glyph2-1" x="103.644531" y="110.804688"/>
  <use xlink:href="#glyph2-2" x="113.249023" y="110.804688"/>
  <use xlink:href="#glyph2-3" x="121.862305" y="110.804688"/>
  <use xlink:href="#glyph2-4" x="126.791016" y="110.804688"/>
  <use xlink:href="#glyph2-5" x="135.356445" y="110.804688"/>
  <use xlink:href="#glyph2-2" x="141.112305" y="110.804688"/>
</g>
</g>
</svg>
